
0                         3.9469912780067226E-4
8.33E-4                   3.8374744550538745E-4
0.001667                  3.725587479467714E-4
0.0025                    3.6134909688500914E-4
0.003333                  3.5014107925064906E-4
0.004167                  3.389296292606399E-4
0.005                     3.277467710072159E-4
0.005833                  3.165833824677947E-4
0.006667                  3.0543035235163824E-4
0.0075                    2.9431857660367633E-4
0.008333                  2.8323873615063606E-4
0.009167                  2.721816197877642E-4
0.01                      2.6117769042619725E-4
0.010833                  2.5021752760592163E-4
0.011667                  2.3929187964820983E-4
0.0125                    2.284306844594356E-4
0.013333                  2.1762445873399377E-4
0.014167                  2.0686394473047606E-4
0.015                     1.9617846973011443E-4
0.015833                  1.8555852384951078E-4
0.016667                  1.7499487649934924E-4
0.0175                    1.6451616425361735E-4
0.018333                  1.5411288557948464E-4
0.019167                  1.4377586882580396E-4
0.02                      1.3353298543796607E-4
0.020833                  1.2337477573574177E-4
0.021667                  1.1329215731343433E-4
0.0225                    1.0331216776362214E-4
0.023333                  9.342542127471224E-5
0.024167                  8.362295346373743E-5
0.025                     7.393090506161257E-5
0.025833                  6.433999459929356E-5
0.026667                  5.484140292325178E-5
0.0275                    4.546031660833863E-5
0.028333                  3.618758740954737E-5
0.029167                  2.7014567006811477E-5
0.03                      1.7965436210205593E-5
0.030833                  9.031207254617521E-6
0.031667                  2.034266248729941E-7
0.0325                    -8.494776597453302E-6
0.033333                  -1.7072204103234383E-5
0.034167                  -2.5537092283020292E-5
0.035                     -3.3867404164052756E-5
0.035833                  -4.207173145435261E-5
0.036667                  -5.015807276412665E-5
0.0375                    -5.8105518106050826E-5
0.038333                  -6.592242700007531E-5
0.039167                  -7.361654129564802E-5
0.04                      -8.116810745616128E-5
0.040833                  -8.858523232173514E-5
0.041667                  -9.587538367412334E-5
0.0425                    -1.030199885956319E-4
0.043333                  -1.1002688247569567E-4
0.044167                  -1.169032433867244E-4
0.045                     -1.236316980273903E-4
0.045833                  -1.3021979328010493E-4
0.046667                  -1.366744035266262E-4
0.0475                    -1.42979369042797E-4
0.048333                  -1.4914193286000505E-4
0.049167                  -1.5516865332696286E-4
0.05                      -1.6104459337644019E-4
0.050833                  -1.6677667853874203E-4
0.051667                  -1.7237114040788483E-4
0.0525                    -1.7781426893081367E-4
0.053333                  -1.8311266016517345E-4
0.054167                  -1.8827220982155858E-4
0.055                     -1.9328043467110902E-4
0.055833                  -1.981435909803623E-4
0.056667                  -2.0286723100671288E-4
0.0575                    -2.0744009379293843E-4
0.058333                  -2.118680871162734E-4
0.059167                  -2.1615641374184475E-4
0.06                      -2.2029502625335788E-4
0.060833                  -2.2428947683201739E-4
0.061667                  -2.2814461419569813E-4
0.0625                    -2.318515917631714E-4
0.063333                  -2.3541560056340494E-4
0.064167                  -2.3884113215745357E-4
0.065                     -2.421205243183236E-4
0.065833                  -2.452586028764477E-4
0.066667                  -2.482595005226803E-4
0.0675                    -2.5111671934016525E-4
0.068333                  -2.538347173778803E-4
0.069167                  -2.564172680902572E-4
0.07                      -2.588590144773227E-4
0.070833                  -2.611640456352183E-4
0.071667                  -2.633357767131684E-4
0.0725                    -2.653699650998516E-4
0.073333                  -2.6727033113061046E-4
0.074167                  -2.690399338191048E-4
0.075                     -2.7067561550055244E-4
0.075833                  -2.721807292500564E-4
0.076667                  -2.735579812965908E-4
0.0775                    -2.748052667886048E-4
0.078333                  -2.7592557428763746E-4
0.079167                  -2.7692126171379507E-4
0.08                      -2.777912424250906E-4
0.080833                  -2.785381444063118E-4
0.081667                  -2.79163982807768E-4
0.0825                    -2.7966865234299294E-4
0.083333                  -2.800544254855438E-4
0.084167                  -2.803229811529866E-4
0.085                     -2.804751565362372E-4
0.085833                  -2.805128747261301E-4
0.086667                  -2.804374858837677E-4
0.0875                    -2.802507289867718E-4
0.088333                  -2.799541848756835E-4
0.089167                  -2.795488833022138E-4
0.09                      -2.790374227537927E-4
0.090833                  -2.784210498823528E-4
0.091667                  -2.7770048318916134E-4
0.0925                    -2.768791370148139E-4
0.093333                  -2.759579327572081E-4
0.094167                  -2.749372875657971E-4
0.095                     -2.738213868139426E-4
0.095833                  -2.7261083638000075E-4
0.096667                  -2.7130576264175693E-4
0.0975                    -2.6991107622275175E-4
0.098333                  -2.6842707795439447E-4
0.099167                  -2.6685361463223286E-4
0.1                       -2.6519627559314774E-4
0.100833                  -2.63455067759284E-4
0.101667                  -2.616295700863532E-4
0.1025                    -2.5972600352276286E-4
0.103333                  -2.5774409282378275E-4
0.104167                  -2.556831613306276E-4
0.105                     -2.535500141315296E-4
0.105833                  -2.5134410609231063E-4
0.106667                  -2.490645175880209E-4
0.1075                    -2.467185901871257E-4
0.108333                  -2.4430552161491435E-4
0.109167                  -2.4182416228815706E-4
0.11                      -2.3928234258662617E-4
0.110833                  -2.3667901625033018E-4
0.111667                  -2.3401281704565687E-4
0.1125                    -2.3129201665472038E-4
0.113333                  -2.2851533833157737E-4
0.114167                  -2.2568121273840866E-4
0.115                     -2.2279830567634843E-4
0.115833                  -2.1986512369296418E-4
0.116667                  -2.1687990807586156E-4
0.1175                    -2.1385167203936617E-4
0.118333                  -2.1077871942620284E-4
0.119167                  -2.0765911600364697E-4
0.12                      -2.045021763211872E-4
0.120833                  -2.0130601568014292E-4
0.121667                  -1.9806853825305565E-4
0.1225                    -1.9479931461259528E-4
0.123333                  -1.9149628578726995E-4
0.124167                  -1.881572082988881E-4
0.125                     -1.847918643288102E-4
0.125833                  -1.813980349514556E-4
0.126667                  -1.7797334294989515E-4
0.1275                    -1.745277387198945E-4
0.128333                  -1.7105885769746053E-4
0.129167                  -1.6756420275817918E-4
0.13                      -1.640538502525752E-4
0.130833                  -1.6052530423958756E-4
0.131667                  -1.5697596139213952E-4
0.1325                    -1.5341598299598375E-4
0.133333                  -1.498427558915705E-4
0.134167                  -1.4625358408319004E-4
0.135                     -1.4265867410945013E-4
0.135833                  -1.390553096014871E-4
0.136667                  -1.354407152170807E-4
0.1375                    -1.3182510449069417E-4
0.138333                  -1.282056716600286E-4
0.139167                  -1.2457957510695185E-4
0.14                      -1.2095699861056205E-4
0.140833                  -1.1733506059571131E-4
0.141667                  -1.1371086595118877E-4
0.1425                    -1.1009453352581262E-4
0.143333                  -1.0648311923848762E-4
0.144167                  -1.0287368694519475E-4
0.145                     -9.927625702950837E-5
0.145833                  -9.568783589986817E-5
0.146667                  -9.21054584864741E-5
0.1475                    -8.853901486643191E-5
0.148333                  -8.498547458869443E-5
0.149167                  -8.144185538138804E-5
0.15                      -7.79178869143013E-5
0.150833                  -7.44105141515542E-5
0.151667                  -7.091674893385175E-5
0.1525                    -6.744613220114117E-5
0.153333                  -6.399559620201956E-5
0.154167                  -6.056215777084985E-5
0.155                     -5.715514260392716E-5
0.155833                  -5.377148167300321E-5
0.156667                  -5.04082072311391E-5
0.1575                    -4.70744050494823E-5
0.158333                  -4.3767015806188284E-5
0.159167                  -4.048309712429938E-5
0.16                      -3.723147201480002E-5
0.160833                  -3.4009101369392575E-5
0.161667                  -3.081307764160137E-5
0.1625                    -2.765194010229743E-5
0.163333                  -2.452267986936146E-5
0.164167                  -2.1422433182316E-5
0.165                     -1.835943644778487E-5
0.165833                  -1.533072051205508E-5
0.166667                  -1.2333473838483182E-5
0.1675                    -9.375612696864048E-6
0.168333                  -6.454216639683051E-6
0.169167                  -3.5665342659922243E-6
0.17                      -7.201462742126752E-7
0.170833                  2.0878106343306994E-6
0.171667                  4.860020346582905E-6
0.1725                    7.589251348866438E-6
0.173333                  1.0278301893456947E-5
0.174167                  1.2929781513325121E-5
0.175                     1.5536819696109073E-5
0.175833                  1.8102142299130616E-5
0.176667                  2.0628278204655493E-5
0.1775                    2.3108727950456963E-5
0.178333                  2.554613820563725E-5
0.179167                  2.7942951446627536E-5
0.18                      3.029304757591976E-5
0.180833                  3.259898783903955E-5
0.181667                  3.4863123092743465E-5
0.1825                    3.707971922539941E-5
0.183333                  3.925124637961654E-5
0.184167                  4.137995911788285E-5
0.185                     4.346051428376605E-5
0.185833                  4.54952857939123E-5
0.186667                  4.748642777393741E-5
0.1875                    4.9428991391592465E-5
0.188333                  5.1325249763674506E-5
0.189167                  5.317725296519012E-5
0.19                      5.498044830367542E-5
0.190833                  5.673700406946879E-5
0.191667                  5.8448863191065047E-5
0.1925                    6.011186943642173E-5
0.193333                  6.172808277997161E-5
0.194167                  6.329933641766783E-5
0.195                     6.482186946077083E-5
0.195833                  6.629763060751338E-5
0.196667                  6.772834123250432E-5
0.1975                    6.911063329750757E-5
0.198333                  7.044634178287024E-5
0.199167                  7.17370746386466E-5
0.2                       7.297985287094447E-5
0.200833                  7.417639580591314E-5
0.201667                  7.532819683901194E-5
0.2025                    7.643266096734789E-5
0.203333                  7.749139042082556E-5
0.204167                  7.850576336569635E-5
0.205                     7.947356255770111E-5
0.205833                  8.039627216628812E-5
0.206667                  8.127515489477909E-5
0.2075                    8.210836391647338E-5
0.208333                  8.289726483813156E-5
0.209167                  8.364300509142806E-5
0.21                      8.434409988495343E-5
0.210833                  8.5001796207178E-5
0.211667                  8.561712681512356E-5
0.2125                    8.618895960339594E-5
0.213333                  8.671842331400808E-5
0.214167                  8.720643701427613E-5
0.215                     8.76522110390831E-5
0.215833                  8.805675666610838E-5
0.216667                  8.842088062595936E-5
0.2175                    8.87441246250327E-5
0.218333                  8.902738364821541E-5
0.219167                  8.927135379258344E-5
0.22                      8.947589631513491E-5
0.220833                  8.96417914503931E-5
0.221667                  8.976962669262984E-5
0.2225                    8.985957035127324E-5
0.223333                  8.99122898019173E-5
0.224167                  8.992826627559917E-5
0.225                     8.990796202827516E-5
0.225833                  8.985193379797577E-5
0.226667                  8.976055917847832E-5
0.2275                    8.963458073164615E-5
0.228333                  8.947444708610583E-5
0.229167                  8.92804350914301E-5
0.23                      8.905355350906217E-5
0.230833                  8.87941456728501E-5
0.231667                  8.850239082561071E-5
0.2325                    8.817954942705463E-5
0.233333                  8.782586259483853E-5
0.234167                  8.744141532629711E-5
0.235                     8.702770494994089E-5
0.235833                  8.658487368932221E-5
0.236667                  8.6112915859527E-5
0.2375                    8.561355056758528E-5
0.238333                  8.50868246848083E-5
0.239167                  8.45326455892641E-5
0.24                      8.395293888022717E-5
0.240833                  8.334765981766569E-5
0.241667                  8.271663274808024E-5
0.2425                    8.206197434311707E-5
0.243333                  8.138355217006159E-5
0.244167                  8.068111158890783E-5
0.245                     7.995694485181597E-5
0.245833                  7.92108359080574E-5
0.246667                  7.844245529546029E-5
0.2475                    7.765425534184825E-5
0.248333                  7.684594058771042E-5
0.249167                  7.601711101251805E-5
0.25                      7.517036355855907E-5
0.250833                  7.43053276809522E-5
0.251667                  7.342153714448617E-5
0.2525                    7.252171814223773E-5
0.253333                  7.160542946139192E-5
0.254167                  7.06721430558276E-5
0.255                     6.972469915629567E-5
0.255833                  6.876259037327847E-5
0.256667                  6.778523129593411E-5
0.2575                    6.679556117799332E-5
0.258333                  6.579301099911665E-5
0.259167                  6.477694245419199E-5
0.26                      6.375037905149942E-5
0.260833                  6.271269472082994E-5
0.261667                  6.166320274049378E-5
0.2625                    6.060499639456392E-5
0.263333                  5.953739716212434E-5
0.264167                  5.845967437173823E-5
0.265                     5.7374976936166034E-5
0.265833                  5.6282578482613504E-5
0.266667                  5.5181708831510705E-5
0.2675                    5.407555874642601E-5
0.268333                  5.296335858482249E-5
0.269167                  5.1844303059402186E-5
0.27                      5.072161141225431E-5
0.270833                  4.959447528007776E-5
0.271667                  4.846205861259251E-5
0.2725                    4.732759619646576E-5
0.273333                  4.61902454484289E-5
0.274167                  4.504914383050577E-5
0.275                     4.390752920824481E-5
0.275833                  4.276452921633642E-5
0.276667                  4.16192590220489E-5
0.2775                    4.047494759981785E-5
0.278333                  3.933069716336012E-5
0.279167                  3.8185604683853385E-5
0.28                      3.704287879431833E-5
0.280833                  3.590160055930664E-5
0.281667                  3.4760852746496584E-5
0.2825                    3.3623812738843856E-5
0.283333                  3.2489544621683465E-5
0.284167                  3.1357120835722855E-5
0.285                     3.0229677165670056E-5
0.285833                  2.9106264774279313E-5
0.286667                  2.7985949526249532E-5
0.2875                    2.6871815835819495E-5
0.288333                  2.5762905877224353E-5
0.289167                  2.4658282554599005E-5
0.29                      2.3560969730081013E-5
0.290833                  2.2470004389651057E-5
0.291667                  2.1384449950816624E-5
0.2925                    2.030726114159422E-5
0.293333                  1.9237473419249595E-5
0.294167                  1.8174154037937075E-5
0.295                     1.7120180619297007E-5
0.295833                  1.6074590601298186E-5
0.296667                  1.5036458242566137E-5
0.2975                    1.4008576700161064E-5
0.298333                  1.2989988746153852E-5
0.299167                  1.1979778649965545E-5
0.3                       1.0980648363437823E-5
0.300833                  9.99164918400039E-6
0.301667                  9.011878231949179E-6
0.3025                    8.04394013227325E-6
0.303333                  7.086897731019158E-6
0.304167                  6.139863669283927E-6
0.305                     5.205339741309617E-6
0.305833                  4.282403192565972E-6
0.306667                  3.3701846827301086E-6
0.3075                    2.4710782840702084E-6
0.308333                  1.5841783177694536E-6
0.309167                  7.086357832252968E-7
0.31                      -1.532672508804638E-7
0.310833                  -1.0024168914287908E-6
0.311667                  -1.8396396532695688E-6
0.3125                    -2.6627691535091345E-6
0.313333                  -3.47266961064884E-6
0.314167                  -4.270143086552649E-6
0.315                     -5.05314197442657E-6
0.315833                  -5.822506469557765E-6
0.316667                  -6.5790123914810425E-6
0.3175                    -7.32073342008049E-6
0.318333                  -8.048483775898283E-6
0.319167                  -8.763011422840429E-6
0.32                      -9.46251327142894E-6
0.320833                  -1.0147775797714847E-5
0.321667                  -1.081951767380143E-5
0.3225                    -1.1476060431997405E-5
0.323333                  -1.2118161215657713E-5
0.324167                  -1.2746508142608218E-5
0.325                     -1.3359548221953647E-5
0.325833                  -1.3958007856304424E-5
0.326667                  -1.4542543518309607E-5
0.3275                    -1.5111728030587172E-5
0.328333                  -1.5666255823968067E-5
0.329167                  -1.620675080473494E-5
0.33                      -1.673191144380164E-5
0.330833                  -1.7242399146175034E-5
0.331667                  -1.773880449450808E-5
0.3325                    -1.821995096359247E-5
0.333333                  -1.868646604886175E-5
0.334167                  -1.913890641470883E-5
0.335                     -1.957621943491077E-5
0.335833                  -1.999899798056619E-5
0.336667                  -2.0407764359006667E-5
0.3375                    -2.0801588300596734E-5
0.338333                  -2.1181027500991406E-5
0.339167                  -2.1546569623979902E-5
0.34                      -2.189740479835822E-5
0.340833                  -2.2234055152294977E-5
0.341667                  -2.2556973566532953E-5
0.3425                    -2.2865468217701524E-5
0.343333                  -2.3160025428762647E-5
0.344167                  -2.344106329831998E-5
0.345                     -2.370800533224965E-5
0.345833                  -2.3961301958743928E-5
0.346667                  -2.4201336630607915E-5
0.3475                    -2.4427645120446228E-5
0.348333                  -2.4640642014547446E-5
0.349167                  -2.4840676385072876E-5
0.35                      -2.5027392889181925E-5
0.350833                  -2.5201170460754353E-5
0.351667                  -2.5362324178284462E-5
0.3525                    -2.5510603907876866E-5
0.353333                  -2.5646353250050317E-5
0.354167                  -2.5769853791853118E-5
0.355                     -2.5880956663986693E-5
0.355833                  -2.5979970575183737E-5
0.356667                  -2.6067144232622495E-5
0.3575                    -2.6142425843318437E-5
0.358333                  -2.620608978249734E-5
0.359167                  -2.6258352588955535E-5
0.36                      -2.6299255140949306E-5
0.360833                  -2.6329038146195822E-5
0.361667                  -2.6347886781983162E-5
0.3625                    -2.635592999913136E-5
0.363333                  -2.6353375606227602E-5
0.364167                  -2.634037831116439E-5
0.365                     -2.6317150372713426E-5
0.365833                  -2.6283867561683218E-5
0.366667                  -2.6240655088821773E-5
0.3675                    -2.61878036130566E-5
0.368333                  -2.6125457815695125E-5
0.369167                  -2.6053714453822617E-5
0.37                      -2.5972937561777917E-5
0.370833                  -2.5883241757890826E-5
0.371667                  -2.57846964533363E-5
0.3725                    -2.567773394012631E-5
0.373333                  -2.556243987117205E-5
0.374167                  -2.5438857475959618E-5
0.375                     -2.5307482117135023E-5
0.375833                  -2.5168371643229487E-5
0.376667                  -2.5021544315700833E-5
0.3775                    -2.4867553334827784E-5
0.378333                  -2.470642996120239E-5
0.379167                  -2.4538168743730616E-5
0.38                      -2.436337546493956E-5
0.380833                  -2.4182056061722362E-5
0.381667                  -2.3994182660456003E-5
0.3825                    -2.380040836910298E-5
0.383333                  -2.3600715106436727E-5
0.384167                  -2.3395053893344586E-5
0.385                     -2.3184119927597384E-5
0.385833                  -2.2967872447897396E-5
0.386667                  -2.2746242707440194E-5
0.3875                    -2.2519962799421287E-5
0.388333                  -2.2288970646699637E-5
0.389167                  -2.2053179085898777E-5
0.39                      -2.1813351972687286E-5
0.390833                  -2.156940729706437E-5
0.391667                  -2.1321240836945416E-5
0.3925                    -2.1069643158157213E-5
0.393333                  -2.081451371254781E-5
0.394167                  -2.0555732577737647E-5
0.395                     -2.029411207605076E-5
0.395833                  -2.002953452107753E-5
0.396667                  -1.9761865642533704E-5
0.3975                    -1.9491934681833135E-5
0.398333                  -1.9219608212696834E-5
0.399167                  -1.8944738957474902E-5
0.4                       -1.866816837183305E-5
0.400833                  -1.8389748680262103E-5
0.401667                  -1.8109320920664794E-5
0.4025                    -1.782773420604683E-5
0.403333                  -1.7544827788606643E-5
0.404167                  -1.726043232157554E-5
0.405                     -1.6975400180866722E-5
0.405833                  -1.668955900377159E-5
0.406667                  -1.6402730330287484E-5
0.4075                    -1.611576558072718E-5
0.408333                  -1.58284821097788E-5
0.409167                  -1.5540693582507525E-5
0.41                      -1.5253246433365836E-5
0.410833                  -1.4965949036533845E-5
0.411667                  -1.4678608382634515E-5
0.4125                    -1.4392062089651402E-5
0.413333                  -1.4106110818272737E-5
0.414167                  -1.3820556043016145E-5
0.415                     -1.353622294484584E-5
0.415833                  -1.325290569818985E-5
0.416667                  -1.2970401373935581E-5
0.4175                    -1.2689519314548375E-5
0.418333                  -1.2410048391547429E-5
0.419167                  -1.2131782334921066E-5
0.42                      -1.1855511474663728E-5
0.420833                  -1.158102051484323E-5
0.421667                  -1.1308100854319534E-5
0.4225                    -1.1037520871222782E-5
0.423333                  -1.0769062186137109E-5
0.424167                  -1.0502514820800501E-5
0.425                     -1.0238622502528855E-5
0.425833                  -9.977164797678785E-6
0.426667                  -9.717931246504072E-6
0.4275                    -9.461638472090196E-6
0.428333                  -9.20806495840916E-6
0.429167                  -8.957000598820388E-6
0.43                      -8.709132708523962E-6
0.430833                  -8.464239600527377E-6
0.431667                  -8.222112293750984E-6
0.4325                    -7.983406843840887E-6
0.433333                  -7.74790224236494E-6
0.434167                  -7.515391341559177E-6
0.435                     -7.286497240610385E-6
0.435833                  -7.061000394545326E-6
0.436667                  -6.838696131864588E-6
0.4375                    -6.620173153002759E-6
0.438333                  -6.405214096100058E-6
0.439167                  -6.193617342149758E-6
0.44                      -5.9859360060193175E-6
0.440833                  -5.7819555615888945E-6
0.441667                  -5.581477952058162E-6
0.4425                    -5.3850197733906615E-6
0.443333                  -5.1923699204577304E-6
0.444167                  -5.0033343413623E-6
0.445                     -4.818392431772001E-6
0.445833                  -4.637337024726399E-6
0.446667                  -4.459978448978352E-6
0.4475                    -4.286758467390818E-6
0.448333                  -4.117474300145078E-6
0.449167                  -3.951940966146477E-6
0.45                      -3.7905624078552787E-6
0.450833                  -3.633140613612839E-6
0.451667                  -3.479495536361346E-6
0.4525                    -3.329993350277007E-6
0.453333                  -3.1844411260347384E-6
0.454167                  -3.0426639296234417E-6
0.455                     -2.9049904542104627E-6
0.455833                  -2.7712330996366754E-6
0.456667                  -2.6412221613176433E-6
0.4575                    -2.51524936611757E-6
0.458333                  -2.393132625243381E-6
0.459167                  -2.2747075179432496E-6
0.46                      -2.1602295406239246E-6
0.460833                  -2.0495222338098263E-6
0.461667                  -1.942426455607941E-6
0.4625                    -1.8391624205656375E-6
0.463333                  -1.739559354295039E-6
0.464167                  -1.6434633315859589E-6
0.465                     -1.551060437752977E-6
0.465833                  -1.462185579300973E-6
0.466667                  -1.37668993027857E-6
0.4675                    -1.294726794315097E-6
0.468333                  -1.2161366966580116E-6
0.469167                  -1.1407757411598823E-6
0.47                      -1.0687659819150272E-6
0.470833                  -9.999534455273193E-7
0.471667                  -9.34198946773622E-7
0.4725                    -8.715949965786302E-7
0.473333                  -8.119929528302278E-7
0.474167                  -7.55258076253181E-7
0.475                     -7.014552038513196E-7
0.475833                  -6.504408052644347E-7
0.476667                  -6.020842792531972E-7
0.4775                    -5.564248093421671E-7
0.478333                  -5.133237109836088E-7
0.479167                  -4.7265417380042055E-7
0.48                      -4.344318873262931E-7
0.480833                  -3.985227038971765E-7
0.481667                  -3.6480322097469507E-7
0.4825                    -3.3326792011288047E-7
0.483333                  -3.0378684212333634E-7
0.484167                  -2.762395776193861E-7
0.485                     -2.5060179932164906E-7
0.485833                  -2.2674735256268483E-7
0.486667                  -2.0455837833336744E-7
0.4875                    -1.8399423986067089E-7
0.488333                  -1.6493217104821158E-7
0.489167                  -1.472563968387023E-7
0.49                      -1.309125564311063E-7
0.490833                  -1.1578082862810312E-7
0.491667                  -1.0174703614918557E-7
0.4925                    -8.874575219450573E-8
0.493333                  -7.665963369387927E-8
0.494167                  -6.537560300484141E-8
0.495                     -5.481989186886064E-8
0.495833                  -4.487713977575292E-8
0.496667                  -3.543422734990452E-8
0.4975                    -2.6404036011049172E-8
0.498333                  -1.759320269682872E-8
0.499167                  -8.160322045725798E-9
0.5                       8.341940282767712E-9
