
0                         0.002768550572992492
8.33E-4                   0.002666371405872324
0.001667                  0.002511835218539787
0.0025                    0.002295515099540678
0.003333                  0.0020230672727823105
0.004167                  0.001703531786391732
0.005                     0.0013464021055771868
0.005833                  9.626738105844569E-4
0.006667                  5.638545850833605E-4
0.0075                    1.6059870969943778E-4
0.008333                  -2.3568950208193538E-4
0.009167                  -6.141319031312425E-4
0.01                      -9.655323220096661E-4
0.010833                  -0.001280776827122246
0.011667                  -0.0015521071958634588
0.0125                    -0.0017738140129573172
0.013333                  -0.0019410150845971673
0.014167                  -0.0020506287377323467
0.015                     -0.0021014802770410817
0.015833                  -0.0020937129070130464
0.016667                  -0.002029258101430957
0.0175                    -0.001911378630488349
0.018333                  -0.0017447977609917765
0.019167                  -0.0015355980364525168
0.02                      -0.0012903538035123957
0.020833                  -0.0010168896384230445
0.021667                  -7.236780306516175E-4
0.0225                    -4.1879769787314723E-4
0.023333                  -1.1109249639937833E-4
0.024167                  1.9075021872572352E-4
0.025                     4.7915787090762663E-4
0.025833                  7.464168164602346E-4
0.026667                  9.856718382443164E-4
0.0275                    0.001191583994633804
0.028333                  0.00135927915309746
0.029167                  0.0014851854718470625
0.03                      0.0015672617682124315
0.030833                  0.0016043793061852234
0.031667                  0.0015968149063200101
0.0325                    0.001546031686297254
0.033333                  0.001454603009163929
0.034167                  0.0013262742542872142
0.035                     0.001165383837488564
0.035833                  9.773026502643326E-4
0.036667                  7.680854145601239E-4
0.0375                    5.43696716753575E-4
0.038333                  3.1082103370981307E-4
0.039167                  7.621875380442323E-5
0.04                      -1.540459932714326E-4
0.040833                  -3.7364432161348656E-4
0.041667                  -5.767472607145064E-4
0.0425                    -7.586158956697316E-4
0.043333                  -9.147262345835861E-4
0.044167                  -0.0010414660511520197
0.045                     -0.0011364200555240948
0.045833                  -0.0011977780387616695
0.046667                  -0.0012248066610911642
0.0475                    -0.0012177880319933965
0.048333                  -0.0011778261735383346
0.049167                  -0.0011070019886211834
0.05                      -0.0010080080048367826
0.050833                  -8.843657211277888E-4
0.051667                  -7.402535215987803E-4
0.0525                    -5.799478106395689E-4
0.053333                  -4.083667939223982E-4
0.054167                  -2.3063834313225877E-4
0.055                     -5.149394313682357E-5
0.055833                  1.2401487624862526E-4
0.056667                  2.9108646277838037E-4
0.0575                    4.4567683919876586E-4
0.058333                  5.83792131905313E-4
0.059167                  7.020518519553407E-4
0.06                      7.979878670671553E-4
0.060833                  8.695102553582041E-4
0.061667                  9.153329049983546E-4
0.0625                    9.350109353858195E-4
0.063333                  9.286905402232426E-4
0.064167                  8.973087688102195E-4
0.065                     8.423820914712428E-4
0.065833                  7.660753935554194E-4
0.066667                  6.711477769729831E-4
0.0675                    5.605620579347031E-4
0.068333                  4.3783063696064807E-4
0.069167                  3.067407978415169E-4
0.07                      1.708910366723756E-4
0.070833                  3.42103187213653E-5
0.071667                  -9.945488171577126E-5
0.0725                    -2.2676310906991396E-4
0.073333                  -3.4432079363808733E-4
0.074167                  -4.4912567029391036E-4
0.075                     -5.388528313447897E-4
0.075833                  -6.113929699711658E-4
0.076667                  -6.652201771219015E-4
0.0775                    -6.994858821505756E-4
0.078333                  -7.13752523258784E-4
0.079167                  -7.082060020542324E-4
0.08                      -6.835513127156107E-4
0.080833                  -6.409878375955285E-4
0.081667                  -5.822295612966142E-4
0.0825                    -5.092430233831835E-4
0.083333                  -4.2445020649409915E-4
0.084167                  -3.305675439516351E-4
0.085                     -2.302603342941902E-4
0.085833                  -1.2650717304937405E-4
0.086667                  -2.2310213935145405E-5
0.0875                    7.964637812047939E-5
0.088333                  1.765688241223966E-4
0.089167                  2.658939802252444E-4
0.09                      3.455473907785246E-4
0.090833                  4.135575812712267E-4
0.091667                  4.683631948350261E-4
0.0925                    5.089341125359025E-4
0.093333                  5.345143107067177E-4
0.094167                  5.448268506084849E-4
0.095                     5.400409949388333E-4
0.095833                  5.206931617040487E-4
0.096667                  4.8775025279480805E-4
0.0975                    4.4244307059526763E-4
0.098333                  3.863692369647193E-4
0.099167                  3.214116775585313E-4
0.1                       2.4948821102914784E-4
0.100833                  1.7279747699509886E-4
0.101667                  9.362348990688091E-5
0.1025                    1.4066768117625497E-5
0.103333                  -6.363589977966814E-5
0.104167                  -1.3736583692714016E-4
0.105                     -2.0534548716286767E-4
0.105833                  -2.658255605596325E-4
0.106667                  -3.173340964056916E-4
0.1075                    -3.588052734527748E-4
0.108333                  -3.893459846262514E-4
0.109167                  -4.084218350495923E-4
0.11                      -4.1586938365518507E-4
0.110833                  -4.1179016590499866E-4
0.111667                  -3.966353459530836E-4
0.1125                    -3.7110808394239046E-4
0.113333                  -3.361993176762594E-4
0.114167                  -2.9315960024292305E-4
0.115                     -2.4332340564702396E-4
0.115833                  -1.8826669209730961E-4
0.116667                  -1.296817502317507E-4
0.1175                    -6.917088781636658E-5
0.118333                  -8.478986086569469E-6
0.119167                  5.069145628195193E-5
0.12                      1.0686655378668138E-4
0.120833                  1.5855395707071922E-4
0.121667                  2.044395053044164E-4
0.1225                    2.435115141812205E-4
0.123333                  2.7485808631575197E-4
0.124167                  2.978285627044091E-4
0.125                     3.120719108636575E-4
0.125833                  3.1742213358392494E-4
0.126667                  3.1398968896163566E-4
0.1275                    3.0211205147009484E-4
0.128333                  2.823467673700172E-4
0.129167                  2.5547722709744203E-4
0.13                      2.2239414670348145E-4
0.130833                  1.8418906942516526E-4
0.131667                  1.4208016169408238E-4
0.1325                    9.725796306760796E-5
0.133333                  5.1049259065973296E-5
0.134167                  4.7867899964845115E-6
0.135                     -4.034176872631703E-5
0.135833                  -8.310361137787883E-5
0.136667                  -1.2237214690220623E-4
0.1375                    -1.5723977426404227E-4
0.138333                  -1.8684795250385655E-4
0.139167                  -2.1052251924565576E-4
0.14                      -2.2782501154191488E-4
0.140833                  -2.38441036430836E-4
0.141667                  -2.4226926565096605E-4
0.1425                    -2.394043500931512E-4
0.143333                  -2.3010488952508726E-4
0.144167                  -2.1481911076228955E-4
0.145                     -1.941089735910654E-4
0.145833                  -1.6869869803719866E-4
0.146667                  -1.3943631693919694E-4
0.1475                    -1.0718152243624362E-4
0.148333                  -7.29168120921846E-5
0.149167                  -3.765915308906571E-5
0.15                      -2.3407405728575583E-6
0.150833                  3.204833376952257E-5
0.151667                  6.45735814668642E-5
0.1525                    9.445401084112036E-5
0.153333                  1.2092384745427002E-4
0.154167                  1.4334262141897365E-4
0.155                     1.6125059431327648E-4
0.155833                  1.7426681150478553E-4
0.156667                  1.821703399138569E-4
0.1575                    1.8490376093054743E-4
0.158333                  1.825283921569763E-4
0.159167                  1.752600627139557E-4
0.16                      1.6342411274394565E-4
0.160833                  1.47473559270789E-4
0.161667                  1.279747779378636E-4
0.1625                    1.0552849593130019E-4
0.163333                  8.084149938184146E-5
0.164167                  5.466967203591118E-5
0.165                     2.772622514959188E-5
0.165833                  7.858070012752269E-7
0.166667                  -2.5398300069197076E-5
0.1675                    -5.017622888249248E-5
0.168333                  -7.289199187583921E-5
0.169167                  -9.297066460841389E-5
0.17                      -1.099723438146538E-4
0.170833                  -1.2350321846363088E-4
0.171667                  -1.3328640837092996E-4
0.1725                    -1.391775286432616E-4
0.173333                  -1.4111545253338634E-4
0.174167                  -1.3916159661839136E-4
0.175                     -1.3347660249202732E-4
0.175833                  -1.2431904020418868E-4
0.176667                  -1.1204654897590894E-4
0.1775                    -9.706227025664057E-5
0.178333                  -7.985786534589103E-5
0.179167                  -6.097937152425626E-5
0.18                      -4.0958379144299706E-5
0.180833                  -2.0385682283440593E-5
0.181667                  1.472815991332613E-7
0.1825                    2.0115182816602324E-5
0.183333                  3.8974231599733006E-5
0.184167                  5.622947376529686E-5
0.185                     7.148404655679662E-5
0.185833                  8.436434378313196E-5
0.186667                  9.457961028993722E-5
0.1875                    1.0194363003587327E-4
0.188333                  1.0632630822992273E-4
0.189167                  1.0769227426530845E-4
0.19                      1.060921950842255E-4
0.190833                  1.0164991974055096E-4
0.191667                  9.457279346341001E-5
0.1925                    8.51171151010545E-5
0.193333                  7.361093241484815E-5
0.194167                  6.0435976451381184E-5
0.195                     4.597745156434591E-5
0.195833                  3.0674234328474334E-5
0.196667                  1.497897448137225E-5
0.1975                    -6.947690451782556E-7
0.198333                  -1.590889837052372E-5
0.199167                  -3.0251399027657442E-5
0.2                       -4.3379291095424E-5
0.200833                  -5.4957533654766335E-5
0.201667                  -6.47076659026339E-5
0.2025                    -7.243162430208911E-5
0.203333                  -7.796724576237361E-5
0.204167                  -8.122372705780624E-5
0.205                     -8.21823124322792E-5
0.205833                  -8.087742970023165E-5
0.206667                  -7.741176484424647E-5
0.2075                    -7.193555518923142E-5
0.208333                  -6.465566416046637E-5
0.209167                  -5.582842032580718E-5
0.21                      -4.57241069155841E-5
0.210833                  -3.4659565355570574E-5
0.211667                  -2.2972294073819152E-5
0.2125                    -1.0979643184542308E-5
0.213333                  9.745981015516475E-7
0.214167                  1.255725622378137E-5
0.215                     2.3481907051100314E-5
0.215833                  3.3460333880103505E-5
0.216667                  4.2241165318115335E-5
0.2175                    4.963327931219549E-5
0.218333                  5.546680648231956E-5
0.219167                  5.9624195299903884E-5
0.22                      6.204646237774995E-5
0.220833                  6.271206862581456E-5
0.221667                  6.165377534652735E-5
0.2225                    5.894768664661369E-5
0.223333                  5.47134681230352E-5
0.224167                  4.911422078084372E-5
0.225                     4.233228576652209E-5
0.225833                  3.458900511982944E-5
0.226667                  2.6129034887532045E-5
0.2275                    1.718964941142979E-5
0.228333                  8.033826073866993E-6
0.229167                  -1.076062375012986E-6
0.23                      -9.907740372484307E-6
0.230833                  -1.8221441805581625E-5
0.231667                  -2.5799822229434822E-5
0.2325                    -3.246945713493204E-5
0.233333                  -3.806790113563994E-5
0.234167                  -4.2469921497800554E-5
0.235                     -4.559663515382752E-5
0.235833                  -4.739452917592161E-5
0.236667                  -4.785218871356977E-5
0.2375                    -4.699595143915759E-5
0.238333                  -4.4884809854413666E-5
0.239167                  -4.161450493182641E-5
0.24                      -3.730181827079869E-5
0.240833                  -3.2095245258389244E-5
0.241667                  -2.616653367085898E-5
0.2425                    -1.9688214409412735E-5
0.243333                  -1.2856259382535965E-5
0.244167                  -5.872070846132724E-6
0.245                     1.0809459534178242E-6
0.245833                  7.809015737077715E-6
0.246667                  1.413056285958565E-5
0.2475                    1.9895045265673695E-5
0.248333                  2.4955973174322493E-5
0.249167                  2.9192391462625788E-5
0.25                      3.2519096835711804E-5
0.250833                  3.486723182277453E-5
0.251667                  3.619975038514897E-5
0.2525                    3.651133770786495E-5
0.253333                  3.5820492015771874E-5
0.254167                  3.417585357099936E-5
0.255                     3.1646689892050004E-5
0.255833                  2.8327373441152135E-5
0.256667                  2.4333844367830526E-5
0.2575                    1.9787657336963194E-5
0.258333                  1.4830792816693823E-5
0.259167                  9.613888677528326E-6
0.26                      4.278103369394552E-6
0.260833                  -1.0240465212224467E-6
0.261667                  -6.145261761803951E-6
0.2625                    -1.0959364797745464E-5
0.263333                  -1.5339798010191016E-5
0.264167                  -1.917673984986202E-5
0.265                     -2.238724404815645E-5
0.265833                  -2.489815136580368E-5
0.266667                  -2.66597033183054E-5
0.2675                    -2.7648020089797725E-5
0.268333                  -2.785605609089312E-5
0.269167                  -2.7300817868811656E-5
0.27                      -2.6018229852891017E-5
0.270833                  -2.4063587190168037E-5
0.271667                  -2.15112158380516E-5
0.2725                    -1.8443549670876045E-5
0.273333                  -1.4960196088429927E-5
0.274167                  -1.117073727007437E-5
0.275                     -7.181045112694967E-6
0.275833                  -3.1081354376367033E-6
0.276667                  9.316454599632079E-7
0.2775                    4.835644306357109E-6
0.278333                  8.498203063807667E-6
0.279167                  1.1823948740758334E-5
0.28                      1.4737166791126637E-5
0.280833                  1.716731203653076E-5
0.281667                  1.9060548803494718E-5
0.2825                    2.038358347575824E-5
0.283333                  2.1114588117180378E-5
0.284167                  2.1250438137105005E-5
0.285                     2.0804562813119086E-5
0.285833                  1.9804958278522894E-5
0.286667                  1.829578442012207E-5
0.2875                    1.633022603980661E-5
0.288333                  1.3975478013302163E-5
0.289167                  1.1308790784254657E-5
0.29                      8.407419232619034E-6
0.290833                  5.358843407720209E-6
0.291667                  2.252641757230626E-6
0.2925                    -8.298850199332394E-7
0.293333                  -3.803075136467624E-6
0.294167                  -6.586963788293981E-6
0.295                     -9.115533186104294E-6
0.295833                  -1.1324807019134957E-5
0.296667                  -1.3162331293583269E-5
0.2975                    -1.4591544850047534E-5
0.298333                  -1.5583328728746047E-5
0.299167                  -1.6122741760676982E-5
0.3                       -1.6208808440777272E-5
0.300833                  -1.5851214288634544E-5
0.301667                  -1.5072947396081857E-5
0.3025                    -1.3905929025986626E-5
0.303333                  -1.2393204897912805E-5
0.304167                  -1.0587211160174999E-5
0.305                     -8.542609700110188E-6
0.305833                  -6.323012327380937E-6
0.306667                  -3.995635229007982E-6
0.3075                    -1.623242552222713E-6
0.308333                  7.265397828259646E-7
0.309167                  2.988635739279695E-6
0.31                      5.107511411668037E-6
0.310833                  7.0276605792493384E-6
0.311667                  8.701180913391552E-6
0.3125                    1.0092155219920875E-5
0.313333                  1.1169176218744001E-5
0.314167                  1.1911303186995227E-5
0.315                     1.230902241597742E-5
0.315833                  1.2360390703035353E-5
0.316667                  1.2074113115588482E-5
0.3175                    1.1467138806359302E-5
0.318333                  1.0565027343736538E-5
0.319167                  9.401664415092097E-6
0.32                      8.014330984314546E-6
0.320833                  6.447860037147024E-6
0.321667                  4.751332512232046E-6
0.3225                    2.9719796799335436E-6
0.323333                  1.1618474386505113E-6
0.324167                  -6.275074214276013E-7
0.325                     -2.350760498371E-6
0.325833                  -3.961411592120902E-6
0.326667                  -5.417684195204782E-6
0.3275                    -6.686600883834096E-6
0.328333                  -7.737623970426516E-6
0.329167                  -8.547722684994995E-6
0.33                      -9.10296478861936E-6
0.330833                  -9.394606377143027E-6
0.331667                  -9.422210392692767E-6
0.3325                    -9.192586213479099E-6
0.333333                  -8.719041325918172E-6
0.334167                  -8.021981988498891E-6
0.335                     -7.125666468334528E-6
0.335833                  -6.060533500506086E-6
0.336667                  -4.8613513664600555E-6
0.3375                    -3.5627235292824646E-6
0.338333                  -2.2036963849430282E-6
0.339167                  -8.240908976299507E-7
0.34                      5.400858376774429E-7
0.340833                  1.8510184788086287E-6
0.341667                  3.073562059094642E-6
0.3425                    4.178843589213577E-6
0.343333                  5.139023722796387E-6
0.344167                  5.931471551896807E-6
0.345                     6.540617978779805E-6
0.345833                  6.954294570974204E-6
0.346667                  7.166652914973974E-6
0.3475                    7.177979825588085E-6
0.348333                  6.9933397132831055E-6
0.349167                  6.623658675716019E-6
0.35                      6.083712289550454E-6
0.350833                  5.393199179055209E-6
0.351667                  4.575887032013386E-6
0.3525                    3.6563940657460452E-6
0.353333                  2.6632421673953157E-6
0.354167                  1.6264240135654269E-6
0.355                     5.738306731490781E-7
0.355833                  -4.645933257939493E-7
0.356667                  -1.4601625112520485E-6
0.3575                    -2.388511393644221E-6
0.358333                  -3.2254006958770426E-6
0.359167                  -3.950061709657949E-6
0.36                      -4.547071199086114E-6
0.360833                  -5.003103577095575E-6
0.361667                  -5.309521445875327E-6
0.3625                    -5.462723045665616E-6
0.363333                  -5.46252237618206E-6
0.364167                  -5.313441304350799E-6
0.365                     -5.023573939775742E-6
0.365833                  -4.604839239446885E-6
0.366667                  -4.072778940398186E-6
0.3675                    -3.444327067204929E-6
0.368333                  -2.739720827116212E-6
0.369167                  -1.980974795659612E-6
0.37                      -1.1891684620717894E-6
0.370833                  -3.87430447417658E-7
0.371667                  4.014443793308717E-7
0.3725                    1.157513777072254E-6
0.373333                  1.8604187015403371E-6
0.374167                  2.491993986561174E-6
0.375                     3.038018992994565E-6
0.375833                  3.485452726993692E-6
0.376667                  3.824641326503569E-6
0.3775                    4.0499532593992305E-6
0.378333                  4.158125073951095E-6
0.379167                  4.149581139757364E-6
0.38                      4.027896458466163E-6
0.380833                  3.7995484300190065E-6
0.381667                  3.4741124655175974E-6
0.3825                    3.0627753756411945E-6
0.383333                  2.5794341652763695E-6
0.384167                  2.039814495239299E-6
0.385                     1.4594622577056351E-6
0.385833                  8.558191543990581E-7
0.386667                  2.465601319065905E-7
0.3875                    -3.5242180553269384E-7
0.388333                  -9.245320582971253E-7
0.389167                  -1.4544627095998337E-6
0.39                      -1.929740206099409E-6
0.390833                  -2.3384511820758153E-6
0.391667                  -2.671062012543362E-6
0.3925                    -2.9211737141859104E-6
0.393333                  -3.083973803538404E-6
0.394167                  -3.157473071490819E-6
0.395                     -3.142355802993676E-6
0.395833                  -3.041460487208608E-6
0.396667                  -2.8601910403499104E-6
0.3975                    -2.605572737316614E-6
0.398333                  -2.2867971844770585E-6
0.399167                  -1.9147796935181425E-6
0.4                       -1.5007094450761334E-6
0.400833                  -1.0574405720087435E-6
0.401667                  -5.983710222436189E-7
0.4025                    -1.358710146976939E-7
0.403333                  3.1687900104900667E-7
0.404167                  7.473670015223235E-7
0.405                     1.1450614939942126E-6
0.405833                  1.4995977559190547E-6
0.406667                  1.8022350385447855E-6
0.4075                    2.046620816115417E-6
0.408333                  2.2274269271220172E-6
0.409167                  2.341442664769554E-6
0.41                      2.3876561458412414E-6
0.410833                  2.366623843534222E-6
0.411667                  2.2809713298827925E-6
0.4125                    2.1348296142943536E-6
0.413333                  1.934024129476923E-6
0.414167                  1.6859140629860563E-6
0.415                     1.3983713572901899E-6
0.415833                  1.0806738849709499E-6
0.416667                  7.427769148196805E-7
0.4175                    3.941155807046653E-7
0.418333                  4.492983557816327E-8
0.419167                  -2.9481121513220823E-7
0.42                      -6.164837590899869E-7
0.420833                  -9.114042339914851E-7
0.421667                  -1.1719670170595981E-6
0.4225                    -1.3923502139138642E-6
0.423333                  -1.567371180881076E-6
0.424167                  -1.6934098753871662E-6
0.425                     -1.7686086520539117E-6
0.425833                  -1.7922377207135168E-6
0.426667                  -1.765201776189735E-6
0.4275                    -1.689728770395616E-6
0.428333                  -1.5693515393597633E-6
0.429167                  -1.4089117189834594E-6
0.43                      -1.2138553092270613E-6
0.430833                  -9.907802139442275E-7
0.431667                  -7.469790629779312E-7
0.4325                    -4.895440924366451E-7
0.433333                  -2.2629910420438808E-7
0.434167                  3.496981307378697E-8
0.435                     2.87368344617616E-7
0.435833                  5.238355957073044E-7
0.436667                  7.380135585950109E-7
0.4375                    9.248573533190031E-7
0.438333                  1.0797163906589224E-6
0.439167                  1.1990853415649428E-6
0.44                      1.2808434884058212E-6
0.440833                  1.323684277221773E-6
0.441667                  1.3275757807310854E-6
0.4425                    1.2936025951854144E-6
0.443333                  1.2238498194266162E-6
0.444167                  1.1214857319395266E-6
0.445                     9.902787167730401E-7
0.445833                  8.349218035992035E-7
0.446667                  6.607495969126764E-7
0.4475                    4.730763146943141E-7
0.448333                  2.778406828777719E-7
0.449167                  8.105777062965767E-8
0.45                      -1.1184368821383156E-7
0.450833                  -2.9524409642034087E-7
0.451667                  -4.6398854468095215E-7
0.4525                    -6.138862567365199E-7
0.453333                  -7.410049100617646E-7
0.454167                  -8.422620458168885E-7
0.455                     -9.15650976474942E-7
0.455833                  -9.597744345057245E-7
0.456667                  -9.742299859392039E-7
0.4575                    -9.595290829757037E-7
0.458333                  -9.169631082871414E-7
0.459167                  -8.487036514262575E-7
0.46                      -7.57460964123717E-7
0.460833                  -6.466837061543526E-7
0.461667                  -5.203727946565001E-7
0.4625                    -3.825876686367139E-7
0.463333                  -2.378966154762575E-7
0.464167                  -9.097541352487506E-8
0.465                     5.38998524853707E-8
0.465833                  1.9229134551354122E-7
0.466667                  3.200954832553668E-7
0.4675                    4.3393184544072336E-7
0.468333                  5.306261332769344E-7
0.469167                  6.076650318262927E-7
0.47                      6.633753075105039E-7
0.470833                  6.965813671903965E-7
0.471667                  7.069037429540169E-7
0.4725                    6.946979273470221E-7
0.473333                  6.609595397868593E-7
0.474167                  6.074001217132804E-7
0.475                     5.361803310035784E-7
0.475833                  4.500637942645171E-7
0.476667                  3.5226695770666634E-7
0.4775                    2.4607332783500654E-7
0.478333                  1.3517027764060513E-7
0.479167                  2.3329815171661082E-8
0.48                      -8.59831915680925E-8
0.480833                  -1.8920134208930827E-7
0.481667                  -2.8304444942582116E-7
0.4825                    -3.6480950611646423E-7
0.483333                  -4.320096850358348E-7
0.484167                  -4.827227365311682E-7
0.485                     -5.15704981627771E-7
0.485833                  -5.301779003728204E-7
0.486667                  -5.260406312886045E-7
0.4875                    -5.037859068804355E-7
0.488333                  -4.644844243301219E-7
0.489167                  -4.0980895734235406E-7
0.49                      -3.4178606899051257E-7
0.490833                  -2.6296829506758083E-7
0.491667                  -1.7627204017078147E-7
0.4925                    -8.464355429510396E-8
0.493333                  8.645481221482683E-9
0.494167                  1.0029190568470225E-7
0.495                     1.8728061949245287E-7
0.495833                  2.6656346365326134E-7
0.496667                  3.353939114376402E-7
0.4975                    3.915348247206244E-7
0.498333                  4.330074338153109E-7
0.499167                  4.584174171152191E-7
0.5                       4.678234810652586E-7
