
0                         0
2.0000000000000003E-6     -1.0454540188223495E-5
4.000000000000001E-6      -2.0748783173222202E-5
6.0E-6                    -3.087956495835175E-5
8.000000000000001E-6      -4.084379157753084E-5
1.0E-5                    -5.0638438808141365E-5
1.2E-5                    -6.026055188865106E-5
1.4000000000000001E-5     -6.970724524104185E-5
1.6000000000000003E-5     -7.897570219812924E-5
1.8000000000000004E-5     -8.80631747358528E-5
2.0E-5                    -9.696698321061874E-5
2.2E-5                    -1.0568451610177118E-4
2.4E-5                    -1.1421322975927022E-4
2.6000000000000002E-5     -1.225506481566649E-4
2.8000000000000003E-5     -1.3069436264938374E-4
3.0000000000000008E-5     -1.3864203173844568E-4
3.2000000000000005E-5     -1.4639138083969894E-4
3.4000000000000007E-5     -1.539402020585928E-4
3.600000000000001E-5      -1.612863539705716E-4
3.8E-5                    -1.6842776140715734E-4
4.0E-5                    -1.7536241524777253E-4
4.2E-5                    -1.820883722173617E-4
4.4E-5                    -1.8860375468987626E-4
4.6E-5                    -1.9490675049767256E-4
4.8E-5                    -2.009956127468776E-4
5.0E-5                    -2.068686596387724E-4
5.2000000000000004E-5     -2.1252427429724734E-4
5.4000000000000005E-5     -2.179609046023939E-4
5.6000000000000006E-5     -2.231770630301381E-4
5.800000000000001E-5      -2.2817132649829636E-4
6.0000000000000015E-5     -2.3294233621871209E-4
6.200000000000002E-5      -2.3748879755572762E-4
6.400000000000001E-5      -2.4180947989098562E-4
6.600000000000002E-5      -2.459032164945911E-4
6.800000000000001E-5      -2.497689044026709E-4
7.0E-5                    -2.534055043013676E-4
7.200000000000002E-5      -2.56812040417293E-4
7.4E-5                    -2.5998760041447334E-4
7.6E-5                    -2.6293133529781864E-4
7.800000000000001E-5      -2.656424593231275E-4
8.0E-5                    -2.681202499136725E-4
8.200000000000001E-5      -2.703640475833753E-4
8.4E-5                    -2.723732558665895E-4
8.600000000000002E-5      -2.7414734125451654E-4
8.8E-5                    -2.756858331382692E-4
9.000000000000002E-5      -2.769883237585964E-4
9.2E-5                    -2.780544681622853E-4
9.4E-5                    -2.7888398416525494E-4
9.6E-5                    -2.794766523223414E-4
9.8E-5                    -2.7983231590379107E-4
1.0E-4                    -2.7995088087846934E-4
