
0                         NaN
3.333333333333348E-4      NaN
6.66666666666673E-4       NaN
0.0010000000000000044     NaN
0.0013333333333333357     NaN
0.001666666666666674      NaN
0.0020000000000000052     NaN
0.00233333333333334       NaN
0.002666666666666675      NaN
0.003000000000000006      NaN
0.0033333333333333375     NaN
0.0036666666666666757     NaN
0.004000000000000007      NaN
0.004333333333333342      NaN
0.004666666666666677      NaN
0.005000000000000008      NaN
0.005333333333333339      NaN
0.0056666666666666775     NaN
0.006000000000000009      NaN
0.006333333333333344      NaN
0.006666666666666678      NaN
0.00700000000000001       NaN
0.007333333333333341      NaN
0.007666666666666676      NaN
0.00800000000000001       NaN
0.008333333333333342      NaN
0.008666666666666673      NaN
0.009000000000000005      NaN
0.009333333333333336      NaN
0.009666666666666667      NaN
0.009999999999999998      NaN
0.009999999999999998      18.8495559215492
0.01033333333333333       18.34339253059715
0.010666666666666668      17.852355099311897
0.010999999999999996      17.3759239807052
0.01133333333333333       16.913553110073988
0.011666666666666662      16.464670932182504
0.011999999999999993      16.028681631897637
0.012333333333333325      15.605424037726086
0.012666666666666656      15.194530229827198
0.012999999999999987      14.795563745717772
0.013333333333333319      14.40806677613495
0.01366666666666665       14.031560943590705
0.013999999999999988      13.665548313932375
0.01433333333333332       13.309948027964639
0.014666666666666658      12.964539598049933
0.014999999999999989      12.628952020197367
0.015333333333333313      12.302796866335637
0.01566666666666665       11.985668961972342
0.015999999999999983      11.677147247137182
0.016333333333333314      11.377273145738776
0.016666666666666646      11.085852162903134
0.016999999999999977      10.802568114566634
0.017333333333333308      10.527090504885972
0.01766666666666664       10.25907511605238
0.017999999999999978      9.998164743890133
0.018333333333333316      9.744416338920326
0.01866666666666664       9.497716963083422
0.01899999999999998       9.257796606004078
0.01933333333333331       9.024373431763891
0.01966666666666664       8.797154291106326
0.019999999999999973      8.575835350670088
0.020333333333333304      8.360491296474756
0.020666666666666635      8.15105059059264
0.020999999999999967      7.947282291836703
0.021333333333333298      7.748945643308974
0.02166666666666663       7.5557905163544286
0.021999999999999967      7.367557949105369
0.0223333333333333        7.184333963396006
0.02266666666666663       7.006073094071597
0.02299999999999996       6.832577486605069
0.023333333333333293      6.663641104416504
0.023666666666666617      6.4990501135058265
0.023999999999999955      6.3385833440500186
0.024333333333333294      6.182330261499351
0.024666666666666625      6.030264190990403
0.024999999999999956      5.882215375940953
0.025333333333333288      5.738007213381041
0.025666666666666626      5.597456587069631
0.025999999999999957      5.460374263603542
0.026333333333333295      5.326849096969681
0.026666666666666634      5.196866916514411
0.026999999999999958      5.070281877451619
0.02733333333333329       4.946942386770933
0.02766666666666662       4.826691391711481
0.027999999999999952      4.709366720061151
0.028333333333333283      4.595053848299982
0.02866666666666662       4.483747138195022
0.028999999999999946      4.375321128160841
0.029333333333333284      4.269645515533847
0.029666666666666616      4.16658540643805
0.029999999999999947      4.0660016084911295
0.030333333333333285      3.9679745439100804
0.030666666666666616      3.872504343397363
0.030999999999999948      3.7794829546205833
0.03133333333333328       3.6887982368303645
0.031666666666666614      3.6003341773387563
0.031999999999999945      3.5139711435605383
0.032333333333333276      3.42978361807034
0.03266666666666661       3.3477755497388775
0.03299999999999994       3.2678537797028926
0.033333333333333263      3.1899216876374212
0.0336666666666666        3.113879379369936
0.03399999999999994       3.039623904128929
0.03433333333333328       2.967223456431574
0.0346666666666666        2.896684418224053
0.034999999999999934      2.827926391407749
0.03533333333333326       2.7608660405331378
0.0356666666666666        2.695417255458715
0.03599999999999993       2.63149133878945
0.036333333333333266      2.5691501909273935
0.036666666666666604      2.5084016468618553
0.03699999999999993       2.449176257369883
0.03733333333333325       2.391402075436586
0.03766666666666659       2.3350047973342214
0.03799999999999992       2.2799079244860794
0.03833333333333327       2.226167275717683
0.03866666666666659       2.173791446861337
0.03899999999999992       2.1227203951675557
0.03933333333333324       2.0728919498300225
0.03966666666666658       2.024241934398045
0.03999999999999992       1.9767043066726926
0.04033333333333325       1.9303291452210096
0.04066666666666659       1.8851253237559524
0.04099999999999992       1.8410408905909166
0.04133333333333324       1.7980220778211198
0.04166666666666658       1.7560134075834337
0.04199999999999991       1.714957813061254
0.04233333333333324       1.6749000426489289
0.04266666666666658       1.6358489169121588
0.042999999999999906      1.59775945150443
0.04333333333333323       1.5605851095150225
0.04366666666666657       1.5242778937459078
0.04399999999999991       1.4887884514535616
0.044333333333333245      1.4541566402066066
0.04466666666666657       1.4203910065119287
0.044999999999999894      1.38745257189785
0.04533333333333322       1.3553010287445595
0.04566666666666657       1.3238948204510355
0.045999999999999895      1.2931912321623151
0.04633333333333325       1.2632256735604388
0.04666666666666657       1.2340062757232388
0.046999999999999896      1.205499242232419
0.04733333333333322       1.1776696372316946
0.04766666666666656       1.1504814551010965
0.04799999999999988       1.1238976990959935
0.04833333333333322       1.0979497613576794
0.048666666666666546      1.0726452732661265
0.048999999999999884      1.0479549136327007
0.04933333333333322       1.0238483832263217
0.04966666666666655       1.000294465352339
0.049999999999999885      0.9772610940556592
0.05033333333333322       0.9547760519203775
0.05066666666666655       0.9328464269932236
0.05099999999999987       0.9114467661236832
0.051333333333333196      0.8905507756665474
0.05166666666666655       0.8701313741729056
0.05199999999999987       0.8501607515764291
0.0523333333333332        0.8306634611032433
0.052666666666666535      0.8116460323741798
0.052999999999999874      0.7930863580743904
0.0533333333333332        0.7749616078081142
0.05366666666666655       0.757248273945915
0.053999999999999874      0.7399222230141791
0.05433333333333321       0.7230051287815343
0.05466666666666654       0.7065029670297455
0.054999999999999875      0.6903965266900501
0.0553333333333332        0.6746659739903161
0.055666666666666524      0.6592908923618042
0.05599999999999986       0.6442503270819397
0.05633333333333319       0.6295633914664408
0.05666666666666651       0.615235525244285
0.05699999999999985       0.6012500261332367
0.057333333333333174      0.5875896550805504
0.05766666666666651       0.5742366710110791
0.05799999999999985       0.5611728696279589
0.05833333333333319       0.5484150925385709
0.05866666666666651       0.5359682696883641
0.05899999999999985       0.5238178733551967
0.059333333333333176      0.5119489127086567
0.059666666666666514      0.5003459640765501
0.05999999999999985       0.4889932046835679
0.06033333333333319       0.47790546431132613
0.060666666666666515      0.46708719446373087
0.06099999999999985       0.45652575342052826
0.06133333333333318       0.4462080995732976
0.0616666666666665        0.4361208177968977
0.06199999999999984       0.4262501487993574
0.062333333333333164      0.4166091433948847
0.06266666666666648       0.4072018086179235
0.06299999999999982       0.398017139416719
0.06333333333333314       0.38904378517078514
0.06366666666666648       0.38027007267577156
0.06399999999999982       0.371684031686084
0.06433333333333316       0.36329714194155693
0.06466666666666648       0.35511300088286857
0.06499999999999982       0.3471220245212006
0.06533333333333315       0.3393143300201338
0.06566666666666648       0.3316797557348902
0.06599999999999982       0.32420788345034485
0.06633333333333316       0.31690880689335504
0.06666666666666649       0.3097857484926994
0.06699999999999982       0.302830358748165
0.06733333333333315       0.2960340295373523
0.06766666666666647       0.2893879115918804
0.06799999999999981       0.2828829338656064
0.06833333333333315       0.276527968414894
0.06866666666666647       0.2703258961367066
0.0689999999999998        0.2642694404579976
0.06933333333333312       0.25835110084846186
0.06966666666666647       0.25256316806580065
0.0699999999999998        0.24689774103053438
0.07033333333333314       0.24136261578326126
0.07066666666666646       0.2359603635448608
0.0709999999999998        0.23068464067838357
0.07133333333333312       0.2255289094887413
0.07166666666666646       0.22048645152542495
0.07199999999999979       0.21555038228992374
0.07233333333333312       0.21072755068737178
0.07266666666666645       0.20602024817901984
0.07299999999999979       0.20142294269049713
0.07333333333333311       0.19692993389896635
0.07366666666666645       0.19253536484384035
0.07399999999999979       0.18823323474936102
0.07433333333333313       0.1840295592670346
0.07466666666666646       0.17992637791037178
0.07499999999999979       0.17591886487593145
0.07533333333333313       0.172002048408575
0.07566666666666645       0.16817082093793484
0.07599999999999979       0.16441995026117917
0.07633333333333313       0.16075471928993473
0.07666666666666645       0.1571769412384191
0.07699999999999978       0.15368240518452142
0.0773333333333331        0.15026677353046403
0.07766666666666644       0.14692559085434753
0.07799999999999978       0.1436542936656984
0.07833333333333312       0.14045752076604462
0.07866666666666645       0.1373368825707073
0.07899999999999978       0.13428870367555193
0.07933333333333312       0.13130919867676596
0.07966666666666644       0.12839447990215144
0.07999999999999978       0.12554056592400892
0.08033333333333312       0.1227515295216559
0.08066666666666646       0.12002879972969863
0.08099999999999978       0.11736916770912943
0.0813333333333331        0.11476932905726946
0.08166666666666643       0.11222589056208498
0.08199999999999977       0.10973537763269606
0.08233333333333309       0.10730136577944269
0.08266666666666643       0.1049251220909074
0.08299999999999975       0.10260384435786726
0.08333333333333308       0.1003346473119762
0.08366666666666642       0.09811456852781138
0.08399999999999976       0.09594057491028293
0.0843333333333331        0.09381580520066937
0.08466666666666643       0.09174138211147566
0.08499999999999976       0.08971485794343043
0.08533333333333308       0.08773371277588468
0.08566666666666642       0.08579535962516796
0.08599999999999976       0.0838971501099723
0.0863333333333331        0.08204183941431505
0.08666666666666642       0.08023042170926212
0.08699999999999974       0.07846075846313157
0.08733333333333307       0.07673064832107035
0.0876666666666664        0.0750378316142896
0.08799999999999973       0.07337999530871768
0.08833333333333307       0.07175955781385625
0.08866666666666641       0.07017739899210342
0.08899999999999973       0.06863165001733652
0.08933333333333306       0.06712038739427571
0.0896666666666664        0.06564163690099346
0.08999999999999973       0.0641933779124478
0.09033333333333307       0.06277773318007103
0.09066666666666641       0.06139548102123531
0.09099999999999973       0.06004498795774332
0.09133333333333306       0.058724572920133424
0.09166666666666641       0.05743251069527587
0.09199999999999973       0.05616703570452573
0.09233333333333309       0.0549300111672645
0.09266666666666641       0.05372212527915851
0.09299999999999974       0.05254194998512875
0.09333333333333306       0.05138801578534192
0.0936666666666664        0.05025881475050439
0.09399999999999972       0.04915280382407073
0.09433333333333305       0.04807161842681357
0.0946666666666664        0.0470158668384427
0.09499999999999971       0.04598430035340602
0.09533333333333303       0.04497563416128169
0.09566666666666637       0.04398854998437883
0.09599999999999971       0.04302169896449171
0.09633333333333306       0.04207651659270558
0.09666666666666639       0.04115354033633375
0.09699999999999971       0.04025167811298154
0.09733333333333304       0.039369806376276247
0.09766666666666637       0.03850677242342357
0.0979999999999997        0.03766139691922759
0.09833333333333304       0.0368349398953088
0.09866666666666636       0.03602787611525602
0.0989999999999997        0.0352392503037302
0.09933333333333302       0.03446807975625849
0.09966666666666636       0.0337133563583395
0.0999999999999997        0.03297404879269924
0.10033333333333302       0.032251263113501225
0.10066666666666638       0.031545418593344365
0.1009999999999997        0.03085567947912287
0.10133333333333304       0.030181186097732935
0.10166666666666636       0.029521056623050424
0.1019999999999997        0.02887438900652637
0.10233333333333304       0.028242154180062613
0.10266666666666636       0.027624722332715103
0.10299999999999969       0.027021362151255737
0.10333333333333301       0.026431321455398487
0.10366666666666635       0.025853828744385934
0.10399999999999969       0.02528809488592693
0.10433333333333303       0.024734972236020572
0.10466666666666635       0.024194787584965162
0.10499999999999969       0.023666900894191146
0.10533333333333302       0.023150653915023734
0.10566666666666637       0.022645371542620044
0.10599999999999969       0.022150363293813802
0.10633333333333302       0.02166637746586496
0.10666666666666634       0.02119370248747996
0.10699999999999966       0.020731778099058396
0.10733333333333299       0.020280028144065806
0.10766666666666631       0.019837861754581975
0.10799999999999967       0.019404674644754077
0.10833333333333302       0.018981123786953685
0.10866666666666634       0.01856746370584723
0.10899999999999967       0.018163203879799632
0.10933333333333299       0.017767839904947784
0.10966666666666634       0.017380854533583734
0.10999999999999967       0.01700171880655056
0.11033333333333299       0.01663100953809758
0.11066666666666634       0.016268951288373162
0.11099999999999967       0.015915114501024886
0.11133333333333299       0.015569057493089278
0.11166666666666632       0.015230327364781476
0.11199999999999967       0.014898460991229507
0.11233333333333302       0.01457396481848891
0.11266666666666635       0.01425703691949523
0.11299999999999967       0.013947301037223823
0.113333333333333         0.013644370318812016
0.11366666666666632       0.013347848113005703
0.11399999999999964       0.013057328839058763
0.11433333333333297       0.012773257155469923
0.11466666666666632       0.012495807713748927
0.11499999999999964       0.012224650856927043
0.11533333333333297       0.011959447667926663
0.11566666666666632       0.011699850668879536
0.11599999999999965       0.01144550458276692
0.116333333333333         0.011196799799637882
0.1166666666666663        0.01095389025006739
0.11699999999999962       0.010716487023241126
0.11733333333333294       0.010484293114856278
0.1176666666666663        0.010257004040735148
0.11799999999999962       0.010034308504803743
0.11833333333333294       0.0098165492167952
0.1186666666666663        0.009603861763882428
0.11899999999999962       0.009395992867815188
0.11933333333333294       0.009192682176923503
0.11966666666666627       0.008993662804869301
0.11999999999999962       0.008798661916818046
0.12033333333333297       0.008607980314955991
0.12066666666666633       0.008421737336601173
0.12099999999999962       0.008239710871780003
0.12133333333333297       0.00806167263020165
0.1216666666666663        0.007887388614589324
0.12199999999999962       0.007716619635358292
0.12233333333333297       0.007549629647157194
0.1226666666666663        0.007386523583038678
0.12299999999999962       0.007227106607383941
0.12333333333333295       0.0070711784873431025
0.12366666666666627       0.00691853400894161
0.12399999999999962       0.0067689634292111295
0.12433333333333298       0.006622698293752688
0.12466666666666633       0.006479830762355721
0.12499999999999963       0.006340189881531642
0.12533333333333296       0.0062035999882222624
0.12566666666666626       0.006069881075765247
0.12599999999999958       0.005938849191209711
0.12633333333333294       0.005810707369287509
0.12666666666666626       0.005685536443791646
0.12699999999999959       0.005563186392781391
0.1273333333333329        0.00544350308944596
0.12766666666666626       0.005326328624020417
0.1279999999999996        0.005211501652938116
0.1283333333333329        0.005099200130139079
0.12866666666666626       0.004989494855257733
0.1289999999999996        0.004882254175995453
0.12933333333333294       0.004777342867450058
0.12966666666666626       0.00467462241518905
0.1299999999999996        0.004573951321934233
0.13033333333333294       0.004475485486795341
0.13066666666666626       0.004379286837241763
0.1309999999999996        0.004285239870131076
0.1313333333333329        0.004193225978321685
0.13166666666666627       0.004103123699327651
0.1319999999999996        0.0040148089843893555
0.13233333333333291       0.003928418355936582
0.13266666666666624       0.0038440059240061526
0.13299999999999956       0.003761470412799804
0.1333333333333329        0.0036807078546503055
0.1336666666666662        0.0036016118079991726
0.13399999999999956       0.0035240735929775303
0.13433333333333292       0.00344821273471627
0.13466666666666624       0.003374076492567761
0.13499999999999956       0.0033015761557555296
0.13533333333333286       0.003230620683087094
0.1356666666666662        0.0031611168934134503
0.13599999999999954       0.0030929696712254616
0.13633333333333286       0.003026283667136432
0.13666666666666621       0.002961100184334131
0.13699999999999954       0.0028973416379878547
0.1373333333333329        0.0028349284282567157
0.13766666666666622       0.002773779105909865
0.13799999999999954       0.0027138105509356743
0.1383333333333329        0.002655114441397573
0.13866666666666622       0.0025977269588356357
0.13899999999999954       0.0025415803950050177
0.13933333333333286       0.0024866052997356627
0.13966666666666622       0.002432730624015591
0.13999999999999954       0.00237988387421129
0.14033333333333287       0.002328145467072043
0.1406666666666662        0.002277547245976216
0.14099999999999954       0.0022280302889833127
0.14133333333333287       0.0021795341661096004
0.14166666666666622       0.002131997061900792
0.14199999999999954       0.0020853559075675386
0.1423333333333329        0.0020396814043174135
0.14266666666666622       0.0019950017961041463
0.14299999999999954       0.0019512659888559602
0.14333333333333287       0.0019084215779512997
0.14366666666666622       0.0018664149521244223
0.14399999999999955       0.0018251914056206418
0.1443333333333329        0.0017848133258785708
0.1446666666666662        0.0017453060557221381
0.14499999999999955       0.0017066254791839963
0.14533333333333284       0.0016687263336379854
0.14566666666666622       0.001631562296779015
0.14599999999999955       0.0015950860807860128
0.14633333333333287       0.0015593530356195857
0.14666666666666622       0.0015243862637041106
0.14699999999999952       0.0014901478674178292
0.14733333333333284       0.001456598935710921
0.14766666666666617       0.0014236996158624436
0.14799999999999952       0.001391409191589103
0.14833333333333287       0.0013597771419625272
0.14866666666666617       0.0013288249534046412
0.14899999999999952       0.0012985202624162626
0.14933333333333285       0.0012688297977386511
0.14966666666666617       0.0012397194385907458
0.14999999999999952       0.0012111542786570348
0.15033333333333287       0.0011831789946970673
0.1506666666666662        0.0011558140427435743
0.15099999999999952       0.0011290319724206717
0.15133333333333285       0.0011028045065938322
0.15166666666666617       0.0010771025877868265
0.1519999999999995        0.0010518964299806326
0.15233333333333285       0.001027226881211809
0.15266666666666615       0.0010031139020941044
0.1529999999999995        9.795343819451777E-4
0.1533333333333328        9.564644413059653E-4
0.15366666666666617       9.338794681415545E-4
0.1539999999999995        9.117541592959647E-4
0.15433333333333285       8.901263964877086E-4
0.15466666666666617       8.690160952599957E-4
0.1549999999999995        8.484039278936852E-4
0.15533333333333282       8.282698310382253E-4
0.15566666666666618       8.085930329701939E-4
0.1559999999999995        7.893520862281053E-4
0.15633333333333282       7.705826012988179E-4
0.15666666666666612       7.523047352513059E-4
0.15699999999999947       7.345023358510872E-4
0.15733333333333277       7.171585146809612E-4
0.15766666666666615       7.002556661075647E-4
0.15799999999999947       6.837754920355955E-4
0.15833333333333283       6.677517327661036E-4
0.15866666666666615       6.522047533347921E-4
0.15899999999999948       6.371207877295873E-4
0.1593333333333328        6.224852810748691E-4
0.15966666666666612       6.082829007751395E-4
0.15999999999999948       5.944975543682667E-4
0.1603333333333328        5.811610003260583E-4
0.16066666666666615       5.682932127504195E-4
0.16099999999999948       5.55881647260798E-4
0.16133333333333277       5.439128466895086E-4
0.16166666666666615       5.323724481859532E-4
0.16199999999999948       5.212451991351833E-4
0.16233333333333283       5.105600083580703E-4
0.16266666666666618       5.003350627821241E-4
0.16299999999999948       4.905573705526719E-4
0.16333333333333283       4.8121285196080774E-4
0.16366666666666616       4.7228635790819867E-4
0.16399999999999948       4.6376170101956367E-4
0.16433333333333283       4.5566333681496457E-4
0.16466666666666616       4.4800559098144766E-4
0.16499999999999948       4.407731345790822E-4
0.16533333333333278       4.339494473205681E-4
0.16566666666666616       4.2751687771901814E-4
0.16599999999999948       4.214567187810483E-4
0.1663333333333328        4.1578735028899533E-4
0.16666666666666616       4.105173652435092E-4
0.16699999999999945       4.056279828367696E-4
0.16733333333333278       4.010994011578829E-4
0.1676666666666661        3.9691091898874664E-4
0.16799999999999943       3.930410683383875E-4
0.16833333333333275       3.8950177969645486E-4
0.1686666666666661        3.86295578885632E-4
0.16899999999999943       3.834010172050723E-4
0.16933333333333273       3.807961373876438E-4
0.1696666666666661        3.784586284401683E-4
0.16999999999999943       3.7636597840824204E-4
0.17033333333333278       3.745251362608002E-4
0.17066666666666613       3.7293411611292494E-4
0.17099999999999943       3.7157136046481816E-4
0.17133333333333278       3.704154426896748E-4
0.17166666666666608       3.694451956580365E-4
0.17199999999999943       3.6863982856907005E-4
0.17233333333333278       3.6800369853531146E-4
0.1726666666666661        3.675325982366483E-4
0.17299999999999943       3.672077028224856E-4
0.17333333333333273       3.670107977667984E-4
0.1736666666666661        3.6692434977846143E-4
0.17399999999999943       3.669315657611718E-4
0.17433333333333276       3.6703606631195403E-4
0.1746666666666661        3.6723318560430397E-4
0.17499999999999943       3.67508667362318E-4
0.17533333333333279       3.678490900115644E-4
0.17566666666666608       3.6824188982439564E-4
0.17599999999999943       3.686753770954167E-4
0.1763333333333328        3.6915310285112854E-4
0.1766666666666661        3.6967076790552454E-4
0.17699999999999944       3.70219357807601E-4
0.17733333333333273       3.707907381979017E-4
0.17766666666666608       3.713776542873432E-4
0.1779999999999994        3.7197372792502267E-4
0.17833333333333284       3.725830602174609E-4
0.17866666666666628       3.732013027319561E-4
0.17899999999999971       3.7382467579321054E-4
0.17933333333333312       3.744502513483178E-4
0.17966666666666659       3.7507594620928627E-4
0.18                      3.7570051510694806E-4
