$MeshFormat
2.2 0 8
$EndMeshFormat
$PhysicalNames
10
1 7 "FluxParallel_V"
1 8 "FluxParallel_h"
1 9 "FluxParallel_h1"
1 10 "Force"
2 1 "joch"
2 2 "anker"
2 3 "spule1_in"
2 4 "spule2_out"
2 5 "air"
2 6 "OptimierungY"
$EndPhysicalNames
$Nodes
132
1 0 0 0
2 0 0.025 0
3 0 0.04 0
4 0 0.041 0
5 0 0.046 0
6 0 0.056 0
7 0 0.076 0
8 0 0.08599999999999999 0
9 0 0.111 0
10 0.02 0 0
11 0.02 0.025 0
12 0.02 0.04 0
13 0.02 0.041 0
14 0.02 0.046 0
15 0.02 0.056 0
16 0.02 0.076 0
17 0.02 0.08599999999999999 0
18 0.02 0.111 0
19 0.04 0 0
20 0.04 0.025 0
21 0.04 0.04 0
22 0.04 0.041 0
23 0.04 0.046 0
24 0.04 0.056 0
25 0.04 0.076 0
26 0.04 0.08599999999999999 0
27 0.04 0.111 0
28 0.065 0 0
29 0.065 0.025 0
30 0.065 0.04 0
31 0.065 0.041 0
32 0.065 0.046 0
33 0.065 0.056 0
34 0.065 0.076 0
35 0.065 0.08599999999999999 0
36 0.065 0.111 0
37 0 0.01249999999996711 0
38 0 0.02799999999999349 0
39 0 0.03099999999998562 0
40 0 0.03399999999998183 0
41 0 0.03699999999999214 0
42 0 0.04049999999998916 0
43 0 0.05099999999999051 0
44 0 0.05999999999998944 0
45 0 0.06399999999997778 0
46 0 0.06799999999997344 0
47 0 0.07199999999998644 0
48 0 0.08099999999998644 0
49 0 0.09849999999997829 0
50 0.02 0.01249999999996711 0
51 0.02 0.02799999999999349 0
52 0.02 0.03099999999998562 0
53 0.02 0.03399999999998183 0
54 0.02 0.03699999999999214 0
55 0.02 0.04049999999998916 0
56 0.02 0.05099999999999051 0
57 0.02 0.05999999999998944 0
58 0.02 0.06399999999997778 0
59 0.02 0.06799999999997344 0
60 0.02 0.07199999999998644 0
61 0.02 0.08099999999998644 0
62 0.02 0.09849999999997829 0
63 0.04 0.01249999999996711 0
64 0.04 0.02799999999999349 0
65 0.04 0.03099999999998562 0
66 0.04 0.03399999999998183 0
67 0.04 0.03699999999999214 0
68 0.04 0.04049999999998916 0
69 0.04 0.05099999999999051 0
70 0.04 0.05999999999998944 0
71 0.04 0.06399999999997778 0
72 0.04 0.06799999999997344 0
73 0.04 0.07199999999998644 0
74 0.04 0.08099999999998644 0
75 0.04 0.09849999999997829 0
76 0.065 0.01249999999996711 0
77 0.065 0.02799999999999349 0
78 0.065 0.03099999999998562 0
79 0.065 0.03399999999998183 0
80 0.065 0.03699999999999214 0
81 0.065 0.04049999999998916 0
82 0.065 0.05099999999999051 0
83 0.065 0.05999999999998944 0
84 0.065 0.06399999999997778 0
85 0.065 0.06799999999997344 0
86 0.065 0.07199999999998644 0
87 0.065 0.08099999999998644 0
88 0.065 0.09849999999997829 0
89 0.009999999999973934 0 0
90 0.0524999999999661 0 0
91 0.009999999999973934 0.025 0
92 0.0524999999999661 0.025 0
93 0.009999999999973934 0.04 0
94 0.0524999999999661 0.04 0
95 0.009999999999973934 0.041 0
96 0.0524999999999661 0.041 0
97 0.009999999999973934 0.046 0
98 0.0524999999999661 0.046 0
99 0.009999999999973934 0.056 0
100 0.0524999999999661 0.056 0
101 0.009999999999973934 0.076 0
102 0.0524999999999661 0.076 0
103 0.009999999999973934 0.08599999999999999 0
104 0.0524999999999661 0.08599999999999999 0
105 0.009999999999973934 0.111 0
106 0.0524999999999661 0.111 0
107 0.009999999999973933 0.0124999999999671 0
108 0.009999999999973934 0.0279999999999935 0
109 0.009999999999973933 0.03099999999998562 0
110 0.009999999999973934 0.03399999999998183 0
111 0.009999999999973934 0.03699999999999214 0
112 0.009999999999973934 0.04049999999998916 0
113 0.009999999999973934 0.05099999999999051 0
114 0.009999999999973931 0.05999999999998944 0
115 0.009999999999973934 0.06399999999997778 0
116 0.009999999999973933 0.06799999999997344 0
117 0.009999999999973933 0.07199999999998644 0
118 0.009999999999973934 0.08099999999998644 0
119 0.009999999999973934 0.09849999999997829 0
120 0.0524999999999661 0.01249999999996711 0
121 0.05249999999996609 0.0279999999999935 0
122 0.05249999999996609 0.03099999999998562 0
123 0.0524999999999661 0.03399999999998184 0
124 0.0524999999999661 0.03699999999999214 0
125 0.0524999999999661 0.04049999999998916 0
126 0.0524999999999661 0.0509999999999905 0
127 0.05249999999996612 0.05999999999998944 0
128 0.0524999999999661 0.06399999999997776 0
129 0.0524999999999661 0.06799999999997343 0
130 0.0524999999999661 0.07199999999998644 0
131 0.05249999999996611 0.08099999999998644 0
132 0.05249999999996609 0.0984999999999783 0
$EndNodes
$Elements
168
1 1 2 8 1 1 37
2 1 2 8 1 37 2
3 1 2 8 2 2 38
4 1 2 8 2 38 39
5 1 2 8 2 39 40
6 1 2 8 2 40 41
7 1 2 8 2 41 3
8 1 2 8 3 3 42
9 1 2 8 3 42 4
10 1 2 8 4 4 5
11 1 2 8 5 5 43
12 1 2 8 5 43 6
13 1 2 8 6 6 44
14 1 2 8 6 44 45
15 1 2 8 6 45 46
16 1 2 8 6 46 47
17 1 2 8 6 47 7
18 1 2 8 7 7 48
19 1 2 8 7 48 8
20 1 2 8 8 8 49
21 1 2 8 8 49 9
22 1 2 10 10 11 51
23 1 2 10 10 51 52
24 1 2 10 10 52 53
25 1 2 10 10 53 54
26 1 2 10 10 54 12
27 1 2 9 25 28 76
28 1 2 9 25 76 29
29 1 2 9 26 29 77
30 1 2 9 26 77 78
31 1 2 9 26 78 79
32 1 2 9 26 79 80
33 1 2 9 26 80 30
34 1 2 9 27 30 81
35 1 2 9 27 81 31
36 1 2 9 28 31 32
37 1 2 9 29 32 82
38 1 2 9 29 82 33
39 1 2 9 30 33 83
40 1 2 9 30 83 84
41 1 2 9 30 84 85
42 1 2 9 30 85 86
43 1 2 9 30 86 34
44 1 2 9 31 34 87
45 1 2 9 31 87 35
46 1 2 9 32 35 88
47 1 2 9 32 88 36
48 1 2 7 33 1 89
49 1 2 7 33 89 10
50 1 2 7 34 10 19
51 1 2 7 35 19 90
52 1 2 7 35 90 28
53 1 2 10 37 11 20
54 1 2 10 38 20 92
55 1 2 10 38 92 29
56 1 2 10 40 12 21
57 1 2 10 41 21 94
58 1 2 10 41 94 30
59 1 2 7 57 9 105
60 1 2 7 57 105 18
61 1 2 7 58 18 27
62 1 2 7 59 27 106
63 1 2 7 59 106 36
64 3 2 5 60 1 89 107 37
65 3 2 5 60 37 107 91 2
66 3 2 5 60 89 10 50 107
67 3 2 5 60 107 50 11 91
68 3 2 5 61 2 91 108 38
69 3 2 5 61 38 108 109 39
70 3 2 5 61 39 109 110 40
71 3 2 5 61 40 110 111 41
72 3 2 5 61 41 111 93 3
73 3 2 5 61 91 11 51 108
74 3 2 5 61 108 51 52 109
75 3 2 5 61 109 52 53 110
76 3 2 5 61 110 53 54 111
77 3 2 5 61 111 54 12 93
78 3 2 5 62 3 93 112 42
79 3 2 5 62 42 112 95 4
80 3 2 5 62 93 12 55 112
81 3 2 5 62 112 55 13 95
82 3 2 5 63 4 95 97 5
83 3 2 5 63 95 13 14 97
84 3 2 5 64 5 97 113 43
85 3 2 5 64 43 113 99 6
86 3 2 5 64 97 14 56 113
87 3 2 5 64 113 56 15 99
88 3 2 5 65 6 99 114 44
89 3 2 5 65 44 114 115 45
90 3 2 5 65 45 115 116 46
91 3 2 5 65 46 116 117 47
92 3 2 5 65 47 117 101 7
93 3 2 5 65 99 15 57 114
94 3 2 5 65 114 57 58 115
95 3 2 5 65 115 58 59 116
96 3 2 5 65 116 59 60 117
97 3 2 5 65 117 60 16 101
98 3 2 5 66 7 101 118 48
99 3 2 5 66 48 118 103 8
100 3 2 5 66 101 16 61 118
101 3 2 5 66 118 61 17 103
102 3 2 5 67 8 103 119 49
103 3 2 5 67 49 119 105 9
104 3 2 5 67 103 17 62 119
105 3 2 5 67 119 62 18 105
106 3 2 5 68 10 19 63 50
107 3 2 5 68 50 63 20 11
108 3 2 2 69 11 20 64 51
109 3 2 2 69 51 64 65 52
110 3 2 2 69 52 65 66 53
111 3 2 2 69 53 66 67 54
112 3 2 2 69 54 67 21 12
113 3 2 5 70 12 21 68 55
114 3 2 5 70 55 68 22 13
115 3 2 6 71 13 22 23 14
116 3 2 1 72 14 23 69 56
117 3 2 1 72 56 69 24 15
118 3 2 1 73 15 24 70 57
119 3 2 1 73 57 70 71 58
120 3 2 1 73 58 71 72 59
121 3 2 1 73 59 72 73 60
122 3 2 1 73 60 73 25 16
123 3 2 5 74 16 25 74 61
124 3 2 5 74 61 74 26 17
125 3 2 5 75 17 26 75 62
126 3 2 5 75 62 75 27 18
127 3 2 5 76 19 90 120 63
128 3 2 5 76 63 120 92 20
129 3 2 5 76 90 28 76 120
130 3 2 5 76 120 76 29 92
131 3 2 2 77 20 92 121 64
132 3 2 2 77 64 121 122 65
133 3 2 2 77 65 122 123 66
134 3 2 2 77 66 123 124 67
135 3 2 2 77 67 124 94 21
136 3 2 2 77 92 29 77 121
137 3 2 2 77 121 77 78 122
138 3 2 2 77 122 78 79 123
139 3 2 2 77 123 79 80 124
140 3 2 2 77 124 80 30 94
141 3 2 5 78 21 94 125 68
142 3 2 5 78 68 125 96 22
143 3 2 5 78 94 30 81 125
144 3 2 5 78 125 81 31 96
145 3 2 5 79 22 96 98 23
146 3 2 5 79 96 31 32 98
147 3 2 4 80 23 98 126 69
148 3 2 4 80 69 126 100 24
149 3 2 4 80 98 32 82 126
150 3 2 4 80 126 82 33 100
151 3 2 1 81 24 100 127 70
152 3 2 1 81 70 127 128 71
153 3 2 1 81 71 128 129 72
154 3 2 1 81 72 129 130 73
155 3 2 1 81 73 130 102 25
156 3 2 1 81 100 33 83 127
157 3 2 1 81 127 83 84 128
158 3 2 1 81 128 84 85 129
159 3 2 1 81 129 85 86 130
160 3 2 1 81 130 86 34 102
161 3 2 3 82 25 102 131 74
162 3 2 3 82 74 131 104 26
163 3 2 3 82 102 34 87 131
164 3 2 3 82 131 87 35 104
165 3 2 5 83 26 104 132 75
166 3 2 5 83 75 132 106 27
167 3 2 5 83 104 35 88 132
168 3 2 5 83 132 88 36 106
$EndElements
