$MeshFormat
2.2 0 8
$EndMeshFormat
$PhysicalNames
1
2 1 "internal"
$EndPhysicalNames
$Nodes
13
1 1 1 0
2 -1 1 0
3 -1 -1 0
4 1 -1 0
5 2.752797989558076e-12 1 0
6 -1 2.752797989558076e-12 0
7 -2.752797989558076e-12 -1 0
8 1 -2.752797989558076e-12 0
9 0 0 0
10 0.5000000000013765 0.4999999999986236 0
11 0.4999999999986236 -0.5000000000013765 0
12 -0.4999999999988027 0.5000000000011973 0
13 -0.5000000000013765 -0.4999999999986235 0
$EndNodes
$Elements
16
1 2 2 1 1 9 10 5
2 2 2 1 1 12 9 5
3 2 2 1 1 9 12 6
4 2 2 1 1 13 9 6
5 2 2 1 1 13 7 11
6 2 2 1 1 11 8 10
7 2 2 1 1 9 11 10
8 2 2 1 1 9 13 11
9 2 2 1 1 1 10 8
10 2 2 1 1 2 12 5
11 2 2 1 1 3 13 6
12 2 2 1 1 4 11 7
13 2 2 1 1 1 5 10
14 2 2 1 1 2 6 12
15 2 2 1 1 3 7 13
16 2 2 1 1 4 8 11
$EndElements
