[Info]
Version 1
Dimension 3
NumNodes 280
Num3DElements 162
Num2DElements 198
Num1DElements 0
NumNodeBC 276
NumSaveNodes 0
NumSaveElements 0
Num 2d-line      : 0
Num 2d-line,quad : 0
Num 3d-line      : 0
Num 3d-line,quad : 0
Num triangle     : 0
Num triangle,quad: 0
Num quadr        : 198
Num quadr,quad   : 0
Num tetra        : 0
Num tetra,quad   : 0
Num brick        : 162
Num brick,quad   : 0
Num pyramid      : 0
Num pyramid,quad : 0
Num wedge        : 0
Num wedge,quad   : 0

[Nodes]
#NodeNr x-coord y-coord z-coord
       1  0.0000000000000e+00  0.0000000000000e+00  0.0000000000000e+00
       2  3.3333333333333e-01  0.0000000000000e+00  0.0000000000000e+00
       3  6.6666666666667e-01  0.0000000000000e+00  0.0000000000000e+00
       4  1.0000000000000e+00  0.0000000000000e+00  0.0000000000000e+00
       5  1.3333333333333e+00  0.0000000000000e+00  0.0000000000000e+00
       6  1.6666666666667e+00  0.0000000000000e+00  0.0000000000000e+00
       7  2.0000000000000e+00  0.0000000000000e+00  0.0000000000000e+00
       8  2.3333333333333e+00  0.0000000000000e+00  0.0000000000000e+00
       9  2.6666666666667e+00  0.0000000000000e+00  0.0000000000000e+00
      10  3.0000000000000e+00  0.0000000000000e+00  0.0000000000000e+00
      11  0.0000000000000e+00  3.3333333333333e-01  0.0000000000000e+00
      12  3.3333333333333e-01  3.3333333333333e-01  0.0000000000000e+00
      13  6.6666666666667e-01  3.3333333333333e-01  0.0000000000000e+00
      14  1.0000000000000e+00  3.3333333333333e-01  0.0000000000000e+00
      15  1.3333333333333e+00  3.3333333333333e-01  0.0000000000000e+00
      16  1.6666666666667e+00  3.3333333333333e-01  0.0000000000000e+00
      17  2.0000000000000e+00  3.3333333333333e-01  0.0000000000000e+00
      18  2.3333333333333e+00  3.3333333333333e-01  0.0000000000000e+00
      19  2.6666666666667e+00  3.3333333333333e-01  0.0000000000000e+00
      20  3.0000000000000e+00  3.3333333333333e-01  0.0000000000000e+00
      21  0.0000000000000e+00  6.6666666666667e-01  0.0000000000000e+00
      22  3.3333333333333e-01  6.6666666666667e-01  0.0000000000000e+00
      23  6.6666666666667e-01  6.6666666666667e-01  0.0000000000000e+00
      24  1.0000000000000e+00  6.6666666666667e-01  0.0000000000000e+00
      25  1.3333333333333e+00  6.6666666666667e-01  0.0000000000000e+00
      26  1.6666666666667e+00  6.6666666666667e-01  0.0000000000000e+00
      27  2.0000000000000e+00  6.6666666666667e-01  0.0000000000000e+00
      28  2.3333333333333e+00  6.6666666666667e-01  0.0000000000000e+00
      29  2.6666666666667e+00  6.6666666666667e-01  0.0000000000000e+00
      30  3.0000000000000e+00  6.6666666666667e-01  0.0000000000000e+00
      31  0.0000000000000e+00  1.0000000000000e+00  0.0000000000000e+00
      32  3.3333333333333e-01  1.0000000000000e+00  0.0000000000000e+00
      33  6.6666666666667e-01  1.0000000000000e+00  0.0000000000000e+00
      34  1.0000000000000e+00  1.0000000000000e+00  0.0000000000000e+00
      35  1.3333333333333e+00  1.0000000000000e+00  0.0000000000000e+00
      36  1.6666666666667e+00  1.0000000000000e+00  0.0000000000000e+00
      37  2.0000000000000e+00  1.0000000000000e+00  0.0000000000000e+00
      38  2.3333333333333e+00  1.0000000000000e+00  0.0000000000000e+00
      39  2.6666666666667e+00  1.0000000000000e+00  0.0000000000000e+00
      40  3.0000000000000e+00  1.0000000000000e+00  0.0000000000000e+00
      41  0.0000000000000e+00  0.0000000000000e+00  3.3333333333333e-01
      42  3.3333333333333e-01  0.0000000000000e+00  3.3333333333333e-01
      43  6.6666666666667e-01  0.0000000000000e+00  3.3333333333333e-01
      44  1.0000000000000e+00  0.0000000000000e+00  3.3333333333333e-01
      45  1.3333333333333e+00  0.0000000000000e+00  3.3333333333333e-01
      46  1.6666666666667e+00  0.0000000000000e+00  3.3333333333333e-01
      47  2.0000000000000e+00  0.0000000000000e+00  3.3333333333333e-01
      48  2.3333333333333e+00  0.0000000000000e+00  3.3333333333333e-01
      49  2.6666666666667e+00  0.0000000000000e+00  3.3333333333333e-01
      50  3.0000000000000e+00  0.0000000000000e+00  3.3333333333333e-01
      51  0.0000000000000e+00  3.3333333333333e-01  3.3333333333333e-01
      52  3.3333333333333e-01  3.3333333333333e-01  3.3333333333333e-01
      53  6.6666666666667e-01  3.3333333333333e-01  3.3333333333333e-01
      54  1.0000000000000e+00  3.3333333333333e-01  3.3333333333333e-01
      55  1.3333333333333e+00  3.3333333333333e-01  3.3333333333333e-01
      56  1.6666666666667e+00  3.3333333333333e-01  3.3333333333333e-01
      57  2.0000000000000e+00  3.3333333333333e-01  3.3333333333333e-01
      58  2.3333333333333e+00  3.3333333333333e-01  3.3333333333333e-01
      59  2.6666666666667e+00  3.3333333333333e-01  3.3333333333333e-01
      60  3.0000000000000e+00  3.3333333333333e-01  3.3333333333333e-01
      61  0.0000000000000e+00  6.6666666666667e-01  3.3333333333333e-01
      62  3.3333333333333e-01  6.6666666666667e-01  3.3333333333333e-01
      63  6.6666666666667e-01  6.6666666666667e-01  3.3333333333333e-01
      64  1.0000000000000e+00  6.6666666666667e-01  3.3333333333333e-01
      65  1.3333333333333e+00  6.6666666666667e-01  3.3333333333333e-01
      66  1.6666666666667e+00  6.6666666666667e-01  3.3333333333333e-01
      67  2.0000000000000e+00  6.6666666666667e-01  3.3333333333333e-01
      68  2.3333333333333e+00  6.6666666666667e-01  3.3333333333333e-01
      69  2.6666666666667e+00  6.6666666666667e-01  3.3333333333333e-01
      70  3.0000000000000e+00  6.6666666666667e-01  3.3333333333333e-01
      71  0.0000000000000e+00  1.0000000000000e+00  3.3333333333333e-01
      72  3.3333333333333e-01  1.0000000000000e+00  3.3333333333333e-01
      73  6.6666666666667e-01  1.0000000000000e+00  3.3333333333333e-01
      74  1.0000000000000e+00  1.0000000000000e+00  3.3333333333333e-01
      75  1.3333333333333e+00  1.0000000000000e+00  3.3333333333333e-01
      76  1.6666666666667e+00  1.0000000000000e+00  3.3333333333333e-01
      77  2.0000000000000e+00  1.0000000000000e+00  3.3333333333333e-01
      78  2.3333333333333e+00  1.0000000000000e+00  3.3333333333333e-01
      79  2.6666666666667e+00  1.0000000000000e+00  3.3333333333333e-01
      80  3.0000000000000e+00  1.0000000000000e+00  3.3333333333333e-01
      81  0.0000000000000e+00  0.0000000000000e+00  6.6666666666667e-01
      82  3.3333333333333e-01  0.0000000000000e+00  6.6666666666667e-01
      83  6.6666666666667e-01  0.0000000000000e+00  6.6666666666667e-01
      84  1.0000000000000e+00  0.0000000000000e+00  6.6666666666667e-01
      85  1.3333333333333e+00  0.0000000000000e+00  6.6666666666667e-01
      86  1.6666666666667e+00  0.0000000000000e+00  6.6666666666667e-01
      87  2.0000000000000e+00  0.0000000000000e+00  6.6666666666667e-01
      88  2.3333333333333e+00  0.0000000000000e+00  6.6666666666667e-01
      89  2.6666666666667e+00  0.0000000000000e+00  6.6666666666667e-01
      90  3.0000000000000e+00  0.0000000000000e+00  6.6666666666667e-01
      91  0.0000000000000e+00  3.3333333333333e-01  6.6666666666667e-01
      92  3.3333333333333e-01  3.3333333333333e-01  6.6666666666667e-01
      93  6.6666666666667e-01  3.3333333333333e-01  6.6666666666667e-01
      94  1.0000000000000e+00  3.3333333333333e-01  6.6666666666667e-01
      95  1.3333333333333e+00  3.3333333333333e-01  6.6666666666667e-01
      96  1.6666666666667e+00  3.3333333333333e-01  6.6666666666667e-01
      97  2.0000000000000e+00  3.3333333333333e-01  6.6666666666667e-01
      98  2.3333333333333e+00  3.3333333333333e-01  6.6666666666667e-01
      99  2.6666666666667e+00  3.3333333333333e-01  6.6666666666667e-01
     100  3.0000000000000e+00  3.3333333333333e-01  6.6666666666667e-01
     101  0.0000000000000e+00  6.6666666666667e-01  6.6666666666667e-01
     102  3.3333333333333e-01  6.6666666666667e-01  6.6666666666667e-01
     103  6.6666666666667e-01  6.6666666666667e-01  6.6666666666667e-01
     104  1.0000000000000e+00  6.6666666666667e-01  6.6666666666667e-01
     105  1.3333333333333e+00  6.6666666666667e-01  6.6666666666667e-01
     106  1.6666666666667e+00  6.6666666666667e-01  6.6666666666667e-01
     107  2.0000000000000e+00  6.6666666666667e-01  6.6666666666667e-01
     108  2.3333333333333e+00  6.6666666666667e-01  6.6666666666667e-01
     109  2.6666666666667e+00  6.6666666666667e-01  6.6666666666667e-01
     110  3.0000000000000e+00  6.6666666666667e-01  6.6666666666667e-01
     111  0.0000000000000e+00  1.0000000000000e+00  6.6666666666667e-01
     112  3.3333333333333e-01  1.0000000000000e+00  6.6666666666667e-01
     113  6.6666666666667e-01  1.0000000000000e+00  6.6666666666667e-01
     114  1.0000000000000e+00  1.0000000000000e+00  6.6666666666667e-01
     115  1.3333333333333e+00  1.0000000000000e+00  6.6666666666667e-01
     116  1.6666666666667e+00  1.0000000000000e+00  6.6666666666667e-01
     117  2.0000000000000e+00  1.0000000000000e+00  6.6666666666667e-01
     118  2.3333333333333e+00  1.0000000000000e+00  6.6666666666667e-01
     119  2.6666666666667e+00  1.0000000000000e+00  6.6666666666667e-01
     120  3.0000000000000e+00  1.0000000000000e+00  6.6666666666667e-01
     121  0.0000000000000e+00  0.0000000000000e+00  1.0000000000000e+00
     122  3.3333333333333e-01  0.0000000000000e+00  1.0000000000000e+00
     123  6.6666666666667e-01  0.0000000000000e+00  1.0000000000000e+00
     124  1.0000000000000e+00  0.0000000000000e+00  1.0000000000000e+00
     125  1.3333333333333e+00  0.0000000000000e+00  1.0000000000000e+00
     126  1.6666666666667e+00  0.0000000000000e+00  1.0000000000000e+00
     127  2.0000000000000e+00  0.0000000000000e+00  1.0000000000000e+00
     128  2.3333333333333e+00  0.0000000000000e+00  1.0000000000000e+00
     129  2.6666666666667e+00  0.0000000000000e+00  1.0000000000000e+00
     130  3.0000000000000e+00  0.0000000000000e+00  1.0000000000000e+00
     131  0.0000000000000e+00  3.3333333333333e-01  1.0000000000000e+00
     132  3.3333333333333e-01  3.3333333333333e-01  1.0000000000000e+00
     133  6.6666666666667e-01  3.3333333333333e-01  1.0000000000000e+00
     134  1.0000000000000e+00  3.3333333333333e-01  1.0000000000000e+00
     135  1.3333333333333e+00  3.3333333333333e-01  1.0000000000000e+00
     136  1.6666666666667e+00  3.3333333333333e-01  1.0000000000000e+00
     137  2.0000000000000e+00  3.3333333333333e-01  1.0000000000000e+00
     138  2.3333333333333e+00  3.3333333333333e-01  1.0000000000000e+00
     139  2.6666666666667e+00  3.3333333333333e-01  1.0000000000000e+00
     140  3.0000000000000e+00  3.3333333333333e-01  1.0000000000000e+00
     141  0.0000000000000e+00  6.6666666666667e-01  1.0000000000000e+00
     142  3.3333333333333e-01  6.6666666666667e-01  1.0000000000000e+00
     143  6.6666666666667e-01  6.6666666666667e-01  1.0000000000000e+00
     144  1.0000000000000e+00  6.6666666666667e-01  1.0000000000000e+00
     145  1.3333333333333e+00  6.6666666666667e-01  1.0000000000000e+00
     146  1.6666666666667e+00  6.6666666666667e-01  1.0000000000000e+00
     147  2.0000000000000e+00  6.6666666666667e-01  1.0000000000000e+00
     148  2.3333333333333e+00  6.6666666666667e-01  1.0000000000000e+00
     149  2.6666666666667e+00  6.6666666666667e-01  1.0000000000000e+00
     150  3.0000000000000e+00  6.6666666666667e-01  1.0000000000000e+00
     151  0.0000000000000e+00  1.0000000000000e+00  1.0000000000000e+00
     152  3.3333333333333e-01  1.0000000000000e+00  1.0000000000000e+00
     153  6.6666666666667e-01  1.0000000000000e+00  1.0000000000000e+00
     154  1.0000000000000e+00  1.0000000000000e+00  1.0000000000000e+00
     155  1.3333333333333e+00  1.0000000000000e+00  1.0000000000000e+00
     156  1.6666666666667e+00  1.0000000000000e+00  1.0000000000000e+00
     157  2.0000000000000e+00  1.0000000000000e+00  1.0000000000000e+00
     158  2.3333333333333e+00  1.0000000000000e+00  1.0000000000000e+00
     159  2.6666666666667e+00  1.0000000000000e+00  1.0000000000000e+00
     160  3.0000000000000e+00  1.0000000000000e+00  1.0000000000000e+00
     161  0.0000000000000e+00  0.0000000000000e+00  1.3333333333333e+00
     162  3.3333333333333e-01  0.0000000000000e+00  1.3333333333333e+00
     163  6.6666666666667e-01  0.0000000000000e+00  1.3333333333333e+00
     164  1.0000000000000e+00  0.0000000000000e+00  1.3333333333333e+00
     165  1.3333333333333e+00  0.0000000000000e+00  1.3333333333333e+00
     166  1.6666666666667e+00  0.0000000000000e+00  1.3333333333333e+00
     167  2.0000000000000e+00  0.0000000000000e+00  1.3333333333333e+00
     168  2.3333333333333e+00  0.0000000000000e+00  1.3333333333333e+00
     169  2.6666666666667e+00  0.0000000000000e+00  1.3333333333333e+00
     170  3.0000000000000e+00  0.0000000000000e+00  1.3333333333333e+00
     171  0.0000000000000e+00  3.3333333333333e-01  1.3333333333333e+00
     172  3.3333333333333e-01  3.3333333333333e-01  1.3333333333333e+00
     173  6.6666666666667e-01  3.3333333333333e-01  1.3333333333333e+00
     174  1.0000000000000e+00  3.3333333333333e-01  1.3333333333333e+00
     175  1.3333333333333e+00  3.3333333333333e-01  1.3333333333333e+00
     176  1.6666666666667e+00  3.3333333333333e-01  1.3333333333333e+00
     177  2.0000000000000e+00  3.3333333333333e-01  1.3333333333333e+00
     178  2.3333333333333e+00  3.3333333333333e-01  1.3333333333333e+00
     179  2.6666666666667e+00  3.3333333333333e-01  1.3333333333333e+00
     180  3.0000000000000e+00  3.3333333333333e-01  1.3333333333333e+00
     181  0.0000000000000e+00  6.6666666666667e-01  1.3333333333333e+00
     182  3.3333333333333e-01  6.6666666666667e-01  1.3333333333333e+00
     183  6.6666666666667e-01  6.6666666666667e-01  1.3333333333333e+00
     184  1.0000000000000e+00  6.6666666666667e-01  1.3333333333333e+00
     185  1.3333333333333e+00  6.6666666666667e-01  1.3333333333333e+00
     186  1.6666666666667e+00  6.6666666666667e-01  1.3333333333333e+00
     187  2.0000000000000e+00  6.6666666666667e-01  1.3333333333333e+00
     188  2.3333333333333e+00  6.6666666666667e-01  1.3333333333333e+00
     189  2.6666666666667e+00  6.6666666666667e-01  1.3333333333333e+00
     190  3.0000000000000e+00  6.6666666666667e-01  1.3333333333333e+00
     191  0.0000000000000e+00  1.0000000000000e+00  1.3333333333333e+00
     192  3.3333333333333e-01  1.0000000000000e+00  1.3333333333333e+00
     193  6.6666666666667e-01  1.0000000000000e+00  1.3333333333333e+00
     194  1.0000000000000e+00  1.0000000000000e+00  1.3333333333333e+00
     195  1.3333333333333e+00  1.0000000000000e+00  1.3333333333333e+00
     196  1.6666666666667e+00  1.0000000000000e+00  1.3333333333333e+00
     197  2.0000000000000e+00  1.0000000000000e+00  1.3333333333333e+00
     198  2.3333333333333e+00  1.0000000000000e+00  1.3333333333333e+00
     199  2.6666666666667e+00  1.0000000000000e+00  1.3333333333333e+00
     200  3.0000000000000e+00  1.0000000000000e+00  1.3333333333333e+00
     201  0.0000000000000e+00  0.0000000000000e+00  1.6666666666667e+00
     202  3.3333333333333e-01  0.0000000000000e+00  1.6666666666667e+00
     203  6.6666666666667e-01  0.0000000000000e+00  1.6666666666667e+00
     204  1.0000000000000e+00  0.0000000000000e+00  1.6666666666667e+00
     205  1.3333333333333e+00  0.0000000000000e+00  1.6666666666667e+00
     206  1.6666666666667e+00  0.0000000000000e+00  1.6666666666667e+00
     207  2.0000000000000e+00  0.0000000000000e+00  1.6666666666667e+00
     208  2.3333333333333e+00  0.0000000000000e+00  1.6666666666667e+00
     209  2.6666666666667e+00  0.0000000000000e+00  1.6666666666667e+00
     210  3.0000000000000e+00  0.0000000000000e+00  1.6666666666667e+00
     211  0.0000000000000e+00  3.3333333333333e-01  1.6666666666667e+00
     212  3.3333333333333e-01  3.3333333333333e-01  1.6666666666667e+00
     213  6.6666666666667e-01  3.3333333333333e-01  1.6666666666667e+00
     214  1.0000000000000e+00  3.3333333333333e-01  1.6666666666667e+00
     215  1.3333333333333e+00  3.3333333333333e-01  1.6666666666667e+00
     216  1.6666666666667e+00  3.3333333333333e-01  1.6666666666667e+00
     217  2.0000000000000e+00  3.3333333333333e-01  1.6666666666667e+00
     218  2.3333333333333e+00  3.3333333333333e-01  1.6666666666667e+00
     219  2.6666666666667e+00  3.3333333333333e-01  1.6666666666667e+00
     220  3.0000000000000e+00  3.3333333333333e-01  1.6666666666667e+00
     221  0.0000000000000e+00  6.6666666666667e-01  1.6666666666667e+00
     222  3.3333333333333e-01  6.6666666666667e-01  1.6666666666667e+00
     223  6.6666666666667e-01  6.6666666666667e-01  1.6666666666667e+00
     224  1.0000000000000e+00  6.6666666666667e-01  1.6666666666667e+00
     225  1.3333333333333e+00  6.6666666666667e-01  1.6666666666667e+00
     226  1.6666666666667e+00  6.6666666666667e-01  1.6666666666667e+00
     227  2.0000000000000e+00  6.6666666666667e-01  1.6666666666667e+00
     228  2.3333333333333e+00  6.6666666666667e-01  1.6666666666667e+00
     229  2.6666666666667e+00  6.6666666666667e-01  1.6666666666667e+00
     230  3.0000000000000e+00  6.6666666666667e-01  1.6666666666667e+00
     231  0.0000000000000e+00  1.0000000000000e+00  1.6666666666667e+00
     232  3.3333333333333e-01  1.0000000000000e+00  1.6666666666667e+00
     233  6.6666666666667e-01  1.0000000000000e+00  1.6666666666667e+00
     234  1.0000000000000e+00  1.0000000000000e+00  1.6666666666667e+00
     235  1.3333333333333e+00  1.0000000000000e+00  1.6666666666667e+00
     236  1.6666666666667e+00  1.0000000000000e+00  1.6666666666667e+00
     237  2.0000000000000e+00  1.0000000000000e+00  1.6666666666667e+00
     238  2.3333333333333e+00  1.0000000000000e+00  1.6666666666667e+00
     239  2.6666666666667e+00  1.0000000000000e+00  1.6666666666667e+00
     240  3.0000000000000e+00  1.0000000000000e+00  1.6666666666667e+00
     241  0.0000000000000e+00  0.0000000000000e+00  2.0000000000000e+00
     242  3.3333333333333e-01  0.0000000000000e+00  2.0000000000000e+00
     243  6.6666666666667e-01  0.0000000000000e+00  2.0000000000000e+00
     244  1.0000000000000e+00  0.0000000000000e+00  2.0000000000000e+00
     245  1.3333333333333e+00  0.0000000000000e+00  2.0000000000000e+00
     246  1.6666666666667e+00  0.0000000000000e+00  2.0000000000000e+00
     247  2.0000000000000e+00  0.0000000000000e+00  2.0000000000000e+00
     248  2.3333333333333e+00  0.0000000000000e+00  2.0000000000000e+00
     249  2.6666666666667e+00  0.0000000000000e+00  2.0000000000000e+00
     250  3.0000000000000e+00  0.0000000000000e+00  2.0000000000000e+00
     251  0.0000000000000e+00  3.3333333333333e-01  2.0000000000000e+00
     252  3.3333333333333e-01  3.3333333333333e-01  2.0000000000000e+00
     253  6.6666666666667e-01  3.3333333333333e-01  2.0000000000000e+00
     254  1.0000000000000e+00  3.3333333333333e-01  2.0000000000000e+00
     255  1.3333333333333e+00  3.3333333333333e-01  2.0000000000000e+00
     256  1.6666666666667e+00  3.3333333333333e-01  2.0000000000000e+00
     257  2.0000000000000e+00  3.3333333333333e-01  2.0000000000000e+00
     258  2.3333333333333e+00  3.3333333333333e-01  2.0000000000000e+00
     259  2.6666666666667e+00  3.3333333333333e-01  2.0000000000000e+00
     260  3.0000000000000e+00  3.3333333333333e-01  2.0000000000000e+00
     261  0.0000000000000e+00  6.6666666666667e-01  2.0000000000000e+00
     262  3.3333333333333e-01  6.6666666666667e-01  2.0000000000000e+00
     263  6.6666666666667e-01  6.6666666666667e-01  2.0000000000000e+00
     264  1.0000000000000e+00  6.6666666666667e-01  2.0000000000000e+00
     265  1.3333333333333e+00  6.6666666666667e-01  2.0000000000000e+00
     266  1.6666666666667e+00  6.6666666666667e-01  2.0000000000000e+00
     267  2.0000000000000e+00  6.6666666666667e-01  2.0000000000000e+00
     268  2.3333333333333e+00  6.6666666666667e-01  2.0000000000000e+00
     269  2.6666666666667e+00  6.6666666666667e-01  2.0000000000000e+00
     270  3.0000000000000e+00  6.6666666666667e-01  2.0000000000000e+00
     271  0.0000000000000e+00  1.0000000000000e+00  2.0000000000000e+00
     272  3.3333333333333e-01  1.0000000000000e+00  2.0000000000000e+00
     273  6.6666666666667e-01  1.0000000000000e+00  2.0000000000000e+00
     274  1.0000000000000e+00  1.0000000000000e+00  2.0000000000000e+00
     275  1.3333333333333e+00  1.0000000000000e+00  2.0000000000000e+00
     276  1.6666666666667e+00  1.0000000000000e+00  2.0000000000000e+00
     277  2.0000000000000e+00  1.0000000000000e+00  2.0000000000000e+00
     278  2.3333333333333e+00  1.0000000000000e+00  2.0000000000000e+00
     279  2.6666666666667e+00  1.0000000000000e+00  2.0000000000000e+00
     280  3.0000000000000e+00  1.0000000000000e+00  2.0000000000000e+00

[1D Elements]
#ElemNr  ElemType  NrOfNodes  Level
#Node1 Node2 ... NodeNrOfNodes

[2D Elements]
#ElemNr  ElemType  NrOfNodes  Level
#Node1 Node2 ... NodeNrOfNodes
1 6 4 leftsurface
1 41 51 11
2 6 4 leftsurface
11 51 61 21
3 6 4 leftsurface
21 61 71 31
4 6 4 leftsurface
41 81 91 51
5 6 4 leftsurface
51 91 101 61
6 6 4 leftsurface
61 101 111 71
7 6 4 leftsurface
81 121 131 91
8 6 4 leftsurface
91 131 141 101
9 6 4 leftsurface
101 141 151 111
10 6 4 leftsurface
121 161 171 131
11 6 4 leftsurface
131 171 181 141
12 6 4 leftsurface
141 181 191 151
13 6 4 leftsurface
161 201 211 171
14 6 4 leftsurface
171 211 221 181
15 6 4 leftsurface
181 221 231 191
16 6 4 leftsurface
201 241 251 211
17 6 4 leftsurface
211 251 261 221
18 6 4 leftsurface
221 261 271 231
19 6 4 rightsurface
10 20 60 50
20 6 4 rightsurface
20 30 70 60
21 6 4 rightsurface
30 40 80 70
22 6 4 rightsurface
50 60 100 90
23 6 4 rightsurface
60 70 110 100
24 6 4 rightsurface
70 80 120 110
25 6 4 rightsurface
90 100 140 130
26 6 4 rightsurface
100 110 150 140
27 6 4 rightsurface
110 120 160 150
28 6 4 rightsurface
130 140 180 170
29 6 4 rightsurface
140 150 190 180
30 6 4 rightsurface
150 160 200 190
31 6 4 rightsurface
170 180 220 210
32 6 4 rightsurface
180 190 230 220
33 6 4 rightsurface
190 200 240 230
34 6 4 rightsurface
210 220 260 250
35 6 4 rightsurface
220 230 270 260
36 6 4 rightsurface
230 240 280 270
37 6 4 bottomsurface
1 41 42 2
38 6 4 bottomsurface
2 42 43 3
39 6 4 bottomsurface
3 43 44 4
40 6 4 bottomsurface
4 44 45 5
41 6 4 bottomsurface
5 45 46 6
42 6 4 bottomsurface
6 46 47 7
43 6 4 bottomsurface
7 47 48 8
44 6 4 bottomsurface
8 48 49 9
45 6 4 bottomsurface
9 49 50 10
46 6 4 bottomsurface
41 81 82 42
47 6 4 bottomsurface
42 82 83 43
48 6 4 bottomsurface
43 83 84 44
49 6 4 bottomsurface
44 84 85 45
50 6 4 bottomsurface
45 85 86 46
51 6 4 bottomsurface
46 86 87 47
52 6 4 bottomsurface
47 87 88 48
53 6 4 bottomsurface
48 88 89 49
54 6 4 bottomsurface
49 89 90 50
55 6 4 bottomsurface
81 121 122 82
56 6 4 bottomsurface
82 122 123 83
57 6 4 bottomsurface
83 123 124 84
58 6 4 bottomsurface
84 124 125 85
59 6 4 bottomsurface
85 125 126 86
60 6 4 bottomsurface
86 126 127 87
61 6 4 bottomsurface
87 127 128 88
62 6 4 bottomsurface
88 128 129 89
63 6 4 bottomsurface
89 129 130 90
64 6 4 bottomsurface
121 161 162 122
65 6 4 bottomsurface
122 162 163 123
66 6 4 bottomsurface
123 163 164 124
67 6 4 bottomsurface
124 164 165 125
68 6 4 bottomsurface
125 165 166 126
69 6 4 bottomsurface
126 166 167 127
70 6 4 bottomsurface
127 167 168 128
71 6 4 bottomsurface
128 168 169 129
72 6 4 bottomsurface
129 169 170 130
73 6 4 bottomsurface
161 201 202 162
74 6 4 bottomsurface
162 202 203 163
75 6 4 bottomsurface
163 203 204 164
76 6 4 bottomsurface
164 204 205 165
77 6 4 bottomsurface
165 205 206 166
78 6 4 bottomsurface
166 206 207 167
79 6 4 bottomsurface
167 207 208 168
80 6 4 bottomsurface
168 208 209 169
81 6 4 bottomsurface
169 209 210 170
82 6 4 bottomsurface
201 241 242 202
83 6 4 bottomsurface
202 242 243 203
84 6 4 bottomsurface
203 243 244 204
85 6 4 bottomsurface
204 244 245 205
86 6 4 bottomsurface
205 245 246 206
87 6 4 bottomsurface
206 246 247 207
88 6 4 bottomsurface
207 247 248 208
89 6 4 bottomsurface
208 248 249 209
90 6 4 bottomsurface
209 249 250 210
91 6 4 topsurface
31 32 72 71
92 6 4 topsurface
32 33 73 72
93 6 4 topsurface
33 34 74 73
94 6 4 topsurface
34 35 75 74
95 6 4 topsurface
35 36 76 75
96 6 4 topsurface
36 37 77 76
97 6 4 topsurface
37 38 78 77
98 6 4 topsurface
38 39 79 78
99 6 4 topsurface
39 40 80 79
100 6 4 topsurface
71 72 112 111
101 6 4 topsurface
72 73 113 112
102 6 4 topsurface
73 74 114 113
103 6 4 topsurface
74 75 115 114
104 6 4 topsurface
75 76 116 115
105 6 4 topsurface
76 77 117 116
106 6 4 topsurface
77 78 118 117
107 6 4 topsurface
78 79 119 118
108 6 4 topsurface
79 80 120 119
109 6 4 topsurface
111 112 152 151
110 6 4 topsurface
112 113 153 152
111 6 4 topsurface
113 114 154 153
112 6 4 topsurface
114 115 155 154
113 6 4 topsurface
115 116 156 155
114 6 4 topsurface
116 117 157 156
115 6 4 topsurface
117 118 158 157
116 6 4 topsurface
118 119 159 158
117 6 4 topsurface
119 120 160 159
118 6 4 topsurface
151 152 192 191
119 6 4 topsurface
152 153 193 192
120 6 4 topsurface
153 154 194 193
121 6 4 topsurface
154 155 195 194
122 6 4 topsurface
155 156 196 195
123 6 4 topsurface
156 157 197 196
124 6 4 topsurface
157 158 198 197
125 6 4 topsurface
158 159 199 198
126 6 4 topsurface
159 160 200 199
127 6 4 topsurface
191 192 232 231
128 6 4 topsurface
192 193 233 232
129 6 4 topsurface
193 194 234 233
130 6 4 topsurface
194 195 235 234
131 6 4 topsurface
195 196 236 235
132 6 4 topsurface
196 197 237 236
133 6 4 topsurface
197 198 238 237
134 6 4 topsurface
198 199 239 238
135 6 4 topsurface
199 200 240 239
136 6 4 topsurface
231 232 272 271
137 6 4 topsurface
232 233 273 272
138 6 4 topsurface
233 234 274 273
139 6 4 topsurface
234 235 275 274
140 6 4 topsurface
235 236 276 275
141 6 4 topsurface
236 237 277 276
142 6 4 topsurface
237 238 278 277
143 6 4 topsurface
238 239 279 278
144 6 4 topsurface
239 240 280 279
145 6 4 backsurface
1 2 12 11
146 6 4 backsurface
2 3 13 12
147 6 4 backsurface
3 4 14 13
148 6 4 backsurface
4 5 15 14
149 6 4 backsurface
5 6 16 15
150 6 4 backsurface
6 7 17 16
151 6 4 backsurface
7 8 18 17
152 6 4 backsurface
8 9 19 18
153 6 4 backsurface
9 10 20 19
154 6 4 backsurface
11 12 22 21
155 6 4 backsurface
12 13 23 22
156 6 4 backsurface
13 14 24 23
157 6 4 backsurface
14 15 25 24
158 6 4 backsurface
15 16 26 25
159 6 4 backsurface
16 17 27 26
160 6 4 backsurface
17 18 28 27
161 6 4 backsurface
18 19 29 28
162 6 4 backsurface
19 20 30 29
163 6 4 backsurface
21 22 32 31
164 6 4 backsurface
22 23 33 32
165 6 4 backsurface
23 24 34 33
166 6 4 backsurface
24 25 35 34
167 6 4 backsurface
25 26 36 35
168 6 4 backsurface
26 27 37 36
169 6 4 backsurface
27 28 38 37
170 6 4 backsurface
28 29 39 38
171 6 4 backsurface
29 30 40 39
172 6 4 frontsurface
241 251 252 242
173 6 4 frontsurface
242 252 253 243
174 6 4 frontsurface
243 253 254 244
175 6 4 frontsurface
244 254 255 245
176 6 4 frontsurface
245 255 256 246
177 6 4 frontsurface
246 256 257 247
178 6 4 frontsurface
247 257 258 248
179 6 4 frontsurface
248 258 259 249
180 6 4 frontsurface
249 259 260 250
181 6 4 frontsurface
251 261 262 252
182 6 4 frontsurface
252 262 263 253
183 6 4 frontsurface
253 263 264 254
184 6 4 frontsurface
254 264 265 255
185 6 4 frontsurface
255 265 266 256
186 6 4 frontsurface
256 266 267 257
187 6 4 frontsurface
257 267 268 258
188 6 4 frontsurface
258 268 269 259
189 6 4 frontsurface
259 269 270 260
190 6 4 frontsurface
261 271 272 262
191 6 4 frontsurface
262 272 273 263
192 6 4 frontsurface
263 273 274 264
193 6 4 frontsurface
264 274 275 265
194 6 4 frontsurface
265 275 276 266
195 6 4 frontsurface
266 276 277 267
196 6 4 frontsurface
267 277 278 268
197 6 4 frontsurface
268 278 279 269
198 6 4 frontsurface
269 279 280 270

[3D Elements]
#ElemNr  ElemType  NrOfNodes  Level
#Node1 Node2 ... NodeNrOfNodes
199 10 8 cube
41 51 52 42 1 11 12 2
200 10 8 cube
42 52 53 43 2 12 13 3
201 10 8 cube
43 53 54 44 3 13 14 4
202 10 8 cube
44 54 55 45 4 14 15 5
203 10 8 cube
45 55 56 46 5 15 16 6
204 10 8 cube
46 56 57 47 6 16 17 7
205 10 8 cube
47 57 58 48 7 17 18 8
206 10 8 cube
48 58 59 49 8 18 19 9
207 10 8 cube
49 59 60 50 9 19 20 10
208 10 8 cube
51 61 62 52 11 21 22 12
209 10 8 cube
52 62 63 53 12 22 23 13
210 10 8 cube
53 63 64 54 13 23 24 14
211 10 8 cube
54 64 65 55 14 24 25 15
212 10 8 cube
55 65 66 56 15 25 26 16
213 10 8 cube
56 66 67 57 16 26 27 17
214 10 8 cube
57 67 68 58 17 27 28 18
215 10 8 cube
58 68 69 59 18 28 29 19
216 10 8 cube
59 69 70 60 19 29 30 20
217 10 8 cube
61 71 72 62 21 31 32 22
218 10 8 cube
62 72 73 63 22 32 33 23
219 10 8 cube
63 73 74 64 23 33 34 24
220 10 8 cube
64 74 75 65 24 34 35 25
221 10 8 cube
65 75 76 66 25 35 36 26
222 10 8 cube
66 76 77 67 26 36 37 27
223 10 8 cube
67 77 78 68 27 37 38 28
224 10 8 cube
68 78 79 69 28 38 39 29
225 10 8 cube
69 79 80 70 29 39 40 30
226 10 8 cube
81 91 92 82 41 51 52 42
227 10 8 cube
82 92 93 83 42 52 53 43
228 10 8 cube
83 93 94 84 43 53 54 44
229 10 8 cube
84 94 95 85 44 54 55 45
230 10 8 cube
85 95 96 86 45 55 56 46
231 10 8 cube
86 96 97 87 46 56 57 47
232 10 8 cube
87 97 98 88 47 57 58 48
233 10 8 cube
88 98 99 89 48 58 59 49
234 10 8 cube
89 99 100 90 49 59 60 50
235 10 8 cube
91 101 102 92 51 61 62 52
236 10 8 cube
92 102 103 93 52 62 63 53
237 10 8 cube
93 103 104 94 53 63 64 54
238 10 8 cube
94 104 105 95 54 64 65 55
239 10 8 cube
95 105 106 96 55 65 66 56
240 10 8 cube
96 106 107 97 56 66 67 57
241 10 8 cube
97 107 108 98 57 67 68 58
242 10 8 cube
98 108 109 99 58 68 69 59
243 10 8 cube
99 109 110 100 59 69 70 60
244 10 8 cube
101 111 112 102 61 71 72 62
245 10 8 cube
102 112 113 103 62 72 73 63
246 10 8 cube
103 113 114 104 63 73 74 64
247 10 8 cube
104 114 115 105 64 74 75 65
248 10 8 cube
105 115 116 106 65 75 76 66
249 10 8 cube
106 116 117 107 66 76 77 67
250 10 8 cube
107 117 118 108 67 77 78 68
251 10 8 cube
108 118 119 109 68 78 79 69
252 10 8 cube
109 119 120 110 69 79 80 70
253 10 8 cube
121 131 132 122 81 91 92 82
254 10 8 cube
122 132 133 123 82 92 93 83
255 10 8 cube
123 133 134 124 83 93 94 84
256 10 8 cube
124 134 135 125 84 94 95 85
257 10 8 cube
125 135 136 126 85 95 96 86
258 10 8 cube
126 136 137 127 86 96 97 87
259 10 8 cube
127 137 138 128 87 97 98 88
260 10 8 cube
128 138 139 129 88 98 99 89
261 10 8 cube
129 139 140 130 89 99 100 90
262 10 8 cube
131 141 142 132 91 101 102 92
263 10 8 cube
132 142 143 133 92 102 103 93
264 10 8 cube
133 143 144 134 93 103 104 94
265 10 8 cube
134 144 145 135 94 104 105 95
266 10 8 cube
135 145 146 136 95 105 106 96
267 10 8 cube
136 146 147 137 96 106 107 97
268 10 8 cube
137 147 148 138 97 107 108 98
269 10 8 cube
138 148 149 139 98 108 109 99
270 10 8 cube
139 149 150 140 99 109 110 100
271 10 8 cube
141 151 152 142 101 111 112 102
272 10 8 cube
142 152 153 143 102 112 113 103
273 10 8 cube
143 153 154 144 103 113 114 104
274 10 8 cube
144 154 155 145 104 114 115 105
275 10 8 cube
145 155 156 146 105 115 116 106
276 10 8 cube
146 156 157 147 106 116 117 107
277 10 8 cube
147 157 158 148 107 117 118 108
278 10 8 cube
148 158 159 149 108 118 119 109
279 10 8 cube
149 159 160 150 109 119 120 110
280 10 8 cube
161 171 172 162 121 131 132 122
281 10 8 cube
162 172 173 163 122 132 133 123
282 10 8 cube
163 173 174 164 123 133 134 124
283 10 8 cube
164 174 175 165 124 134 135 125
284 10 8 cube
165 175 176 166 125 135 136 126
285 10 8 cube
166 176 177 167 126 136 137 127
286 10 8 cube
167 177 178 168 127 137 138 128
287 10 8 cube
168 178 179 169 128 138 139 129
288 10 8 cube
169 179 180 170 129 139 140 130
289 10 8 cube
171 181 182 172 131 141 142 132
290 10 8 cube
172 182 183 173 132 142 143 133
291 10 8 cube
173 183 184 174 133 143 144 134
292 10 8 cube
174 184 185 175 134 144 145 135
293 10 8 cube
175 185 186 176 135 145 146 136
294 10 8 cube
176 186 187 177 136 146 147 137
295 10 8 cube
177 187 188 178 137 147 148 138
296 10 8 cube
178 188 189 179 138 148 149 139
297 10 8 cube
179 189 190 180 139 149 150 140
298 10 8 cube
181 191 192 182 141 151 152 142
299 10 8 cube
182 192 193 183 142 152 153 143
300 10 8 cube
183 193 194 184 143 153 154 144
301 10 8 cube
184 194 195 185 144 154 155 145
302 10 8 cube
185 195 196 186 145 155 156 146
303 10 8 cube
186 196 197 187 146 156 157 147
304 10 8 cube
187 197 198 188 147 157 158 148
305 10 8 cube
188 198 199 189 148 158 159 149
306 10 8 cube
189 199 200 190 149 159 160 150
307 10 8 cube
201 211 212 202 161 171 172 162
308 10 8 cube
202 212 213 203 162 172 173 163
309 10 8 cube
203 213 214 204 163 173 174 164
310 10 8 cube
204 214 215 205 164 174 175 165
311 10 8 cube
205 215 216 206 165 175 176 166
312 10 8 cube
206 216 217 207 166 176 177 167
313 10 8 cube
207 217 218 208 167 177 178 168
314 10 8 cube
208 218 219 209 168 178 179 169
315 10 8 cube
209 219 220 210 169 179 180 170
316 10 8 cube
211 221 222 212 171 181 182 172
317 10 8 cube
212 222 223 213 172 182 183 173
318 10 8 cube
213 223 224 214 173 183 184 174
319 10 8 cube
214 224 225 215 174 184 185 175
320 10 8 cube
215 225 226 216 175 185 186 176
321 10 8 cube
216 226 227 217 176 186 187 177
322 10 8 cube
217 227 228 218 177 187 188 178
323 10 8 cube
218 228 229 219 178 188 189 179
324 10 8 cube
219 229 230 220 179 189 190 180
325 10 8 cube
221 231 232 222 181 191 192 182
326 10 8 cube
222 232 233 223 182 192 193 183
327 10 8 cube
223 233 234 224 183 193 194 184
328 10 8 cube
224 234 235 225 184 194 195 185
329 10 8 cube
225 235 236 226 185 195 196 186
330 10 8 cube
226 236 237 227 186 196 197 187
331 10 8 cube
227 237 238 228 187 197 198 188
332 10 8 cube
228 238 239 229 188 198 199 189
333 10 8 cube
229 239 240 230 189 199 200 190
334 10 8 cube
241 251 252 242 201 211 212 202
335 10 8 cube
242 252 253 243 202 212 213 203
336 10 8 cube
243 253 254 244 203 213 214 204
337 10 8 cube
244 254 255 245 204 214 215 205
338 10 8 cube
245 255 256 246 205 215 216 206
339 10 8 cube
246 256 257 247 206 216 217 207
340 10 8 cube
247 257 258 248 207 217 218 208
341 10 8 cube
248 258 259 249 208 218 219 209
342 10 8 cube
249 259 260 250 209 219 220 210
343 10 8 cube
251 261 262 252 211 221 222 212
344 10 8 cube
252 262 263 253 212 222 223 213
345 10 8 cube
253 263 264 254 213 223 224 214
346 10 8 cube
254 264 265 255 214 224 225 215
347 10 8 cube
255 265 266 256 215 225 226 216
348 10 8 cube
256 266 267 257 216 226 227 217
349 10 8 cube
257 267 268 258 217 227 228 218
350 10 8 cube
258 268 269 259 218 228 229 219
351 10 8 cube
259 269 270 260 219 229 230 220
352 10 8 cube
261 271 272 262 221 231 232 222
353 10 8 cube
262 272 273 263 222 232 233 223
354 10 8 cube
263 273 274 264 223 233 234 224
355 10 8 cube
264 274 275 265 224 234 235 225
356 10 8 cube
265 275 276 266 225 235 236 226
357 10 8 cube
266 276 277 267 226 236 237 227
358 10 8 cube
267 277 278 268 227 237 238 228
359 10 8 cube
268 278 279 269 228 238 239 229
360 10 8 cube
269 279 280 270 229 239 240 230

[Node BC]
#NodeNr Level
       1 left
      11 left
      21 left
      31 left
      41 left
      51 left
      61 left
      71 left
      81 left
      91 left
     101 left
     111 left
     121 left
     131 left
     141 left
     151 left
     161 left
     171 left
     181 left
     191 left
     201 left
     211 left
     221 left
     231 left
     241 left
     251 left
     261 left
     271 left
      10 right
      20 right
      30 right
      40 right
      50 right
      60 right
      70 right
      80 right
      90 right
     100 right
     110 right
     120 right
     130 right
     140 right
     150 right
     160 right
     170 right
     180 right
     190 right
     200 right
     210 right
     220 right
     230 right
     240 right
     250 right
     260 right
     270 right
     280 right
       1 bottom
       2 bottom
       3 bottom
       4 bottom
       5 bottom
       6 bottom
       7 bottom
       8 bottom
       9 bottom
      10 bottom
      41 bottom
      42 bottom
      43 bottom
      44 bottom
      45 bottom
      46 bottom
      47 bottom
      48 bottom
      49 bottom
      50 bottom
      81 bottom
      82 bottom
      83 bottom
      84 bottom
      85 bottom
      86 bottom
      87 bottom
      88 bottom
      89 bottom
      90 bottom
     121 bottom
     122 bottom
     123 bottom
     124 bottom
     125 bottom
     126 bottom
     127 bottom
     128 bottom
     129 bottom
     130 bottom
     161 bottom
     162 bottom
     163 bottom
     164 bottom
     165 bottom
     166 bottom
     167 bottom
     168 bottom
     169 bottom
     170 bottom
     201 bottom
     202 bottom
     203 bottom
     204 bottom
     205 bottom
     206 bottom
     207 bottom
     208 bottom
     209 bottom
     210 bottom
     241 bottom
     242 bottom
     243 bottom
     244 bottom
     245 bottom
     246 bottom
     247 bottom
     248 bottom
     249 bottom
     250 bottom
      31 top
      32 top
      33 top
      34 top
      35 top
      36 top
      37 top
      38 top
      39 top
      40 top
      71 top
      72 top
      73 top
      74 top
      75 top
      76 top
      77 top
      78 top
      79 top
      80 top
     111 top
     112 top
     113 top
     114 top
     115 top
     116 top
     117 top
     118 top
     119 top
     120 top
     151 top
     152 top
     153 top
     154 top
     155 top
     156 top
     157 top
     158 top
     159 top
     160 top
     191 top
     192 top
     193 top
     194 top
     195 top
     196 top
     197 top
     198 top
     199 top
     200 top
     231 top
     232 top
     233 top
     234 top
     235 top
     236 top
     237 top
     238 top
     239 top
     240 top
     271 top
     272 top
     273 top
     274 top
     275 top
     276 top
     277 top
     278 top
     279 top
     280 top
       1 back
       2 back
       3 back
       4 back
       5 back
       6 back
       7 back
       8 back
       9 back
      10 back
      11 back
      12 back
      13 back
      14 back
      15 back
      16 back
      17 back
      18 back
      19 back
      20 back
      21 back
      22 back
      23 back
      24 back
      25 back
      26 back
      27 back
      28 back
      29 back
      30 back
      31 back
      32 back
      33 back
      34 back
      35 back
      36 back
      37 back
      38 back
      39 back
      40 back
     241 front
     242 front
     243 front
     244 front
     245 front
     246 front
     247 front
     248 front
     249 front
     250 front
     251 front
     252 front
     253 front
     254 front
     255 front
     256 front
     257 front
     258 front
     259 front
     260 front
     261 front
     262 front
     263 front
     264 front
     265 front
     266 front
     267 front
     268 front
     269 front
     270 front
     271 front
     272 front
     273 front
     274 front
     275 front
     276 front
     277 front
     278 front
     279 front
     280 front

[Save Nodes]
#NodeNr Level

[Save Elements]
#ElemNr Level

