   1.0000000e+02   1.1527970e+05
   1.1000000e+02   1.1475558e+05
   1.2000000e+02   1.1431606e+05
   1.3000000e+02   1.1394600e+05
   1.4000000e+02   1.1363372e+05
   1.5000000e+02   1.1337005e+05
   1.6000000e+02   1.1314766e+05
   1.7000000e+02   1.1296064e+05
   1.8000000e+02   1.1280410e+05
   1.9000000e+02   1.1267403e+05
   2.0000000e+02   1.1256705e+05
   2.1000000e+02   1.1248033e+05
   2.2000000e+02   1.1241144e+05
   2.3000000e+02   1.1235832e+05
   2.4000000e+02   1.1231918e+05
   2.5000000e+02   1.1229248e+05
   2.6000000e+02   1.1227687e+05
   2.7000000e+02   1.1227119e+05
   2.8000000e+02   1.1227440e+05
   2.9000000e+02   1.1228558e+05
   3.0000000e+02   1.1230395e+05
   3.1000000e+02   1.1232877e+05
   3.2000000e+02   1.1235941e+05
   3.3000000e+02   1.1239531e+05
   3.4000000e+02   1.1243595e+05
   3.5000000e+02   1.1248088e+05
   3.6000000e+02   1.1252968e+05
   3.7000000e+02   1.1258199e+05
   3.8000000e+02   1.1263746e+05
   3.9000000e+02   1.1269580e+05
   4.0000000e+02   1.1275673e+05
   4.1000000e+02   1.1282000e+05
   4.2000000e+02   1.1288538e+05
   4.3000000e+02   1.1295266e+05
   4.4000000e+02   1.1302165e+05
   4.5000000e+02   1.1309218e+05
   4.6000000e+02   1.1316410e+05
   4.7000000e+02   1.1323725e+05
   4.8000000e+02   1.1331151e+05
   4.9000000e+02   1.1338675e+05
   5.0000000e+02   1.1346286e+05
   5.1000000e+02   1.1353974e+05
   5.2000000e+02   1.1361729e+05
   5.3000000e+02   1.1369542e+05
   5.4000000e+02   1.1377406e+05
   5.5000000e+02   1.1385314e+05
   5.6000000e+02   1.1393257e+05
   5.7000000e+02   1.1401231e+05
   5.8000000e+02   1.1409229e+05
   5.9000000e+02   1.1417246e+05
   6.0000000e+02   1.1425276e+05
   6.1000000e+02   1.1433316e+05
   6.2000000e+02   1.1441362e+05
   6.3000000e+02   1.1449408e+05
   6.4000000e+02   1.1457452e+05
   6.5000000e+02   1.1465491e+05
   6.6000000e+02   1.1473520e+05
   6.7000000e+02   1.1481538e+05
   6.8000000e+02   1.1489542e+05
   6.9000000e+02   1.1497530e+05
   7.0000000e+02   1.1505498e+05
   7.1000000e+02   1.1513445e+05
   7.2000000e+02   1.1521370e+05
   7.3000000e+02   1.1529270e+05
   7.4000000e+02   1.1537144e+05
   7.5000000e+02   1.1544990e+05
   7.6000000e+02   1.1552808e+05
   7.7000000e+02   1.1560595e+05
   7.8000000e+02   1.1568350e+05
   7.9000000e+02   1.1576073e+05
   8.0000000e+02   1.1583763e+05
   8.1000000e+02   1.1591418e+05
   8.2000000e+02   1.1599038e+05
   8.3000000e+02   1.1606623e+05
   8.4000000e+02   1.1614170e+05
   8.5000000e+02   1.1621681e+05
   8.6000000e+02   1.1629154e+05
   8.7000000e+02   1.1636590e+05
   8.8000000e+02   1.1643986e+05
   8.9000000e+02   1.1651344e+05
   9.0000000e+02   1.1658662e+05
   9.1000000e+02   1.1665941e+05
   9.2000000e+02   1.1673181e+05
   9.3000000e+02   1.1680380e+05
   9.4000000e+02   1.1687539e+05
   9.5000000e+02   1.1694658e+05
   9.6000000e+02   1.1701736e+05
   9.7000000e+02   1.1708774e+05
   9.8000000e+02   1.1715771e+05
   9.9000000e+02   1.1722728e+05
   1.0000000e+03   1.1729644e+05
   1.0100000e+03   1.1736519e+05
   1.0200000e+03   1.1743354e+05
   1.0300000e+03   1.1750148e+05
   1.0400000e+03   1.1756902e+05
   1.0500000e+03   1.1763615e+05
   1.0600000e+03   1.1770288e+05
   1.0700000e+03   1.1776921e+05
   1.0800000e+03   1.1783513e+05
   1.0900000e+03   1.1790066e+05
   1.1000000e+03   1.1796578e+05
   1.1100000e+03   1.1803051e+05
   1.1200000e+03   1.1809485e+05
   1.1300000e+03   1.1815879e+05
   1.1400000e+03   1.1822234e+05
   1.1500000e+03   1.1828550e+05
   1.1600000e+03   1.1834827e+05
   1.1700000e+03   1.1841065e+05
   1.1800000e+03   1.1847265e+05
   1.1900000e+03   1.1853427e+05
   1.2000000e+03   1.1859551e+05
   1.2100000e+03   1.1865637e+05
   1.2200000e+03   1.1871685e+05
   1.2300000e+03   1.1877696e+05
   1.2400000e+03   1.1883670e+05
   1.2500000e+03   1.1889608e+05
   1.2600000e+03   1.1895508e+05
   1.2700000e+03   1.1901372e+05
   1.2800000e+03   1.1907200e+05
   1.2900000e+03   1.1912992e+05
   1.3000000e+03   1.1918748e+05
   1.3100000e+03   1.1924469e+05
   1.3200000e+03   1.1930155e+05
   1.3300000e+03   1.1935806e+05
   1.3400000e+03   1.1941422e+05
   1.3500000e+03   1.1947003e+05
   1.3600000e+03   1.1952551e+05
   1.3700000e+03   1.1958064e+05
   1.3800000e+03   1.1963544e+05
   1.3900000e+03   1.1968990e+05
   1.4000000e+03   1.1974403e+05
   1.4100000e+03   1.1979784e+05
   1.4200000e+03   1.1985131e+05
   1.4300000e+03   1.1990446e+05
   1.4400000e+03   1.1995729e+05
   1.4500000e+03   1.2000980e+05
   1.4600000e+03   1.2006199e+05
   1.4700000e+03   1.2011386e+05
   1.4800000e+03   1.2016543e+05
   1.4900000e+03   1.2021668e+05
   1.5000000e+03   1.2026762e+05
   1.5100000e+03   1.2031827e+05
   1.5200000e+03   1.2036860e+05
   1.5300000e+03   1.2041864e+05
   1.5400000e+03   1.2046838e+05
   1.5500000e+03   1.2051782e+05
   1.5600000e+03   1.2056698e+05
   1.5700000e+03   1.2061584e+05
   1.5800000e+03   1.2066441e+05
   1.5900000e+03   1.2071269e+05
   1.6000000e+03   1.2076069e+05
   1.6100000e+03   1.2080841e+05
   1.6200000e+03   1.2085585e+05
   1.6300000e+03   1.2090301e+05
   1.6400000e+03   1.2094990e+05
   1.6500000e+03   1.2099651e+05
   1.6600000e+03   1.2104286e+05
   1.6700000e+03   1.2108893e+05
   1.6800000e+03   1.2113474e+05
   1.6900000e+03   1.2118028e+05
   1.7000000e+03   1.2122556e+05
   1.7100000e+03   1.2127059e+05
   1.7200000e+03   1.2131535e+05
   1.7300000e+03   1.2135986e+05
   1.7400000e+03   1.2140411e+05
   1.7500000e+03   1.2144812e+05
   1.7600000e+03   1.2149187e+05
   1.7700000e+03   1.2153537e+05
   1.7800000e+03   1.2157863e+05
   1.7900000e+03   1.2162165e+05
   1.8000000e+03   1.2166442e+05
   1.8100000e+03   1.2170695e+05
   1.8200000e+03   1.2174925e+05
   1.8300000e+03   1.2179131e+05
   1.8400000e+03   1.2183314e+05
   1.8500000e+03   1.2187473e+05
   1.8600000e+03   1.2191609e+05
   1.8700000e+03   1.2195723e+05
   1.8800000e+03   1.2199813e+05
   1.8900000e+03   1.2203882e+05
   1.9000000e+03   1.2207927e+05
   1.9100000e+03   1.2211951e+05
   1.9200000e+03   1.2215953e+05
   1.9300000e+03   1.2219933e+05
   1.9400000e+03   1.2223891e+05
   1.9500000e+03   1.2227828e+05
   1.9600000e+03   1.2231744e+05
   1.9700000e+03   1.2235639e+05
   1.9800000e+03   1.2239512e+05
   1.9900000e+03   1.2243365e+05
   2.0000000e+03   1.2247197e+05
   2.0100000e+03   1.2251009e+05
   2.0200000e+03   1.2254800e+05
   2.0300000e+03   1.2258572e+05
   2.0400000e+03   1.2262323e+05
   2.0500000e+03   1.2266055e+05
   2.0600000e+03   1.2269766e+05
   2.0700000e+03   1.2273459e+05
   2.0800000e+03   1.2277132e+05
   2.0900000e+03   1.2280785e+05
   2.1000000e+03   1.2284420e+05
   2.1100000e+03   1.2288036e+05
   2.1200000e+03   1.2291633e+05
   2.1300000e+03   1.2295211e+05
   2.1400000e+03   1.2298771e+05
   2.1500000e+03   1.2302312e+05
   2.1600000e+03   1.2305836e+05
   2.1700000e+03   1.2309341e+05
   2.1800000e+03   1.2312828e+05
   2.1900000e+03   1.2316298e+05
   2.2000000e+03   1.2319750e+05
   2.2100000e+03   1.2323184e+05
   2.2200000e+03   1.2326601e+05
   2.2300000e+03   1.2330001e+05
   2.2400000e+03   1.2333383e+05
   2.2500000e+03   1.2336749e+05
   2.2600000e+03   1.2340098e+05
   2.2700000e+03   1.2343430e+05
   2.2800000e+03   1.2346745e+05
   2.2900000e+03   1.2350044e+05
   2.3000000e+03   1.2353326e+05
   2.3100000e+03   1.2356592e+05
   2.3200000e+03   1.2359843e+05
   2.3300000e+03   1.2363077e+05
   2.3400000e+03   1.2366295e+05
   2.3500000e+03   1.2369497e+05
   2.3600000e+03   1.2372684e+05
   2.3700000e+03   1.2375855e+05
   2.3800000e+03   1.2379011e+05
   2.3900000e+03   1.2382152e+05
   2.4000000e+03   1.2385277e+05
   2.4100000e+03   1.2388387e+05
   2.4200000e+03   1.2391482e+05
   2.4300000e+03   1.2394563e+05
   2.4400000e+03   1.2397628e+05
   2.4500000e+03   1.2400679e+05
   2.4600000e+03   1.2403715e+05
   2.4700000e+03   1.2406737e+05
   2.4800000e+03   1.2409745e+05
   2.4900000e+03   1.2412738e+05
   2.5000000e+03   1.2415717e+05
   2.5100000e+03   1.2418683e+05
   2.5200000e+03   1.2421634e+05
   2.5300000e+03   1.2424571e+05
   2.5400000e+03   1.2427495e+05
   2.5500000e+03   1.2430405e+05
   2.5600000e+03   1.2433301e+05
   2.5700000e+03   1.2436184e+05
   2.5800000e+03   1.2439054e+05
   2.5900000e+03   1.2441911e+05
   2.6000000e+03   1.2444754e+05
   2.6100000e+03   1.2447584e+05
   2.6200000e+03   1.2450401e+05
   2.6300000e+03   1.2453205e+05
   2.6400000e+03   1.2455997e+05
   2.6500000e+03   1.2458776e+05
   2.6600000e+03   1.2461542e+05
   2.6700000e+03   1.2464295e+05
   2.6800000e+03   1.2467037e+05
   2.6900000e+03   1.2469765e+05
   2.7000000e+03   1.2472482e+05
   2.7100000e+03   1.2475186e+05
   2.7200000e+03   1.2477879e+05
   2.7300000e+03   1.2480559e+05
   2.7400000e+03   1.2483227e+05
   2.7500000e+03   1.2485883e+05
   2.7600000e+03   1.2488528e+05
   2.7700000e+03   1.2491161e+05
   2.7800000e+03   1.2493782e+05
   2.7900000e+03   1.2496392e+05
   2.8000000e+03   1.2498990e+05
   2.8100000e+03   1.2501577e+05
   2.8200000e+03   1.2504152e+05
   2.8300000e+03   1.2506717e+05
   2.8400000e+03   1.2509270e+05
   2.8500000e+03   1.2511812e+05
   2.8600000e+03   1.2514343e+05
   2.8700000e+03   1.2516863e+05
   2.8800000e+03   1.2519372e+05
   2.8900000e+03   1.2521871e+05
   2.9000000e+03   1.2524358e+05
   2.9100000e+03   1.2526835e+05
   2.9200000e+03   1.2529302e+05
   2.9300000e+03   1.2531758e+05
   2.9400000e+03   1.2534203e+05
   2.9500000e+03   1.2536638e+05
   2.9600000e+03   1.2539063e+05
   2.9700000e+03   1.2541477e+05
   2.9800000e+03   1.2543882e+05
   2.9900000e+03   1.2546276e+05
   3.0000000e+03   1.2548660e+05
   3.0100000e+03   1.2551034e+05
   3.0200000e+03   1.2553399e+05
   3.0300000e+03   1.2555753e+05
   3.0400000e+03   1.2558098e+05
   3.0500000e+03   1.2560433e+05
   3.0600000e+03   1.2562758e+05
   3.0700000e+03   1.2565073e+05
   3.0800000e+03   1.2567379e+05
   3.0900000e+03   1.2569676e+05
   3.1000000e+03   1.2571963e+05
   3.1100000e+03   1.2574241e+05
   3.1200000e+03   1.2576509e+05
   3.1300000e+03   1.2578769e+05
   3.1400000e+03   1.2581019e+05
   3.1500000e+03   1.2583260e+05
   3.1600000e+03   1.2585492e+05
   3.1700000e+03   1.2587714e+05
   3.1800000e+03   1.2589928e+05
   3.1900000e+03   1.2592133e+05
   3.2000000e+03   1.2594329e+05
   3.2100000e+03   1.2596517e+05
   3.2200000e+03   1.2598695e+05
   3.2300000e+03   1.2600865e+05
   3.2400000e+03   1.2603026e+05
   3.2500000e+03   1.2605179e+05
   3.2600000e+03   1.2607323e+05
   3.2700000e+03   1.2609459e+05
   3.2800000e+03   1.2611586e+05
   3.2900000e+03   1.2613705e+05
   3.3000000e+03   1.2615815e+05
   3.3100000e+03   1.2617918e+05
   3.3200000e+03   1.2620012e+05
   3.3300000e+03   1.2622098e+05
   3.3400000e+03   1.2624175e+05
   3.3500000e+03   1.2626245e+05
   3.3600000e+03   1.2628307e+05
   3.3700000e+03   1.2630360e+05
   3.3800000e+03   1.2632406e+05
   3.3900000e+03   1.2634444e+05
   3.4000000e+03   1.2636474e+05
   3.4100000e+03   1.2638496e+05
   3.4200000e+03   1.2640510e+05
   3.4300000e+03   1.2642517e+05
   3.4400000e+03   1.2644516e+05
   3.4500000e+03   1.2646508e+05
   3.4600000e+03   1.2648492e+05
   3.4700000e+03   1.2650468e+05
   3.4800000e+03   1.2652437e+05
   3.4900000e+03   1.2654399e+05
   3.5000000e+03   1.2656353e+05
   3.5100000e+03   1.2658300e+05
   3.5200000e+03   1.2660239e+05
   3.5300000e+03   1.2662171e+05
   3.5400000e+03   1.2664097e+05
   3.5500000e+03   1.2666014e+05
   3.5600000e+03   1.2667925e+05
   3.5700000e+03   1.2669829e+05
   3.5800000e+03   1.2671725e+05
   3.5900000e+03   1.2673615e+05
   3.6000000e+03   1.2675497e+05
   3.6100000e+03   1.2677373e+05
   3.6200000e+03   1.2679242e+05
   3.6300000e+03   1.2681104e+05
   3.6400000e+03   1.2682959e+05
   3.6500000e+03   1.2684807e+05
   3.6600000e+03   1.2686649e+05
   3.6700000e+03   1.2688484e+05
   3.6800000e+03   1.2690312e+05
   3.6900000e+03   1.2692134e+05
   3.7000000e+03   1.2693949e+05
   3.7100000e+03   1.2695757e+05
   3.7200000e+03   1.2697559e+05
   3.7300000e+03   1.2699354e+05
   3.7400000e+03   1.2701143e+05
   3.7500000e+03   1.2702926e+05
   3.7600000e+03   1.2704702e+05
   3.7700000e+03   1.2706472e+05
   3.7800000e+03   1.2708236e+05
   3.7900000e+03   1.2709993e+05
   3.8000000e+03   1.2711745e+05
   3.8100000e+03   1.2713489e+05
   3.8200000e+03   1.2715228e+05
   3.8300000e+03   1.2716961e+05
   3.8400000e+03   1.2718687e+05
   3.8500000e+03   1.2720408e+05
   3.8600000e+03   1.2722122e+05
   3.8700000e+03   1.2723831e+05
   3.8800000e+03   1.2725533e+05
   3.8900000e+03   1.2727230e+05
   3.9000000e+03   1.2728921e+05
   3.9100000e+03   1.2730606e+05
   3.9200000e+03   1.2732285e+05
   3.9300000e+03   1.2733958e+05
   3.9400000e+03   1.2735625e+05
   3.9500000e+03   1.2737287e+05
   3.9600000e+03   1.2738943e+05
   3.9700000e+03   1.2740593e+05
   3.9800000e+03   1.2742238e+05
   3.9900000e+03   1.2743877e+05
   4.0000000e+03   1.2745510e+05
