[Info]
Version 1
Dimension 2
NumNodes 36
Num3DElements 0
Num2DElements 25
Num1DElements 0
NumNodeBC 32
NumSaveNodes 0
NumSaveElements 0
Num 2d-line      : 0
Num 2d-line,quad : 0
Num 3d-line      : 0
Num 3d-line,quad : 0
Num triangle     : 0
Num triangle,quad: 0
Num quadr        : 25
Num quadr,quad   : 0
Num tetra        : 0
Num tetra,quad   : 0
Num brick        : 0
Num brick,quad   : 0
Num pyramid      : 0
Num pyramid,quad : 0
Num wedge        : 0
Num wedge,quad   : 0

[Nodes]
#NodeNr x-coord y-coord z-coord
1  0.0  0.0  0.0
2  0.2  0.0  0.0
3  0.4  0.0  0.0
4  0.6  0.0  0.0
5  0.8  0.0  0.0
6  1.0  0.0  0.0
7  0.0  0.2  0.0
8  0.2  0.2  0.0
9  0.4  0.2  0.0
10  0.6  0.2  0.0
11  0.8  0.2  0.0
12  1.0  0.2  0.0
13  0.0  0.4  0.0
14  0.2  0.4  0.0
15  0.4  0.4  0.0
16  0.6  0.4  0.0
17  0.8  0.4  0.0
18  1.0  0.4  0.0
19  0.0  0.6  0.0
20  0.2  0.6  0.0
21  0.4  0.6  0.0
22  0.6  0.6  0.0
23  0.8  0.6  0.0
24  1.0  0.6  0.0
25  0.0  0.8  0.0
26  0.2  0.8  0.0
27  0.4  0.8  0.0
28  0.6  0.8  0.0
29  0.8  0.8  0.0
30  1.0  0.8  0.0
31  0.0  1.0  0.0
32  0.2  1.0  0.0
33  0.4  1.0  0.0
34  0.6  1.0  0.0
35  0.8  1.0  0.0
36  1.0  1.0  0.0

[1D Elements]
#ElemNr  ElemType  NrOfNodes  Level
#Node1 Node2 ... NodeNrOfNodes

[2D Elements]
#ElemNr  ElemType  NrOfNodes  Level
#Node1 Node2 ... NodeNrOfNodes
1 6 4 mech
1 2 8 7
2 6 4 mech
2 3 9 8
3 6 4 mech
3 4 10 9
4 6 4 mech
4 5 11 10
5 6 4 mech
5 6 12 11
6 6 4 mech
7 8 14 13
7 6 4 mech
8 9 15 14
8 6 4 mech
9 10 16 15
9 6 4 mech
10 11 17 16
10 6 4 mech
11 12 18 17
11 6 4 mech
13 14 20 19
12 6 4 mech
14 15 21 20
13 6 4 mech
15 16 22 21
14 6 4 mech
16 17 23 22
15 6 4 mech
17 18 24 23
16 6 4 mech
19 20 26 25
17 6 4 mech
20 21 27 26
18 6 4 mech
21 22 28 27
19 6 4 mech
22 23 29 28
20 6 4 mech
23 24 30 29
21 6 4 mech
25 26 32 31
22 6 4 mech
26 27 33 32
23 6 4 mech
27 28 34 33
24 6 4 mech
28 29 35 34
25 6 4 mech
29 30 36 35

[3D Elements]
#ElemNr  ElemType  NrOfNodes  Level
#Node1 Node2 ... NodeNrOfNodes

[Node BC]
#NodeNr Level
1 left_lower
6 right_lower
31 left_upper
36 right_upper
1 south
2 south
3 south
4 south
5 south
6 south
31 north
32 north
33 north
34 north
35 north
36 north
1 west
7 west
13 west
19 west
25 west
31 west
6 east
12 east
18 east
24 east
30 east
36 east
1 left_lower
6 right_lower
31 left_upper
36 right_upper

[Save Nodes]
#NodeNr Level

[Save Elements]
#ElemNr Level

 
