[Info]
Version 1
Dimension 2
NumNodes 88
Num3DElements 0
Num2DElements 70
Num1DElements 0
NumNodeBC 42
NumSaveNodes 0
NumSaveElements 0
Num 2d-line      : 0
Num 2d-line,quad : 0
Num 3d-line      : 0
Num 3d-line,quad : 0
Num triangle     : 0
Num triangle,quad: 0
Num quadr        : 70
Num quadr,quad   : 0
Num tetra        : 0
Num tetra,quad   : 0
Num brick        : 0
Num brick,quad   : 0
Num pyramid      : 0
Num pyramid,quad : 0
Num wedge        : 0
Num wedge,quad   : 0

[Nodes]
#NodeNr x-coord y-coord z-coord
       1  3.0000000000000e+00  2.0000000000000e+00  0.0000000000000e+00 
       2  3.0000000000000e+00  1.7142857142857e+00  0.0000000000000e+00 
       3  2.7000000000000e+00  2.0000000000000e+00  0.0000000000000e+00 
       4  2.7000000000000e+00  1.7142857142857e+00  0.0000000000000e+00 
       5  3.0000000000000e+00  1.4285714285714e+00  0.0000000000000e+00 
       6  2.4000000000000e+00  2.0000000000000e+00  0.0000000000000e+00 
       7  2.7000000000000e+00  1.4285714285714e+00  0.0000000000000e+00 
       8  2.4000000000000e+00  1.7142857142857e+00  0.0000000000000e+00 
       9  2.4000000000000e+00  1.4285714285714e+00  0.0000000000000e+00 
      10  3.0000000000000e+00  1.1428571428571e+00  0.0000000000000e+00 
      11  2.1000000000000e+00  2.0000000000000e+00  0.0000000000000e+00 
      12  2.7000000000000e+00  1.1428571428571e+00  0.0000000000000e+00 
      13  2.1000000000000e+00  1.7142857142857e+00  0.0000000000000e+00 
      14  2.4000000000000e+00  1.1428571428571e+00  0.0000000000000e+00 
      15  2.1000000000000e+00  1.4285714285714e+00  0.0000000000000e+00 
      16  3.0000000000000e+00  8.5714285714286e-01  0.0000000000000e+00 
      17  2.7000000000000e+00  8.5714285714286e-01  0.0000000000000e+00 
      18  1.8000000000000e+00  2.0000000000000e+00  0.0000000000000e+00 
      19  1.8000000000000e+00  1.7142857142857e+00  0.0000000000000e+00 
      20  2.1000000000000e+00  1.1428571428571e+00  0.0000000000000e+00 
      21  2.4000000000000e+00  8.5714285714286e-01  0.0000000000000e+00 
      22  1.8000000000000e+00  1.4285714285714e+00  0.0000000000000e+00 
      23  3.0000000000000e+00  5.7142857142857e-01  0.0000000000000e+00 
      24  2.1000000000000e+00  8.5714285714286e-01  0.0000000000000e+00 
      25  2.7000000000000e+00  5.7142857142857e-01  0.0000000000000e+00 
      26  1.8000000000000e+00  1.1428571428571e+00  0.0000000000000e+00 
      27  1.5000000000000e+00  2.0000000000000e+00  0.0000000000000e+00 
      28  1.5000000000000e+00  1.7142857142857e+00  0.0000000000000e+00 
      29  2.4000000000000e+00  5.7142857142857e-01  0.0000000000000e+00 
      30  1.5000000000000e+00  1.4285714285714e+00  0.0000000000000e+00 
      31  1.8000000000000e+00  8.5714285714286e-01  0.0000000000000e+00 
      32  2.1000000000000e+00  5.7142857142857e-01  0.0000000000000e+00 
      33  3.0000000000000e+00  2.8571428571429e-01  0.0000000000000e+00 
      34  1.5000000000000e+00  1.1428571428571e+00  0.0000000000000e+00 
      35  2.7000000000000e+00  2.8571428571429e-01  0.0000000000000e+00 
      36  1.2000000000000e+00  2.0000000000000e+00  0.0000000000000e+00 
      37  2.4000000000000e+00  2.8571428571429e-01  0.0000000000000e+00 
      38  1.2000000000000e+00  1.7142857142857e+00  0.0000000000000e+00 
      39  1.8000000000000e+00  5.7142857142857e-01  0.0000000000000e+00 
      40  1.5000000000000e+00  8.5714285714286e-01  0.0000000000000e+00 
      41  1.2000000000000e+00  1.4285714285714e+00  0.0000000000000e+00 
      42  2.1000000000000e+00  2.8571428571429e-01  0.0000000000000e+00 
      43  1.2000000000000e+00  1.1428571428571e+00  0.0000000000000e+00 
      44  3.0000000000000e+00  0.0000000000000e+00  0.0000000000000e+00 
      45  2.7000000000000e+00  0.0000000000000e+00  0.0000000000000e+00 
      46  1.5000000000000e+00  5.7142857142857e-01  0.0000000000000e+00 
      47  2.4000000000000e+00  0.0000000000000e+00  0.0000000000000e+00 
      48  1.8000000000000e+00  2.8571428571429e-01  0.0000000000000e+00 
      49  9.0000000000000e-01  2.0000000000000e+00  0.0000000000000e+00 
      50  9.0000000000000e-01  1.7142857142857e+00  0.0000000000000e+00 
      51  1.2000000000000e+00  8.5714285714286e-01  0.0000000000000e+00 
      52  9.0000000000000e-01  1.4285714285714e+00  0.0000000000000e+00 
      53  2.1000000000000e+00  0.0000000000000e+00  0.0000000000000e+00 
      54  9.0000000000000e-01  1.1428571428571e+00  0.0000000000000e+00 
      55  1.5000000000000e+00  2.8571428571429e-01  0.0000000000000e+00 
      56  1.2000000000000e+00  5.7142857142857e-01  0.0000000000000e+00 
      57  1.8000000000000e+00  0.0000000000000e+00  0.0000000000000e+00 
      58  9.0000000000000e-01  8.5714285714286e-01  0.0000000000000e+00 
      59  6.0000000000000e-01  2.0000000000000e+00  0.0000000000000e+00 
      60  6.0000000000000e-01  1.7142857142857e+00  0.0000000000000e+00 
      61  6.0000000000000e-01  1.4285714285714e+00  0.0000000000000e+00 
      62  1.2000000000000e+00  2.8571428571429e-01  0.0000000000000e+00 
      63  1.5000000000000e+00  0.0000000000000e+00  0.0000000000000e+00 
      64  9.0000000000000e-01  5.7142857142857e-01  0.0000000000000e+00 
      65  6.0000000000000e-01  1.1428571428571e+00  0.0000000000000e+00 
      66  6.0000000000000e-01  8.5714285714286e-01  0.0000000000000e+00 
      67  1.2000000000000e+00  0.0000000000000e+00  0.0000000000000e+00 
      68  3.0000000000000e-01  2.0000000000000e+00  0.0000000000000e+00 
      69  9.0000000000000e-01  2.8571428571429e-01  0.0000000000000e+00 
      70  3.0000000000000e-01  1.7142857142857e+00  0.0000000000000e+00 
      71  3.0000000000000e-01  1.4285714285714e+00  0.0000000000000e+00 
      72  6.0000000000000e-01  5.7142857142857e-01  0.0000000000000e+00 
      73  3.0000000000000e-01  1.1428571428571e+00  0.0000000000000e+00 
      74  9.0000000000000e-01  0.0000000000000e+00  0.0000000000000e+00 
      75  3.0000000000000e-01  8.5714285714286e-01  0.0000000000000e+00 
      76  6.0000000000000e-01  2.8571428571429e-01  0.0000000000000e+00 
      77  0.0000000000000e+00  2.0000000000000e+00  0.0000000000000e+00 
      78  0.0000000000000e+00  1.7142857142857e+00  0.0000000000000e+00 
      79  0.0000000000000e+00  1.4285714285714e+00  0.0000000000000e+00 
      80  3.0000000000000e-01  5.7142857142857e-01  0.0000000000000e+00 
      81  0.0000000000000e+00  1.1428571428571e+00  0.0000000000000e+00 
      82  6.0000000000000e-01  0.0000000000000e+00  0.0000000000000e+00 
      83  3.0000000000000e-01  2.8571428571429e-01  0.0000000000000e+00 
      84  0.0000000000000e+00  8.5714285714286e-01  0.0000000000000e+00 
      85  0.0000000000000e+00  5.7142857142857e-01  0.0000000000000e+00 
      86  3.0000000000000e-01  0.0000000000000e+00  0.0000000000000e+00 
      87  0.0000000000000e+00  2.8571428571429e-01  0.0000000000000e+00 
      88  0.0000000000000e+00  0.0000000000000e+00  0.0000000000000e+00 


[1D Elements]
#ElemNr  ElemType  NrOfNodes  Level
#Node1 Node2 ... NodeNrOfNodes

[2D Elements]
#ElemNr  ElemType  NrOfNodes  Level
#Node1 Node2 ... NodeNrOfNodes
1 6 4 mech
86 83 87 88
2 6 4 mech
82 76 83 86
3 6 4 mech
74 69 76 82
4 6 4 mech
67 62 69 74
5 6 4 mech
63 55 62 67
6 6 4 mech
57 48 55 63
7 6 4 mech
53 42 48 57
8 6 4 mech
47 37 42 53
9 6 4 mech
45 35 37 47
10 6 4 mech
44 33 35 45
11 6 4 mech
83 80 85 87
12 6 4 mech
76 72 80 83
13 6 4 mech
69 64 72 76
14 6 4 mech
62 56 64 69
15 6 4 mech
55 46 56 62
16 6 4 mech
48 39 46 55
17 6 4 mech
42 32 39 48
18 6 4 mech
37 29 32 42
19 6 4 mech
35 25 29 37
20 6 4 mech
33 23 25 35
21 6 4 mech
80 75 84 85
22 6 4 mech
72 66 75 80
23 6 4 mech
64 58 66 72
24 6 4 mech
56 51 58 64
25 6 4 mech
46 40 51 56
26 6 4 mech
39 31 40 46
27 6 4 mech
32 24 31 39
28 6 4 mech
29 21 24 32
29 6 4 mech
25 17 21 29
30 6 4 mech
23 16 17 25
31 6 4 mech
75 73 81 84
32 6 4 mech
66 65 73 75
33 6 4 mech
58 54 65 66
34 6 4 mech
51 43 54 58
35 6 4 mech
40 34 43 51
36 6 4 mech
31 26 34 40
37 6 4 mech
24 20 26 31
38 6 4 mech
21 14 20 24
39 6 4 mech
17 12 14 21
40 6 4 mech
16 10 12 17
41 6 4 mech
73 71 79 81
42 6 4 mech
65 61 71 73
43 6 4 mech
54 52 61 65
44 6 4 mech
43 41 52 54
45 6 4 mech
34 30 41 43
46 6 4 mech
26 22 30 34
47 6 4 mech
20 15 22 26
48 6 4 mech
14 9 15 20
49 6 4 mech
12 7 9 14
50 6 4 mech
10 5 7 12
51 6 4 mech
71 70 78 79
52 6 4 mech
61 60 70 71
53 6 4 mech
52 50 60 61
54 6 4 mech
41 38 50 52
55 6 4 mech
30 28 38 41
56 6 4 mech
22 19 28 30
57 6 4 mech
15 13 19 22
58 6 4 mech
9 8 13 15
59 6 4 mech
7 4 8 9
60 6 4 mech
5 2 4 7
61 6 4 mech
70 68 77 78
62 6 4 mech
60 59 68 70
63 6 4 mech
50 49 59 60
64 6 4 mech
38 36 49 50
65 6 4 mech
28 27 36 38
66 6 4 mech
19 18 27 28
67 6 4 mech
13 11 18 19
68 6 4 mech
8 6 11 13
69 6 4 mech
4 3 6 8
70 6 4 mech
2 1 3 4


[3D Elements]
#ElemNr  ElemType  NrOfNodes  Level
#Node1 Node2 ... NodeNrOfNodes

[Node BC]
#NodeNr Level
1 right_upper
44 right_lower
77 left_upper
88 left_lower
1 north
1 east
10 east
11 north
16 east
18 north
2 east
23 east
27 north
3 north
33 east
36 north
44 south
44 east
45 south
47 south
49 north
5 east
53 south
57 south
59 north
6 north
63 south
67 south
68 north
74 south
77 north
77 west
78 west
79 west
81 west
82 south
84 west
85 west
86 south
87 west
88 south
88 west

[Save Nodes]
#NodeNr Level


[Save Elements]
#ElemNr Level

