********************************** N O D E S **********************************
*NODE, NSET=ALLNODES
       1,    5.000000e+01,   -1.000000e+00,    3.000000e+01
       2,    5.000000e+01,    1.000000e+00,    3.000000e+01
       3,    5.000000e+01,    0.000000e+00,    3.000000e+01
       4,    5.000000e+01,    1.000000e+00,   -3.000000e+01
       5,    5.000000e+01,    1.000000e+00,    2.250000e+01
       6,    5.000000e+01,    1.000000e+00,    1.500000e+01
       7,    5.000000e+01,    1.000000e+00,    7.500000e+00
       8,    5.000000e+01,    1.000000e+00,    0.000000e+00
       9,    5.000000e+01,    1.000000e+00,   -7.500000e+00
      10,    5.000000e+01,    1.000000e+00,   -1.500000e+01
      11,    5.000000e+01,    1.000000e+00,   -2.250000e+01
      12,   -5.000000e+01,    1.000000e+00,    3.000000e+01
      13,    3.888889e+01,    1.000000e+00,    3.000000e+01
      14,    2.777778e+01,    1.000000e+00,    3.000000e+01
      15,    1.666667e+01,    1.000000e+00,    3.000000e+01
      16,    5.555556e+00,    1.000000e+00,    3.000000e+01
      17,   -5.555556e+00,    1.000000e+00,    3.000000e+01
      18,   -1.666667e+01,    1.000000e+00,    3.000000e+01
      19,   -2.777778e+01,    1.000000e+00,    3.000000e+01
      20,   -3.888889e+01,    1.000000e+00,    3.000000e+01
      21,   -5.000000e+01,   -1.000000e+00,    3.000000e+01
      22,   -5.000000e+01,    0.000000e+00,    3.000000e+01
      23,   -3.888889e+01,   -1.000000e+00,    3.000000e+01
      24,   -2.777778e+01,   -1.000000e+00,    3.000000e+01
      25,   -1.666667e+01,   -1.000000e+00,    3.000000e+01
      26,   -5.555556e+00,   -1.000000e+00,    3.000000e+01
      27,    5.555556e+00,   -1.000000e+00,    3.000000e+01
      28,    1.666667e+01,   -1.000000e+00,    3.000000e+01
      29,    2.777778e+01,   -1.000000e+00,    3.000000e+01
      30,    3.888889e+01,   -1.000000e+00,    3.000000e+01
      31,    3.888889e+01,    6.938894e-18,    3.000000e+01
      32,    2.777778e+01,    2.775558e-17,    3.000000e+01
      33,    1.666667e+01,    0.000000e+00,    3.000000e+01
      34,    5.555556e+00,    0.000000e+00,    3.000000e+01
      35,   -5.555556e+00,    0.000000e+00,    3.000000e+01
      36,   -1.666667e+01,    0.000000e+00,    3.000000e+01
      37,   -2.777778e+01,    0.000000e+00,    3.000000e+01
      38,   -3.888889e+01,    0.000000e+00,    3.000000e+01
      39,    5.000000e+01,   -1.000000e+00,   -3.000000e+01
      40,    5.000000e+01,    0.000000e+00,   -3.000000e+01
      41,   -5.000000e+01,   -1.000000e+00,   -3.000000e+01
      42,    3.888889e+01,   -1.000000e+00,   -3.000000e+01
      43,    2.777778e+01,   -1.000000e+00,   -3.000000e+01
      44,    1.666667e+01,   -1.000000e+00,   -3.000000e+01
      45,    5.555556e+00,   -1.000000e+00,   -3.000000e+01
      46,   -5.555556e+00,   -1.000000e+00,   -3.000000e+01
      47,   -1.666667e+01,   -1.000000e+00,   -3.000000e+01
      48,   -2.777778e+01,   -1.000000e+00,   -3.000000e+01
      49,   -3.888889e+01,   -1.000000e+00,   -3.000000e+01
      50,   -5.000000e+01,    1.000000e+00,   -3.000000e+01
      51,   -5.000000e+01,    0.000000e+00,   -3.000000e+01
      52,   -3.888889e+01,    1.000000e+00,   -3.000000e+01
      53,   -2.777778e+01,    1.000000e+00,   -3.000000e+01
      54,   -1.666667e+01,    1.000000e+00,   -3.000000e+01
      55,   -5.555556e+00,    1.000000e+00,   -3.000000e+01
      56,    5.555556e+00,    1.000000e+00,   -3.000000e+01
      57,    1.666667e+01,    1.000000e+00,   -3.000000e+01
      58,    2.777778e+01,    1.000000e+00,   -3.000000e+01
      59,    3.888889e+01,    1.000000e+00,   -3.000000e+01
      60,    3.888889e+01,   -6.938894e-18,   -3.000000e+01
      61,    2.777778e+01,   -2.775558e-17,   -3.000000e+01
      62,    1.666667e+01,    0.000000e+00,   -3.000000e+01
      63,    5.555556e+00,    0.000000e+00,   -3.000000e+01
      64,   -5.555556e+00,    0.000000e+00,   -3.000000e+01
      65,   -1.666667e+01,    0.000000e+00,   -3.000000e+01
      66,   -2.777778e+01,    0.000000e+00,   -3.000000e+01
      67,   -3.888889e+01,    0.000000e+00,   -3.000000e+01
      68,   -5.000000e+01,   -1.000000e+00,    2.250000e+01
      69,   -5.000000e+01,   -1.000000e+00,    1.500000e+01
      70,   -5.000000e+01,   -1.000000e+00,    7.500000e+00
      71,   -5.000000e+01,   -1.000000e+00,    0.000000e+00
      72,   -5.000000e+01,   -1.000000e+00,   -7.500000e+00
      73,   -5.000000e+01,   -1.000000e+00,   -1.500000e+01
      74,   -5.000000e+01,   -1.000000e+00,   -2.250000e+01
      75,    5.000000e+01,   -1.000000e+00,    2.250000e+01
      76,    5.000000e+01,   -1.000000e+00,    1.500000e+01
      77,    5.000000e+01,   -1.000000e+00,    7.500000e+00
      78,    5.000000e+01,   -1.000000e+00,    0.000000e+00
      79,    5.000000e+01,   -1.000000e+00,   -7.500000e+00
      80,    5.000000e+01,   -1.000000e+00,   -1.500000e+01
      81,    5.000000e+01,   -1.000000e+00,   -2.250000e+01
      82,   -3.888889e+01,   -1.000000e+00,    2.250000e+01
      83,   -3.888889e+01,   -1.000000e+00,    1.500000e+01
      84,   -3.888889e+01,   -1.000000e+00,    7.500000e+00
      85,   -3.888889e+01,   -1.000000e+00,   -6.661338e-16
      86,   -3.888889e+01,   -1.000000e+00,   -7.500000e+00
      87,   -3.888889e+01,   -1.000000e+00,   -1.500000e+01
      88,   -3.888889e+01,   -1.000000e+00,   -2.250000e+01
      89,   -2.777778e+01,   -1.000000e+00,    2.250000e+01
      90,   -2.777778e+01,   -1.000000e+00,    1.500000e+01
      91,   -2.777778e+01,   -1.000000e+00,    7.500000e+00
      92,   -2.777778e+01,   -1.000000e+00,    0.000000e+00
      93,   -2.777778e+01,   -1.000000e+00,   -7.500000e+00
      94,   -2.777778e+01,   -1.000000e+00,   -1.500000e+01
      95,   -2.777778e+01,   -1.000000e+00,   -2.250000e+01
      96,   -1.666667e+01,   -1.000000e+00,    2.250000e+01
      97,   -1.666667e+01,   -1.000000e+00,    1.500000e+01
      98,   -1.666667e+01,   -1.000000e+00,    7.500000e+00
      99,   -1.666667e+01,   -1.000000e+00,    8.881784e-16
     100,   -1.666667e+01,   -1.000000e+00,   -7.500000e+00
     101,   -1.666667e+01,   -1.000000e+00,   -1.500000e+01
     102,   -1.666667e+01,   -1.000000e+00,   -2.250000e+01
     103,   -5.555556e+00,   -1.000000e+00,    2.250000e+01
     104,   -5.555556e+00,   -1.000000e+00,    1.500000e+01
     105,   -5.555556e+00,   -1.000000e+00,    7.500000e+00
     106,   -5.555556e+00,   -1.000000e+00,    0.000000e+00
     107,   -5.555556e+00,   -1.000000e+00,   -7.500000e+00
     108,   -5.555556e+00,   -1.000000e+00,   -1.500000e+01
     109,   -5.555556e+00,   -1.000000e+00,   -2.250000e+01
     110,    5.555556e+00,   -1.000000e+00,    2.250000e+01
     111,    5.555556e+00,   -1.000000e+00,    1.500000e+01
     112,    5.555556e+00,   -1.000000e+00,    7.500000e+00
     113,    5.555556e+00,   -1.000000e+00,    0.000000e+00
     114,    5.555556e+00,   -1.000000e+00,   -7.500000e+00
     115,    5.555556e+00,   -1.000000e+00,   -1.500000e+01
     116,    5.555556e+00,   -1.000000e+00,   -2.250000e+01
     117,    1.666667e+01,   -1.000000e+00,    2.250000e+01
     118,    1.666667e+01,   -1.000000e+00,    1.500000e+01
     119,    1.666667e+01,   -1.000000e+00,    7.500000e+00
     120,    1.666667e+01,   -1.000000e+00,    0.000000e+00
     121,    1.666667e+01,   -1.000000e+00,   -7.500000e+00
     122,    1.666667e+01,   -1.000000e+00,   -1.500000e+01
     123,    1.666667e+01,   -1.000000e+00,   -2.250000e+01
     124,    2.777778e+01,   -1.000000e+00,    2.250000e+01
     125,    2.777778e+01,   -1.000000e+00,    1.500000e+01
     126,    2.777778e+01,   -1.000000e+00,    7.500000e+00
     127,    2.777778e+01,   -1.000000e+00,    0.000000e+00
     128,    2.777778e+01,   -1.000000e+00,   -7.500000e+00
     129,    2.777778e+01,   -1.000000e+00,   -1.500000e+01
     130,    2.777778e+01,   -1.000000e+00,   -2.250000e+01
     131,    3.888889e+01,   -1.000000e+00,    2.250000e+01
     132,    3.888889e+01,   -1.000000e+00,    1.500000e+01
     133,    3.888889e+01,   -1.000000e+00,    7.500000e+00
     134,    3.888889e+01,   -1.000000e+00,    0.000000e+00
     135,    3.888889e+01,   -1.000000e+00,   -7.500000e+00
     136,    3.888889e+01,   -1.000000e+00,   -1.500000e+01
     137,    3.888889e+01,   -1.000000e+00,   -2.250000e+01
     138,   -5.000000e+01,    1.000000e+00,    2.250000e+01
     139,   -5.000000e+01,    1.000000e+00,    1.500000e+01
     140,   -5.000000e+01,    1.000000e+00,    7.500000e+00
     141,   -5.000000e+01,    1.000000e+00,    0.000000e+00
     142,   -5.000000e+01,    1.000000e+00,   -7.500000e+00
     143,   -5.000000e+01,    1.000000e+00,   -1.500000e+01
     144,   -5.000000e+01,    1.000000e+00,   -2.250000e+01
     145,   -5.000000e+01,    0.000000e+00,    2.250000e+01
     146,   -5.000000e+01,    0.000000e+00,    1.500000e+01
     147,   -5.000000e+01,    0.000000e+00,    7.500000e+00
     148,   -5.000000e+01,    0.000000e+00,    0.000000e+00
     149,   -5.000000e+01,    0.000000e+00,   -7.500000e+00
     150,   -5.000000e+01,    0.000000e+00,   -1.500000e+01
     151,   -5.000000e+01,    0.000000e+00,   -2.250000e+01
     152,    3.888889e+01,    1.000000e+00,    2.250000e+01
     153,    3.888889e+01,    1.000000e+00,    1.500000e+01
     154,    3.888889e+01,    1.000000e+00,    7.500000e+00
     155,    3.888889e+01,    1.000000e+00,   -6.661338e-16
     156,    3.888889e+01,    1.000000e+00,   -7.500000e+00
     157,    3.888889e+01,    1.000000e+00,   -1.500000e+01
     158,    3.888889e+01,    1.000000e+00,   -2.250000e+01
     159,    2.777778e+01,    1.000000e+00,    2.250000e+01
     160,    2.777778e+01,    1.000000e+00,    1.500000e+01
     161,    2.777778e+01,    1.000000e+00,    7.500000e+00
     162,    2.777778e+01,    1.000000e+00,    0.000000e+00
     163,    2.777778e+01,    1.000000e+00,   -7.500000e+00
     164,    2.777778e+01,    1.000000e+00,   -1.500000e+01
     165,    2.777778e+01,    1.000000e+00,   -2.250000e+01
     166,    1.666667e+01,    1.000000e+00,    2.250000e+01
     167,    1.666667e+01,    1.000000e+00,    1.500000e+01
     168,    1.666667e+01,    1.000000e+00,    7.500000e+00
     169,    1.666667e+01,    1.000000e+00,    8.881784e-16
     170,    1.666667e+01,    1.000000e+00,   -7.500000e+00
     171,    1.666667e+01,    1.000000e+00,   -1.500000e+01
     172,    1.666667e+01,    1.000000e+00,   -2.250000e+01
     173,    5.555556e+00,    1.000000e+00,    2.250000e+01
     174,    5.555556e+00,    1.000000e+00,    1.500000e+01
     175,    5.555556e+00,    1.000000e+00,    7.500000e+00
     176,    5.555556e+00,    1.000000e+00,    0.000000e+00
     177,    5.555556e+00,    1.000000e+00,   -7.500000e+00
     178,    5.555556e+00,    1.000000e+00,   -1.500000e+01
     179,    5.555556e+00,    1.000000e+00,   -2.250000e+01
     180,   -5.555556e+00,    1.000000e+00,    2.250000e+01
     181,   -5.555556e+00,    1.000000e+00,    1.500000e+01
     182,   -5.555556e+00,    1.000000e+00,    7.500000e+00
     183,   -5.555556e+00,    1.000000e+00,    0.000000e+00
     184,   -5.555556e+00,    1.000000e+00,   -7.500000e+00
     185,   -5.555556e+00,    1.000000e+00,   -1.500000e+01
     186,   -5.555556e+00,    1.000000e+00,   -2.250000e+01
     187,   -1.666667e+01,    1.000000e+00,    2.250000e+01
     188,   -1.666667e+01,    1.000000e+00,    1.500000e+01
     189,   -1.666667e+01,    1.000000e+00,    7.500000e+00
     190,   -1.666667e+01,    1.000000e+00,    0.000000e+00
     191,   -1.666667e+01,    1.000000e+00,   -7.500000e+00
     192,   -1.666667e+01,    1.000000e+00,   -1.500000e+01
     193,   -1.666667e+01,    1.000000e+00,   -2.250000e+01
     194,   -2.777778e+01,    1.000000e+00,    2.250000e+01
     195,   -2.777778e+01,    1.000000e+00,    1.500000e+01
     196,   -2.777778e+01,    1.000000e+00,    7.500000e+00
     197,   -2.777778e+01,    1.000000e+00,    0.000000e+00
     198,   -2.777778e+01,    1.000000e+00,   -7.500000e+00
     199,   -2.777778e+01,    1.000000e+00,   -1.500000e+01
     200,   -2.777778e+01,    1.000000e+00,   -2.250000e+01
     201,   -3.888889e+01,    1.000000e+00,    2.250000e+01
     202,   -3.888889e+01,    1.000000e+00,    1.500000e+01
     203,   -3.888889e+01,    1.000000e+00,    7.500000e+00
     204,   -3.888889e+01,    1.000000e+00,    0.000000e+00
     205,   -3.888889e+01,    1.000000e+00,   -7.500000e+00
     206,   -3.888889e+01,    1.000000e+00,   -1.500000e+01
     207,   -3.888889e+01,    1.000000e+00,   -2.250000e+01
     208,    5.000000e+01,    0.000000e+00,    2.250000e+01
     209,    5.000000e+01,    0.000000e+00,    1.500000e+01
     210,    5.000000e+01,    0.000000e+00,    7.500000e+00
     211,    5.000000e+01,    0.000000e+00,    0.000000e+00
     212,    5.000000e+01,    0.000000e+00,   -7.500000e+00
     213,    5.000000e+01,    0.000000e+00,   -1.500000e+01
     214,    5.000000e+01,    0.000000e+00,   -2.250000e+01
     215,   -3.888889e+01,    1.734723e-17,    2.250000e+01
     216,   -3.888889e+01,    4.510281e-17,    1.500000e+01
     217,   -3.888889e+01,   -4.163336e-17,    7.500000e+00
     218,   -3.888889e+01,   -1.734723e-17,   -1.110223e-16
     219,   -3.888889e+01,    2.081668e-17,   -7.500000e+00
     220,   -3.888889e+01,    3.469447e-17,   -1.500000e+01
     221,   -3.888889e+01,    0.000000e+00,   -2.250000e+01
     222,   -2.777778e+01,   -1.214306e-17,    2.250000e+01
     223,   -2.777778e+01,    2.081668e-17,    1.500000e+01
     224,   -2.777778e+01,    4.163336e-17,    7.500000e+00
     225,   -2.777778e+01,   -6.938894e-18,    6.661338e-16
     226,   -2.777778e+01,    4.163336e-17,   -7.500000e+00
     227,   -2.777778e+01,   -2.775558e-17,   -1.500000e+01
     228,   -2.777778e+01,    2.775558e-17,   -2.250000e+01
     229,   -1.666667e+01,   -2.775558e-17,    2.250000e+01
     230,   -1.666667e+01,    0.000000e+00,    1.500000e+01
     231,   -1.666667e+01,   -2.775558e-17,    7.500000e+00
     232,   -1.666667e+01,    0.000000e+00,    4.440892e-16
     233,   -1.666667e+01,    1.387779e-17,   -7.500000e+00
     234,   -1.666667e+01,    0.000000e+00,   -1.500000e+01
     235,   -1.666667e+01,   -5.551115e-17,   -2.250000e+01
     236,   -5.555556e+00,    0.000000e+00,    2.250000e+01
     237,   -5.555556e+00,    0.000000e+00,    1.500000e+01
     238,   -5.555556e+00,    0.000000e+00,    7.500000e+00
     239,   -5.555556e+00,    0.000000e+00,    0.000000e+00
     240,   -5.555556e+00,    0.000000e+00,   -7.500000e+00
     241,   -5.555556e+00,    0.000000e+00,   -1.500000e+01
     242,   -5.555556e+00,    0.000000e+00,   -2.250000e+01
     243,    5.555556e+00,    0.000000e+00,    2.250000e+01
     244,    5.555556e+00,    0.000000e+00,    1.500000e+01
     245,    5.555556e+00,    0.000000e+00,    7.500000e+00
     246,    5.555556e+00,    0.000000e+00,    0.000000e+00
     247,    5.555556e+00,    0.000000e+00,   -7.500000e+00
     248,    5.555556e+00,    0.000000e+00,   -1.500000e+01
     249,    5.555556e+00,    0.000000e+00,   -2.250000e+01
     250,    1.666667e+01,    6.938894e-18,    2.250000e+01
     251,    1.666667e+01,    0.000000e+00,    1.500000e+01
     252,    1.666667e+01,    0.000000e+00,    7.500000e+00
     253,    1.666667e+01,    0.000000e+00,    8.881784e-16
     254,    1.666667e+01,    0.000000e+00,   -7.500000e+00
     255,    1.666667e+01,    0.000000e+00,   -1.500000e+01
     256,    1.666667e+01,    0.000000e+00,   -2.250000e+01
     257,    2.777778e+01,   -6.938894e-18,    2.250000e+01
     258,    2.777778e+01,    0.000000e+00,    1.500000e+01
     259,    2.777778e+01,    0.000000e+00,    7.500000e+00
     260,    2.777778e+01,    0.000000e+00,    0.000000e+00
     261,    2.777778e+01,    0.000000e+00,   -7.500000e+00
     262,    2.777778e+01,    0.000000e+00,   -1.500000e+01
     263,    2.777778e+01,   -5.551115e-17,   -2.250000e+01
     264,    3.888889e+01,    0.000000e+00,    2.250000e+01
     265,    3.888889e+01,    0.000000e+00,    1.500000e+01
     266,    3.888889e+01,    5.551115e-17,    7.500000e+00
     267,    3.888889e+01,    0.000000e+00,    0.000000e+00
     268,    3.888889e+01,    0.000000e+00,   -7.500000e+00
     269,    3.888889e+01,    0.000000e+00,   -1.500000e+01
     270,    3.888889e+01,   -5.551115e-17,   -2.250000e+01
     271,    5.000000e+01,   -5.000000e-01,    3.000000e+01
     272,    5.000000e+01,    5.000000e-01,    3.000000e+01
     273,    4.444444e+01,    1.000000e+00,    3.000000e+01
     274,    3.333333e+01,    1.000000e+00,    3.000000e+01
     275,    2.222222e+01,    1.000000e+00,    3.000000e+01
     276,    1.111111e+01,    1.000000e+00,    3.000000e+01
     277,    0.000000e+00,    1.000000e+00,    3.000000e+01
     278,   -1.111111e+01,    1.000000e+00,    3.000000e+01
     279,   -2.222222e+01,    1.000000e+00,    3.000000e+01
     280,   -3.333333e+01,    1.000000e+00,    3.000000e+01
     281,   -4.444444e+01,    1.000000e+00,    3.000000e+01
     282,   -5.000000e+01,    5.000000e-01,    3.000000e+01
     283,   -5.000000e+01,   -5.000000e-01,    3.000000e+01
     284,   -4.444444e+01,   -1.000000e+00,    3.000000e+01
     285,   -3.333333e+01,   -1.000000e+00,    3.000000e+01
     286,   -2.222222e+01,   -1.000000e+00,    3.000000e+01
     287,   -1.111111e+01,   -1.000000e+00,    3.000000e+01
     288,    0.000000e+00,   -1.000000e+00,    3.000000e+01
     289,    1.111111e+01,   -1.000000e+00,    3.000000e+01
     290,    2.222222e+01,   -1.000000e+00,    3.000000e+01
     291,    3.333333e+01,   -1.000000e+00,    3.000000e+01
     292,    4.444444e+01,   -1.000000e+00,    3.000000e+01
     293,    4.444444e+01,    3.469447e-18,    3.000000e+01
     294,    3.888889e+01,   -5.000000e-01,    3.000000e+01
     295,    3.888889e+01,    5.000000e-01,    3.000000e+01
     296,    3.333333e+01,    1.734723e-17,    3.000000e+01
     297,    2.777778e+01,   -5.000000e-01,    3.000000e+01
     298,    2.777778e+01,    5.000000e-01,    3.000000e+01
     299,    2.222222e+01,    1.387779e-17,    3.000000e+01
     300,    1.666667e+01,   -5.000000e-01,    3.000000e+01
     301,    1.666667e+01,    5.000000e-01,    3.000000e+01
     302,    1.111111e+01,    0.000000e+00,    3.000000e+01
     303,    5.555556e+00,   -5.000000e-01,    3.000000e+01
     304,    5.555556e+00,    5.000000e-01,    3.000000e+01
     305,    0.000000e+00,    0.000000e+00,    3.000000e+01
     306,   -5.555556e+00,   -5.000000e-01,    3.000000e+01
     307,   -5.555556e+00,    5.000000e-01,    3.000000e+01
     308,   -1.111111e+01,    0.000000e+00,    3.000000e+01
     309,   -1.666667e+01,   -5.000000e-01,    3.000000e+01
     310,   -1.666667e+01,    5.000000e-01,    3.000000e+01
     311,   -2.222222e+01,    0.000000e+00,    3.000000e+01
     312,   -2.777778e+01,   -5.000000e-01,    3.000000e+01
     313,   -2.777778e+01,    5.000000e-01,    3.000000e+01
     314,   -3.333333e+01,    0.000000e+00,    3.000000e+01
     315,   -3.888889e+01,   -5.000000e-01,    3.000000e+01
     316,   -3.888889e+01,    5.000000e-01,    3.000000e+01
     317,   -4.444444e+01,    0.000000e+00,    3.000000e+01
     318,    5.000000e+01,    5.000000e-01,   -3.000000e+01
     319,    5.000000e+01,   -5.000000e-01,   -3.000000e+01
     320,    4.444444e+01,   -1.000000e+00,   -3.000000e+01
     321,    3.333333e+01,   -1.000000e+00,   -3.000000e+01
     322,    2.222222e+01,   -1.000000e+00,   -3.000000e+01
     323,    1.111111e+01,   -1.000000e+00,   -3.000000e+01
     324,    0.000000e+00,   -1.000000e+00,   -3.000000e+01
     325,   -1.111111e+01,   -1.000000e+00,   -3.000000e+01
     326,   -2.222222e+01,   -1.000000e+00,   -3.000000e+01
     327,   -3.333333e+01,   -1.000000e+00,   -3.000000e+01
     328,   -4.444444e+01,   -1.000000e+00,   -3.000000e+01
     329,   -5.000000e+01,   -5.000000e-01,   -3.000000e+01
     330,   -5.000000e+01,    5.000000e-01,   -3.000000e+01
     331,   -4.444444e+01,    1.000000e+00,   -3.000000e+01
     332,   -3.333333e+01,    1.000000e+00,   -3.000000e+01
     333,   -2.222222e+01,    1.000000e+00,   -3.000000e+01
     334,   -1.111111e+01,    1.000000e+00,   -3.000000e+01
     335,    0.000000e+00,    1.000000e+00,   -3.000000e+01
     336,    1.111111e+01,    1.000000e+00,   -3.000000e+01
     337,    2.222222e+01,    1.000000e+00,   -3.000000e+01
     338,    3.333333e+01,    1.000000e+00,   -3.000000e+01
     339,    4.444444e+01,    1.000000e+00,   -3.000000e+01
     340,    4.444444e+01,   -3.469447e-18,   -3.000000e+01
     341,    3.888889e+01,    5.000000e-01,   -3.000000e+01
     342,    3.888889e+01,   -5.000000e-01,   -3.000000e+01
     343,    3.333333e+01,   -1.734723e-17,   -3.000000e+01
     344,    2.777778e+01,    5.000000e-01,   -3.000000e+01
     345,    2.777778e+01,   -5.000000e-01,   -3.000000e+01
     346,    2.222222e+01,   -1.387779e-17,   -3.000000e+01
     347,    1.666667e+01,    5.000000e-01,   -3.000000e+01
     348,    1.666667e+01,   -5.000000e-01,   -3.000000e+01
     349,    1.111111e+01,    0.000000e+00,   -3.000000e+01
     350,    5.555556e+00,    5.000000e-01,   -3.000000e+01
     351,    5.555556e+00,   -5.000000e-01,   -3.000000e+01
     352,    0.000000e+00,    0.000000e+00,   -3.000000e+01
     353,   -5.555556e+00,    5.000000e-01,   -3.000000e+01
     354,   -5.555556e+00,   -5.000000e-01,   -3.000000e+01
     355,   -1.111111e+01,    0.000000e+00,   -3.000000e+01
     356,   -1.666667e+01,    5.000000e-01,   -3.000000e+01
     357,   -1.666667e+01,   -5.000000e-01,   -3.000000e+01
     358,   -2.222222e+01,    0.000000e+00,   -3.000000e+01
     359,   -2.777778e+01,    5.000000e-01,   -3.000000e+01
     360,   -2.777778e+01,   -5.000000e-01,   -3.000000e+01
     361,   -3.333333e+01,    0.000000e+00,   -3.000000e+01
     362,   -3.888889e+01,    5.000000e-01,   -3.000000e+01
     363,   -3.888889e+01,   -5.000000e-01,   -3.000000e+01
     364,   -4.444444e+01,    0.000000e+00,   -3.000000e+01
     365,   -5.000000e+01,   -1.000000e+00,    2.625000e+01
     366,   -5.000000e+01,   -1.000000e+00,    1.875000e+01
     367,   -5.000000e+01,   -1.000000e+00,    1.125000e+01
     368,   -5.000000e+01,   -1.000000e+00,    3.750000e+00
     369,   -5.000000e+01,   -1.000000e+00,   -3.750000e+00
     370,   -5.000000e+01,   -1.000000e+00,   -1.125000e+01
     371,   -5.000000e+01,   -1.000000e+00,   -1.875000e+01
     372,   -5.000000e+01,   -1.000000e+00,   -2.625000e+01
     373,    5.000000e+01,   -1.000000e+00,    2.625000e+01
     374,    5.000000e+01,   -1.000000e+00,    1.875000e+01
     375,    5.000000e+01,   -1.000000e+00,    1.125000e+01
     376,    5.000000e+01,   -1.000000e+00,    3.750000e+00
     377,    5.000000e+01,   -1.000000e+00,   -3.750000e+00
     378,    5.000000e+01,   -1.000000e+00,   -1.125000e+01
     379,    5.000000e+01,   -1.000000e+00,   -1.875000e+01
     380,    5.000000e+01,   -1.000000e+00,   -2.625000e+01
     381,   -4.444444e+01,   -1.000000e+00,    2.250000e+01
     382,   -3.888889e+01,   -1.000000e+00,    2.625000e+01
     383,   -4.444444e+01,   -1.000000e+00,    1.500000e+01
     384,   -3.888889e+01,   -1.000000e+00,    1.875000e+01
     385,   -4.444444e+01,   -1.000000e+00,    7.500000e+00
     386,   -3.888889e+01,   -1.000000e+00,    1.125000e+01
     387,   -4.444444e+01,   -1.000000e+00,   -3.330669e-16
     388,   -3.888889e+01,   -1.000000e+00,    3.750000e+00
     389,   -4.444444e+01,   -1.000000e+00,   -7.500000e+00
     390,   -3.888889e+01,   -1.000000e+00,   -3.750000e+00
     391,   -4.444444e+01,   -1.000000e+00,   -1.500000e+01
     392,   -3.888889e+01,   -1.000000e+00,   -1.125000e+01
     393,   -4.444444e+01,   -1.000000e+00,   -2.250000e+01
     394,   -3.888889e+01,   -1.000000e+00,   -1.875000e+01
     395,   -3.888889e+01,   -1.000000e+00,   -2.625000e+01
     396,   -3.333333e+01,   -1.000000e+00,    2.250000e+01
     397,   -2.777778e+01,   -1.000000e+00,    2.625000e+01
     398,   -3.333333e+01,   -1.000000e+00,    1.500000e+01
     399,   -2.777778e+01,   -1.000000e+00,    1.875000e+01
     400,   -3.333333e+01,   -1.000000e+00,    7.500000e+00
     401,   -2.777778e+01,   -1.000000e+00,    1.125000e+01
     402,   -3.333333e+01,   -1.000000e+00,   -3.330669e-16
     403,   -2.777778e+01,   -1.000000e+00,    3.750000e+00
     404,   -3.333333e+01,   -1.000000e+00,   -7.500000e+00
     405,   -2.777778e+01,   -1.000000e+00,   -3.750000e+00
     406,   -3.333333e+01,   -1.000000e+00,   -1.500000e+01
     407,   -2.777778e+01,   -1.000000e+00,   -1.125000e+01
     408,   -3.333333e+01,   -1.000000e+00,   -2.250000e+01
     409,   -2.777778e+01,   -1.000000e+00,   -1.875000e+01
     410,   -2.777778e+01,   -1.000000e+00,   -2.625000e+01
     411,   -2.222222e+01,   -1.000000e+00,    2.250000e+01
     412,   -1.666667e+01,   -1.000000e+00,    2.625000e+01
     413,   -2.222222e+01,   -1.000000e+00,    1.500000e+01
     414,   -1.666667e+01,   -1.000000e+00,    1.875000e+01
     415,   -2.222222e+01,   -1.000000e+00,    7.500000e+00
     416,   -1.666667e+01,   -1.000000e+00,    1.125000e+01
     417,   -2.222222e+01,   -1.000000e+00,    4.440892e-16
     418,   -1.666667e+01,   -1.000000e+00,    3.750000e+00
     419,   -2.222222e+01,   -1.000000e+00,   -7.500000e+00
     420,   -1.666667e+01,   -1.000000e+00,   -3.750000e+00
     421,   -2.222222e+01,   -1.000000e+00,   -1.500000e+01
     422,   -1.666667e+01,   -1.000000e+00,   -1.125000e+01
     423,   -2.222222e+01,   -1.000000e+00,   -2.250000e+01
     424,   -1.666667e+01,   -1.000000e+00,   -1.875000e+01
     425,   -1.666667e+01,   -1.000000e+00,   -2.625000e+01
     426,   -1.111111e+01,   -1.000000e+00,    2.250000e+01
     427,   -5.555556e+00,   -1.000000e+00,    2.625000e+01
     428,   -1.111111e+01,   -1.000000e+00,    1.500000e+01
     429,   -5.555556e+00,   -1.000000e+00,    1.875000e+01
     430,   -1.111111e+01,   -1.000000e+00,    7.500000e+00
     431,   -5.555556e+00,   -1.000000e+00,    1.125000e+01
     432,   -1.111111e+01,   -1.000000e+00,    4.440892e-16
     433,   -5.555556e+00,   -1.000000e+00,    3.750000e+00
     434,   -1.111111e+01,   -1.000000e+00,   -7.500000e+00
     435,   -5.555556e+00,   -1.000000e+00,   -3.750000e+00
     436,   -1.111111e+01,   -1.000000e+00,   -1.500000e+01
     437,   -5.555556e+00,   -1.000000e+00,   -1.125000e+01
     438,   -1.111111e+01,   -1.000000e+00,   -2.250000e+01
     439,   -5.555556e+00,   -1.000000e+00,   -1.875000e+01
     440,   -5.555556e+00,   -1.000000e+00,   -2.625000e+01
     441,    4.440892e-16,   -1.000000e+00,    2.250000e+01
     442,    5.555556e+00,   -1.000000e+00,    2.625000e+01
     443,    0.000000e+00,   -1.000000e+00,    1.500000e+01
     444,    5.555556e+00,   -1.000000e+00,    1.875000e+01
     445,    0.000000e+00,   -1.000000e+00,    7.500000e+00
     446,    5.555556e+00,   -1.000000e+00,    1.125000e+01
     447,    0.000000e+00,   -1.000000e+00,    0.000000e+00
     448,    5.555556e+00,   -1.000000e+00,    3.750000e+00
     449,    0.000000e+00,   -1.000000e+00,   -7.500000e+00
     450,    5.555556e+00,   -1.000000e+00,   -3.750000e+00
     451,    1.776357e-15,   -1.000000e+00,   -1.500000e+01
     452,    5.555556e+00,   -1.000000e+00,   -1.125000e+01
     453,    8.881784e-16,   -1.000000e+00,   -2.250000e+01
     454,    5.555556e+00,   -1.000000e+00,   -1.875000e+01
     455,    5.555556e+00,   -1.000000e+00,   -2.625000e+01
     456,    1.111111e+01,   -1.000000e+00,    2.250000e+01
     457,    1.666667e+01,   -1.000000e+00,    2.625000e+01
     458,    1.111111e+01,   -1.000000e+00,    1.500000e+01
     459,    1.666667e+01,   -1.000000e+00,    1.875000e+01
     460,    1.111111e+01,   -1.000000e+00,    7.500000e+00
     461,    1.666667e+01,   -1.000000e+00,    1.125000e+01
     462,    1.111111e+01,   -1.000000e+00,    0.000000e+00
     463,    1.666667e+01,   -1.000000e+00,    3.750000e+00
     464,    1.111111e+01,   -1.000000e+00,   -7.500000e+00
     465,    1.666667e+01,   -1.000000e+00,   -3.750000e+00
     466,    1.111111e+01,   -1.000000e+00,   -1.500000e+01
     467,    1.666667e+01,   -1.000000e+00,   -1.125000e+01
     468,    1.111111e+01,   -1.000000e+00,   -2.250000e+01
     469,    1.666667e+01,   -1.000000e+00,   -1.875000e+01
     470,    1.666667e+01,   -1.000000e+00,   -2.625000e+01
     471,    2.222222e+01,   -1.000000e+00,    2.250000e+01
     472,    2.777778e+01,   -1.000000e+00,    2.625000e+01
     473,    2.222222e+01,   -1.000000e+00,    1.500000e+01
     474,    2.777778e+01,   -1.000000e+00,    1.875000e+01
     475,    2.222222e+01,   -1.000000e+00,    7.500000e+00
     476,    2.777778e+01,   -1.000000e+00,    1.125000e+01
     477,    2.222222e+01,   -1.000000e+00,    0.000000e+00
     478,    2.777778e+01,   -1.000000e+00,    3.750000e+00
     479,    2.222222e+01,   -1.000000e+00,   -7.500000e+00
     480,    2.777778e+01,   -1.000000e+00,   -3.750000e+00
     481,    2.222222e+01,   -1.000000e+00,   -1.500000e+01
     482,    2.777778e+01,   -1.000000e+00,   -1.125000e+01
     483,    2.222222e+01,   -1.000000e+00,   -2.250000e+01
     484,    2.777778e+01,   -1.000000e+00,   -1.875000e+01
     485,    2.777778e+01,   -1.000000e+00,   -2.625000e+01
     486,    3.333333e+01,   -1.000000e+00,    2.250000e+01
     487,    3.888889e+01,   -1.000000e+00,    2.625000e+01
     488,    3.333333e+01,   -1.000000e+00,    1.500000e+01
     489,    3.888889e+01,   -1.000000e+00,    1.875000e+01
     490,    3.333333e+01,   -1.000000e+00,    7.500000e+00
     491,    3.888889e+01,   -1.000000e+00,    1.125000e+01
     492,    3.333333e+01,   -1.000000e+00,    0.000000e+00
     493,    3.888889e+01,   -1.000000e+00,    3.750000e+00
     494,    3.333333e+01,   -1.000000e+00,   -7.500000e+00
     495,    3.888889e+01,   -1.000000e+00,   -3.750000e+00
     496,    3.333333e+01,   -1.000000e+00,   -1.500000e+01
     497,    3.888889e+01,   -1.000000e+00,   -1.125000e+01
     498,    3.333333e+01,   -1.000000e+00,   -2.250000e+01
     499,    3.888889e+01,   -1.000000e+00,   -1.875000e+01
     500,    3.888889e+01,   -1.000000e+00,   -2.625000e+01
     501,    4.444444e+01,   -1.000000e+00,    2.250000e+01
     502,    4.444444e+01,   -1.000000e+00,    1.500000e+01
     503,    4.444444e+01,   -1.000000e+00,    7.500000e+00
     504,    4.444444e+01,   -1.000000e+00,    0.000000e+00
     505,    4.444444e+01,   -1.000000e+00,   -7.500000e+00
     506,    4.444444e+01,   -1.000000e+00,   -1.500000e+01
     507,    4.444444e+01,   -1.000000e+00,   -2.250000e+01
     508,   -5.000000e+01,    1.000000e+00,    2.625000e+01
     509,   -5.000000e+01,    1.000000e+00,    1.875000e+01
     510,   -5.000000e+01,    1.000000e+00,    1.125000e+01
     511,   -5.000000e+01,    1.000000e+00,    3.750000e+00
     512,   -5.000000e+01,    1.000000e+00,   -3.750000e+00
     513,   -5.000000e+01,    1.000000e+00,   -1.125000e+01
     514,   -5.000000e+01,    1.000000e+00,   -1.875000e+01
     515,   -5.000000e+01,    1.000000e+00,   -2.625000e+01
     516,   -5.000000e+01,    5.000000e-01,    2.250000e+01
     517,   -5.000000e+01,    0.000000e+00,    2.625000e+01
     518,   -5.000000e+01,    5.000000e-01,    1.500000e+01
     519,   -5.000000e+01,    0.000000e+00,    1.875000e+01
     520,   -5.000000e+01,    5.000000e-01,    7.500000e+00
     521,   -5.000000e+01,    0.000000e+00,    1.125000e+01
     522,   -5.000000e+01,    5.000000e-01,    0.000000e+00
     523,   -5.000000e+01,    0.000000e+00,    3.750000e+00
     524,   -5.000000e+01,    5.000000e-01,   -7.500000e+00
     525,   -5.000000e+01,    0.000000e+00,   -3.750000e+00
     526,   -5.000000e+01,    5.000000e-01,   -1.500000e+01
     527,   -5.000000e+01,    0.000000e+00,   -1.125000e+01
     528,   -5.000000e+01,    5.000000e-01,   -2.250000e+01
     529,   -5.000000e+01,    0.000000e+00,   -1.875000e+01
     530,   -5.000000e+01,    0.000000e+00,   -2.625000e+01
     531,   -5.000000e+01,   -5.000000e-01,    2.250000e+01
     532,   -5.000000e+01,   -5.000000e-01,    1.500000e+01
     533,   -5.000000e+01,   -5.000000e-01,    7.500000e+00
     534,   -5.000000e+01,   -5.000000e-01,    0.000000e+00
     535,   -5.000000e+01,   -5.000000e-01,   -7.500000e+00
     536,   -5.000000e+01,   -5.000000e-01,   -1.500000e+01
     537,   -5.000000e+01,   -5.000000e-01,   -2.250000e+01
     538,    5.000000e+01,    1.000000e+00,    2.625000e+01
     539,    5.000000e+01,    1.000000e+00,    1.875000e+01
     540,    5.000000e+01,    1.000000e+00,    1.125000e+01
     541,    5.000000e+01,    1.000000e+00,    3.750000e+00
     542,    5.000000e+01,    1.000000e+00,   -3.750000e+00
     543,    5.000000e+01,    1.000000e+00,   -1.125000e+01
     544,    5.000000e+01,    1.000000e+00,   -1.875000e+01
     545,    5.000000e+01,    1.000000e+00,   -2.625000e+01
     546,    4.444444e+01,    1.000000e+00,    2.250000e+01
     547,    3.888889e+01,    1.000000e+00,    2.625000e+01
     548,    4.444444e+01,    1.000000e+00,    1.500000e+01
     549,    3.888889e+01,    1.000000e+00,    1.875000e+01
     550,    4.444444e+01,    1.000000e+00,    7.500000e+00
     551,    3.888889e+01,    1.000000e+00,    1.125000e+01
     552,    4.444444e+01,    1.000000e+00,   -3.330669e-16
     553,    3.888889e+01,    1.000000e+00,    3.750000e+00
     554,    4.444444e+01,    1.000000e+00,   -7.500000e+00
     555,    3.888889e+01,    1.000000e+00,   -3.750000e+00
     556,    4.444444e+01,    1.000000e+00,   -1.500000e+01
     557,    3.888889e+01,    1.000000e+00,   -1.125000e+01
     558,    4.444444e+01,    1.000000e+00,   -2.250000e+01
     559,    3.888889e+01,    1.000000e+00,   -1.875000e+01
     560,    3.888889e+01,    1.000000e+00,   -2.625000e+01
     561,    3.333333e+01,    1.000000e+00,    2.250000e+01
     562,    2.777778e+01,    1.000000e+00,    2.625000e+01
     563,    3.333333e+01,    1.000000e+00,    1.500000e+01
     564,    2.777778e+01,    1.000000e+00,    1.875000e+01
     565,    3.333333e+01,    1.000000e+00,    7.500000e+00
     566,    2.777778e+01,    1.000000e+00,    1.125000e+01
     567,    3.333333e+01,    1.000000e+00,   -3.330669e-16
     568,    2.777778e+01,    1.000000e+00,    3.750000e+00
     569,    3.333333e+01,    1.000000e+00,   -7.500000e+00
     570,    2.777778e+01,    1.000000e+00,   -3.750000e+00
     571,    3.333333e+01,    1.000000e+00,   -1.500000e+01
     572,    2.777778e+01,    1.000000e+00,   -1.125000e+01
     573,    3.333333e+01,    1.000000e+00,   -2.250000e+01
     574,    2.777778e+01,    1.000000e+00,   -1.875000e+01
     575,    2.777778e+01,    1.000000e+00,   -2.625000e+01
     576,    2.222222e+01,    1.000000e+00,    2.250000e+01
     577,    1.666667e+01,    1.000000e+00,    2.625000e+01
     578,    2.222222e+01,    1.000000e+00,    1.500000e+01
     579,    1.666667e+01,    1.000000e+00,    1.875000e+01
     580,    2.222222e+01,    1.000000e+00,    7.500000e+00
     581,    1.666667e+01,    1.000000e+00,    1.125000e+01
     582,    2.222222e+01,    1.000000e+00,    4.440892e-16
     583,    1.666667e+01,    1.000000e+00,    3.750000e+00
     584,    2.222222e+01,    1.000000e+00,   -7.500000e+00
     585,    1.666667e+01,    1.000000e+00,   -3.750000e+00
     586,    2.222222e+01,    1.000000e+00,   -1.500000e+01
     587,    1.666667e+01,    1.000000e+00,   -1.125000e+01
     588,    2.222222e+01,    1.000000e+00,   -2.250000e+01
     589,    1.666667e+01,    1.000000e+00,   -1.875000e+01
     590,    1.666667e+01,    1.000000e+00,   -2.625000e+01
     591,    1.111111e+01,    1.000000e+00,    2.250000e+01
     592,    5.555556e+00,    1.000000e+00,    2.625000e+01
     593,    1.111111e+01,    1.000000e+00,    1.500000e+01
     594,    5.555556e+00,    1.000000e+00,    1.875000e+01
     595,    1.111111e+01,    1.000000e+00,    7.500000e+00
     596,    5.555556e+00,    1.000000e+00,    1.125000e+01
     597,    1.111111e+01,    1.000000e+00,    4.440892e-16
     598,    5.555556e+00,    1.000000e+00,    3.750000e+00
     599,    1.111111e+01,    1.000000e+00,   -7.500000e+00
     600,    5.555556e+00,    1.000000e+00,   -3.750000e+00
     601,    1.111111e+01,    1.000000e+00,   -1.500000e+01
     602,    5.555556e+00,    1.000000e+00,   -1.125000e+01
     603,    1.111111e+01,    1.000000e+00,   -2.250000e+01
     604,    5.555556e+00,    1.000000e+00,   -1.875000e+01
     605,    5.555556e+00,    1.000000e+00,   -2.625000e+01
     606,   -4.440892e-16,    1.000000e+00,    2.250000e+01
     607,   -5.555556e+00,    1.000000e+00,    2.625000e+01
     608,    0.000000e+00,    1.000000e+00,    1.500000e+01
     609,   -5.555556e+00,    1.000000e+00,    1.875000e+01
     610,    0.000000e+00,    1.000000e+00,    7.500000e+00
     611,   -5.555556e+00,    1.000000e+00,    1.125000e+01
     612,    0.000000e+00,    1.000000e+00,    0.000000e+00
     613,   -5.555556e+00,    1.000000e+00,    3.750000e+00
     614,    0.000000e+00,    1.000000e+00,   -7.500000e+00
     615,   -5.555556e+00,    1.000000e+00,   -3.750000e+00
     616,   -1.776357e-15,    1.000000e+00,   -1.500000e+01
     617,   -5.555556e+00,    1.000000e+00,   -1.125000e+01
     618,   -8.881784e-16,    1.000000e+00,   -2.250000e+01
     619,   -5.555556e+00,    1.000000e+00,   -1.875000e+01
     620,   -5.555556e+00,    1.000000e+00,   -2.625000e+01
     621,   -1.111111e+01,    1.000000e+00,    2.250000e+01
     622,   -1.666667e+01,    1.000000e+00,    2.625000e+01
     623,   -1.111111e+01,    1.000000e+00,    1.500000e+01
     624,   -1.666667e+01,    1.000000e+00,    1.875000e+01
     625,   -1.111111e+01,    1.000000e+00,    7.500000e+00
     626,   -1.666667e+01,    1.000000e+00,    1.125000e+01
     627,   -1.111111e+01,    1.000000e+00,    0.000000e+00
     628,   -1.666667e+01,    1.000000e+00,    3.750000e+00
     629,   -1.111111e+01,    1.000000e+00,   -7.500000e+00
     630,   -1.666667e+01,    1.000000e+00,   -3.750000e+00
     631,   -1.111111e+01,    1.000000e+00,   -1.500000e+01
     632,   -1.666667e+01,    1.000000e+00,   -1.125000e+01
     633,   -1.111111e+01,    1.000000e+00,   -2.250000e+01
     634,   -1.666667e+01,    1.000000e+00,   -1.875000e+01
     635,   -1.666667e+01,    1.000000e+00,   -2.625000e+01
     636,   -2.222222e+01,    1.000000e+00,    2.250000e+01
     637,   -2.777778e+01,    1.000000e+00,    2.625000e+01
     638,   -2.222222e+01,    1.000000e+00,    1.500000e+01
     639,   -2.777778e+01,    1.000000e+00,    1.875000e+01
     640,   -2.222222e+01,    1.000000e+00,    7.500000e+00
     641,   -2.777778e+01,    1.000000e+00,    1.125000e+01
     642,   -2.222222e+01,    1.000000e+00,    0.000000e+00
     643,   -2.777778e+01,    1.000000e+00,    3.750000e+00
     644,   -2.222222e+01,    1.000000e+00,   -7.500000e+00
     645,   -2.777778e+01,    1.000000e+00,   -3.750000e+00
     646,   -2.222222e+01,    1.000000e+00,   -1.500000e+01
     647,   -2.777778e+01,    1.000000e+00,   -1.125000e+01
     648,   -2.222222e+01,    1.000000e+00,   -2.250000e+01
     649,   -2.777778e+01,    1.000000e+00,   -1.875000e+01
     650,   -2.777778e+01,    1.000000e+00,   -2.625000e+01
     651,   -3.333333e+01,    1.000000e+00,    2.250000e+01
     652,   -3.888889e+01,    1.000000e+00,    2.625000e+01
     653,   -3.333333e+01,    1.000000e+00,    1.500000e+01
     654,   -3.888889e+01,    1.000000e+00,    1.875000e+01
     655,   -3.333333e+01,    1.000000e+00,    7.500000e+00
     656,   -3.888889e+01,    1.000000e+00,    1.125000e+01
     657,   -3.333333e+01,    1.000000e+00,    0.000000e+00
     658,   -3.888889e+01,    1.000000e+00,    3.750000e+00
     659,   -3.333333e+01,    1.000000e+00,   -7.500000e+00
     660,   -3.888889e+01,    1.000000e+00,   -3.750000e+00
     661,   -3.333333e+01,    1.000000e+00,   -1.500000e+01
     662,   -3.888889e+01,    1.000000e+00,   -1.125000e+01
     663,   -3.333333e+01,    1.000000e+00,   -2.250000e+01
     664,   -3.888889e+01,    1.000000e+00,   -1.875000e+01
     665,   -3.888889e+01,    1.000000e+00,   -2.625000e+01
     666,   -4.444444e+01,    1.000000e+00,    2.250000e+01
     667,   -4.444444e+01,    1.000000e+00,    1.500000e+01
     668,   -4.444444e+01,    1.000000e+00,    7.500000e+00
     669,   -4.444444e+01,    1.000000e+00,    0.000000e+00
     670,   -4.444444e+01,    1.000000e+00,   -7.500000e+00
     671,   -4.444444e+01,    1.000000e+00,   -1.500000e+01
     672,   -4.444444e+01,    1.000000e+00,   -2.250000e+01
     673,    5.000000e+01,   -5.000000e-01,    2.250000e+01
     674,    5.000000e+01,    0.000000e+00,    2.625000e+01
     675,    5.000000e+01,   -5.000000e-01,    1.500000e+01
     676,    5.000000e+01,    0.000000e+00,    1.875000e+01
     677,    5.000000e+01,   -5.000000e-01,    7.500000e+00
     678,    5.000000e+01,    0.000000e+00,    1.125000e+01
     679,    5.000000e+01,   -5.000000e-01,    0.000000e+00
     680,    5.000000e+01,    0.000000e+00,    3.750000e+00
     681,    5.000000e+01,   -5.000000e-01,   -7.500000e+00
     682,    5.000000e+01,    0.000000e+00,   -3.750000e+00
     683,    5.000000e+01,   -5.000000e-01,   -1.500000e+01
     684,    5.000000e+01,    0.000000e+00,   -1.125000e+01
     685,    5.000000e+01,   -5.000000e-01,   -2.250000e+01
     686,    5.000000e+01,    0.000000e+00,   -1.875000e+01
     687,    5.000000e+01,    0.000000e+00,   -2.625000e+01
     688,    5.000000e+01,    5.000000e-01,    2.250000e+01
     689,    5.000000e+01,    5.000000e-01,    1.500000e+01
     690,    5.000000e+01,    5.000000e-01,    7.500000e+00
     691,    5.000000e+01,    5.000000e-01,    0.000000e+00
     692,    5.000000e+01,    5.000000e-01,   -7.500000e+00
     693,    5.000000e+01,    5.000000e-01,   -1.500000e+01
     694,    5.000000e+01,    5.000000e-01,   -2.250000e+01
     695,   -4.444444e+01,    8.673617e-18,    2.250000e+01
     696,   -3.888889e+01,   -5.000000e-01,    2.250000e+01
     697,   -3.888889e+01,    8.673617e-18,    2.625000e+01
     698,   -4.444444e+01,    2.255141e-17,    1.500000e+01
     699,   -3.888889e+01,   -5.000000e-01,    1.500000e+01
     700,   -3.888889e+01,    3.122502e-17,    1.875000e+01
     701,   -4.444444e+01,   -2.081668e-17,    7.500000e+00
     702,   -3.888889e+01,   -5.000000e-01,    7.500000e+00
     703,   -3.888889e+01,    1.734723e-18,    1.125000e+01
     704,   -4.444444e+01,   -8.673617e-18,   -5.551115e-17
     705,   -3.888889e+01,   -5.000000e-01,   -3.885781e-16
     706,   -3.888889e+01,   -2.949030e-17,    3.750000e+00
     707,   -4.444444e+01,    1.040834e-17,   -7.500000e+00
     708,   -3.888889e+01,   -5.000000e-01,   -7.500000e+00
     709,   -3.888889e+01,    1.734723e-18,   -3.750000e+00
     710,   -4.444444e+01,    1.734723e-17,   -1.500000e+01
     711,   -3.888889e+01,   -5.000000e-01,   -1.500000e+01
     712,   -3.888889e+01,    2.775558e-17,   -1.125000e+01
     713,   -4.444444e+01,    0.000000e+00,   -2.250000e+01
     714,   -3.888889e+01,   -5.000000e-01,   -2.250000e+01
     715,   -3.888889e+01,    1.734723e-17,   -1.875000e+01
     716,   -3.888889e+01,    0.000000e+00,   -2.625000e+01
     717,   -3.888889e+01,    5.000000e-01,    2.250000e+01
     718,   -3.888889e+01,    5.000000e-01,    1.500000e+01
     719,   -3.888889e+01,    5.000000e-01,    7.500000e+00
     720,   -3.888889e+01,    5.000000e-01,   -5.551115e-17
     721,   -3.888889e+01,    5.000000e-01,   -7.500000e+00
     722,   -3.888889e+01,    5.000000e-01,   -1.500000e+01
     723,   -3.888889e+01,    5.000000e-01,   -2.250000e+01
     724,   -3.333333e+01,    2.602085e-18,    2.250000e+01
     725,   -2.777778e+01,   -5.000000e-01,    2.250000e+01
     726,   -2.777778e+01,   -6.071532e-18,    2.625000e+01
     727,   -3.333333e+01,    3.295975e-17,    1.500000e+01
     728,   -2.777778e+01,   -5.000000e-01,    1.500000e+01
     729,   -2.777778e+01,    4.336809e-18,    1.875000e+01
     730,   -3.333333e+01,    0.000000e+00,    7.500000e+00
     731,   -2.777778e+01,   -5.000000e-01,    7.500000e+00
     732,   -2.777778e+01,    3.122502e-17,    1.125000e+01
     733,   -3.333333e+01,   -1.214306e-17,    2.775558e-16
     734,   -2.777778e+01,   -5.000000e-01,    3.330669e-16
     735,   -2.777778e+01,    1.734723e-17,    3.750000e+00
     736,   -3.333333e+01,    3.122502e-17,   -7.500000e+00
     737,   -2.777778e+01,   -5.000000e-01,   -7.500000e+00
     738,   -2.777778e+01,    1.734723e-17,   -3.750000e+00
     739,   -3.333333e+01,    3.469447e-18,   -1.500000e+01
     740,   -2.777778e+01,   -5.000000e-01,   -1.500000e+01
     741,   -2.777778e+01,    6.938894e-18,   -1.125000e+01
     742,   -3.333333e+01,    1.387779e-17,   -2.250000e+01
     743,   -2.777778e+01,   -5.000000e-01,   -2.250000e+01
     744,   -2.777778e+01,    0.000000e+00,   -1.875000e+01
     745,   -2.777778e+01,    1.387779e-17,   -2.625000e+01
     746,   -2.777778e+01,    5.000000e-01,    2.250000e+01
     747,   -2.777778e+01,    5.000000e-01,    1.500000e+01
     748,   -2.777778e+01,    5.000000e-01,    7.500000e+00
     749,   -2.777778e+01,    5.000000e-01,    3.330669e-16
     750,   -2.777778e+01,    5.000000e-01,   -7.500000e+00
     751,   -2.777778e+01,    5.000000e-01,   -1.500000e+01
     752,   -2.777778e+01,    5.000000e-01,   -2.250000e+01
     753,   -2.222222e+01,   -1.994932e-17,    2.250000e+01
     754,   -1.666667e+01,   -5.000000e-01,    2.250000e+01
     755,   -1.666667e+01,   -1.387779e-17,    2.625000e+01
     756,   -2.222222e+01,    1.040834e-17,    1.500000e+01
     757,   -1.666667e+01,   -5.000000e-01,    1.500000e+01
     758,   -1.666667e+01,   -1.387779e-17,    1.875000e+01
     759,   -2.222222e+01,    6.938894e-18,    7.500000e+00
     760,   -1.666667e+01,   -5.000000e-01,    7.500000e+00
     761,   -1.666667e+01,   -1.387779e-17,    1.125000e+01
     762,   -2.222222e+01,   -3.469447e-18,    5.551115e-16
     763,   -1.666667e+01,   -5.000000e-01,    6.661338e-16
     764,   -1.666667e+01,   -1.387779e-17,    3.750000e+00
     765,   -2.222222e+01,    2.775558e-17,   -7.500000e+00
     766,   -1.666667e+01,   -5.000000e-01,   -7.500000e+00
     767,   -1.666667e+01,    6.938894e-18,   -3.750000e+00
     768,   -2.222222e+01,   -1.387779e-17,   -1.500000e+01
     769,   -1.666667e+01,   -5.000000e-01,   -1.500000e+01
     770,   -1.666667e+01,    6.938894e-18,   -1.125000e+01
     771,   -2.222222e+01,   -1.387779e-17,   -2.250000e+01
     772,   -1.666667e+01,   -5.000000e-01,   -2.250000e+01
     773,   -1.666667e+01,   -2.775558e-17,   -1.875000e+01
     774,   -1.666667e+01,   -2.775558e-17,   -2.625000e+01
     775,   -1.666667e+01,    5.000000e-01,    2.250000e+01
     776,   -1.666667e+01,    5.000000e-01,    1.500000e+01
     777,   -1.666667e+01,    5.000000e-01,    7.500000e+00
     778,   -1.666667e+01,    5.000000e-01,    2.220446e-16
     779,   -1.666667e+01,    5.000000e-01,   -7.500000e+00
     780,   -1.666667e+01,    5.000000e-01,   -1.500000e+01
     781,   -1.666667e+01,    5.000000e-01,   -2.250000e+01
     782,   -1.111111e+01,   -1.387779e-17,    2.250000e+01
     783,   -5.555556e+00,   -5.000000e-01,    2.250000e+01
     784,   -5.555556e+00,    0.000000e+00,    2.625000e+01
     785,   -1.111111e+01,    0.000000e+00,    1.500000e+01
     786,   -5.555556e+00,   -5.000000e-01,    1.500000e+01
     787,   -5.555556e+00,    0.000000e+00,    1.875000e+01
     788,   -1.111111e+01,   -1.387779e-17,    7.500000e+00
     789,   -5.555556e+00,   -5.000000e-01,    7.500000e+00
     790,   -5.555556e+00,    0.000000e+00,    1.125000e+01
     791,   -1.111111e+01,    0.000000e+00,    2.220446e-16
     792,   -5.555556e+00,   -5.000000e-01,    0.000000e+00
     793,   -5.555556e+00,    0.000000e+00,    3.750000e+00
     794,   -1.111111e+01,    6.938894e-18,   -7.500000e+00
     795,   -5.555556e+00,   -5.000000e-01,   -7.500000e+00
     796,   -5.555556e+00,    0.000000e+00,   -3.750000e+00
     797,   -1.111111e+01,    0.000000e+00,   -1.500000e+01
     798,   -5.555556e+00,   -5.000000e-01,   -1.500000e+01
     799,   -5.555556e+00,    0.000000e+00,   -1.125000e+01
     800,   -1.111111e+01,   -2.775558e-17,   -2.250000e+01
     801,   -5.555556e+00,   -5.000000e-01,   -2.250000e+01
     802,   -5.555556e+00,    0.000000e+00,   -1.875000e+01
     803,   -5.555556e+00,    0.000000e+00,   -2.625000e+01
     804,   -5.555556e+00,    5.000000e-01,    2.250000e+01
     805,   -5.555556e+00,    5.000000e-01,    1.500000e+01
     806,   -5.555556e+00,    5.000000e-01,    7.500000e+00
     807,   -5.555556e+00,    5.000000e-01,    0.000000e+00
     808,   -5.555556e+00,    5.000000e-01,   -7.500000e+00
     809,   -5.555556e+00,    5.000000e-01,   -1.500000e+01
     810,   -5.555556e+00,    5.000000e-01,   -2.250000e+01
     811,    8.881784e-16,    0.000000e+00,    2.250000e+01
     812,    5.555556e+00,   -5.000000e-01,    2.250000e+01
     813,    5.555556e+00,    0.000000e+00,    2.625000e+01
     814,    4.440892e-16,    0.000000e+00,    1.500000e+01
     815,    5.555556e+00,   -5.000000e-01,    1.500000e+01
     816,    5.555556e+00,    0.000000e+00,    1.875000e+01
     817,   -1.332268e-15,    0.000000e+00,    7.500000e+00
     818,    5.555556e+00,   -5.000000e-01,    7.500000e+00
     819,    5.555556e+00,    0.000000e+00,    1.125000e+01
     820,    0.000000e+00,    0.000000e+00,    0.000000e+00
     821,    5.555556e+00,   -5.000000e-01,    0.000000e+00
     822,    5.555556e+00,    0.000000e+00,    3.750000e+00
     823,    2.220446e-15,    0.000000e+00,   -7.500000e+00
     824,    5.555556e+00,   -5.000000e-01,   -7.500000e+00
     825,    5.555556e+00,    0.000000e+00,   -3.750000e+00
     826,   -8.881784e-16,    0.000000e+00,   -1.500000e+01
     827,    5.555556e+00,   -5.000000e-01,   -1.500000e+01
     828,    5.555556e+00,    0.000000e+00,   -1.125000e+01
     829,    4.440892e-16,    0.000000e+00,   -2.250000e+01
     830,    5.555556e+00,   -5.000000e-01,   -2.250000e+01
     831,    5.555556e+00,    0.000000e+00,   -1.875000e+01
     832,    5.555556e+00,    0.000000e+00,   -2.625000e+01
     833,    5.555556e+00,    5.000000e-01,    2.250000e+01
     834,    5.555556e+00,    5.000000e-01,    1.500000e+01
     835,    5.555556e+00,    5.000000e-01,    7.500000e+00
     836,    5.555556e+00,    5.000000e-01,    0.000000e+00
     837,    5.555556e+00,    5.000000e-01,   -7.500000e+00
     838,    5.555556e+00,    5.000000e-01,   -1.500000e+01
     839,    5.555556e+00,    5.000000e-01,   -2.250000e+01
     840,    1.111111e+01,    3.469447e-18,    2.250000e+01
     841,    1.666667e+01,   -5.000000e-01,    2.250000e+01
     842,    1.666667e+01,    3.469447e-18,    2.625000e+01
     843,    1.111111e+01,    0.000000e+00,    1.500000e+01
     844,    1.666667e+01,   -5.000000e-01,    1.500000e+01
     845,    1.666667e+01,    3.469447e-18,    1.875000e+01
     846,    1.111111e+01,    0.000000e+00,    7.500000e+00
     847,    1.666667e+01,   -5.000000e-01,    7.500000e+00
     848,    1.666667e+01,    0.000000e+00,    1.125000e+01
     849,    1.111111e+01,    0.000000e+00,    4.440892e-16
     850,    1.666667e+01,   -5.000000e-01,    4.440892e-16
     851,    1.666667e+01,    0.000000e+00,    3.750000e+00
     852,    1.111111e+01,    0.000000e+00,   -7.500000e+00
     853,    1.666667e+01,   -5.000000e-01,   -7.500000e+00
     854,    1.666667e+01,    0.000000e+00,   -3.750000e+00
     855,    1.111111e+01,    0.000000e+00,   -1.500000e+01
     856,    1.666667e+01,   -5.000000e-01,   -1.500000e+01
     857,    1.666667e+01,    0.000000e+00,   -1.125000e+01
     858,    1.111111e+01,    0.000000e+00,   -2.250000e+01
     859,    1.666667e+01,   -5.000000e-01,   -2.250000e+01
     860,    1.666667e+01,    0.000000e+00,   -1.875000e+01
     861,    1.666667e+01,    0.000000e+00,   -2.625000e+01
     862,    1.666667e+01,    5.000000e-01,    2.250000e+01
     863,    1.666667e+01,    5.000000e-01,    1.500000e+01
     864,    1.666667e+01,    5.000000e-01,    7.500000e+00
     865,    1.666667e+01,    5.000000e-01,    8.881784e-16
     866,    1.666667e+01,    5.000000e-01,   -7.500000e+00
     867,    1.666667e+01,    5.000000e-01,   -1.500000e+01
     868,    1.666667e+01,    5.000000e-01,   -2.250000e+01
     869,    2.222222e+01,    0.000000e+00,    2.250000e+01
     870,    2.777778e+01,   -5.000000e-01,    2.250000e+01
     871,    2.777778e+01,    1.040834e-17,    2.625000e+01
     872,    2.222222e+01,    0.000000e+00,    1.500000e+01
     873,    2.777778e+01,   -5.000000e-01,    1.500000e+01
     874,    2.777778e+01,   -3.469447e-18,    1.875000e+01
     875,    2.222222e+01,    0.000000e+00,    7.500000e+00
     876,    2.777778e+01,   -5.000000e-01,    7.500000e+00
     877,    2.777778e+01,    0.000000e+00,    1.125000e+01
     878,    2.222222e+01,    0.000000e+00,    4.440892e-16
     879,    2.777778e+01,   -5.000000e-01,    0.000000e+00
     880,    2.777778e+01,    0.000000e+00,    3.750000e+00
     881,    2.222222e+01,    0.000000e+00,   -7.500000e+00
     882,    2.777778e+01,   -5.000000e-01,   -7.500000e+00
     883,    2.777778e+01,    0.000000e+00,   -3.750000e+00
     884,    2.222222e+01,    0.000000e+00,   -1.500000e+01
     885,    2.777778e+01,   -5.000000e-01,   -1.500000e+01
     886,    2.777778e+01,    0.000000e+00,   -1.125000e+01
     887,    2.222222e+01,   -2.775558e-17,   -2.250000e+01
     888,    2.777778e+01,   -5.000000e-01,   -2.250000e+01
     889,    2.777778e+01,   -2.775558e-17,   -1.875000e+01
     890,    2.777778e+01,   -4.163336e-17,   -2.625000e+01
     891,    2.777778e+01,    5.000000e-01,    2.250000e+01
     892,    2.777778e+01,    5.000000e-01,    1.500000e+01
     893,    2.777778e+01,    5.000000e-01,    7.500000e+00
     894,    2.777778e+01,    5.000000e-01,    0.000000e+00
     895,    2.777778e+01,    5.000000e-01,   -7.500000e+00
     896,    2.777778e+01,    5.000000e-01,   -1.500000e+01
     897,    2.777778e+01,    5.000000e-01,   -2.250000e+01
     898,    3.333333e+01,   -3.469447e-18,    2.250000e+01
     899,    3.888889e+01,   -5.000000e-01,    2.250000e+01
     900,    3.888889e+01,    3.469447e-18,    2.625000e+01
     901,    3.333333e+01,    0.000000e+00,    1.500000e+01
     902,    3.888889e+01,   -5.000000e-01,    1.500000e+01
     903,    3.888889e+01,    0.000000e+00,    1.875000e+01
     904,    3.333333e+01,    2.775558e-17,    7.500000e+00
     905,    3.888889e+01,   -5.000000e-01,    7.500000e+00
     906,    3.888889e+01,    2.775558e-17,    1.125000e+01
     907,    3.333333e+01,    0.000000e+00,    0.000000e+00
     908,    3.888889e+01,   -5.000000e-01,    0.000000e+00
     909,    3.888889e+01,    2.775558e-17,    3.750000e+00
     910,    3.333333e+01,    0.000000e+00,   -7.500000e+00
     911,    3.888889e+01,   -5.000000e-01,   -7.500000e+00
     912,    3.888889e+01,    0.000000e+00,   -3.750000e+00
     913,    3.333333e+01,    0.000000e+00,   -1.500000e+01
     914,    3.888889e+01,   -5.000000e-01,   -1.500000e+01
     915,    3.888889e+01,    0.000000e+00,   -1.125000e+01
     916,    3.333333e+01,   -5.551115e-17,   -2.250000e+01
     917,    3.888889e+01,   -5.000000e-01,   -2.250000e+01
     918,    3.888889e+01,   -2.775558e-17,   -1.875000e+01
     919,    3.888889e+01,   -3.122502e-17,   -2.625000e+01
     920,    3.888889e+01,    5.000000e-01,    2.250000e+01
     921,    3.888889e+01,    5.000000e-01,    1.500000e+01
     922,    3.888889e+01,    5.000000e-01,    7.500000e+00
     923,    3.888889e+01,    5.000000e-01,   -3.330669e-16
     924,    3.888889e+01,    5.000000e-01,   -7.500000e+00
     925,    3.888889e+01,    5.000000e-01,   -1.500000e+01
     926,    3.888889e+01,    5.000000e-01,   -2.250000e+01
     927,    4.444444e+01,    0.000000e+00,    2.250000e+01
     928,    4.444444e+01,    0.000000e+00,    1.500000e+01
     929,    4.444444e+01,    2.775558e-17,    7.500000e+00
     930,    4.444444e+01,    0.000000e+00,    0.000000e+00
     931,    4.444444e+01,    0.000000e+00,   -7.500000e+00
     932,    4.444444e+01,    0.000000e+00,   -1.500000e+01
     933,    4.444444e+01,   -2.775558e-17,   -2.250000e+01
********************************** E L E M E N T S ****************************
*ELEMENT, TYPE=C3D20, ELSET=plate
       1,      21,      68,     145,      22,      23,      82,     215,      38,     365,     531,     517,     283,     382,     696,     697,     315,     284,     381,     695,     317
       2,      68,      69,     146,     145,      82,      83,     216,     215,     366,     532,     519,     531,     384,     699,     700,     696,     381,     383,     698,     695
       3,      69,      70,     147,     146,      83,      84,     217,     216,     367,     533,     521,     532,     386,     702,     703,     699,     383,     385,     701,     698
       4,      70,      71,     148,     147,      84,      85,     218,     217,     368,     534,     523,     533,     388,     705,     706,     702,     385,     387,     704,     701
       5,      71,      72,     149,     148,      85,      86,     219,     218,     369,     535,     525,     534,     390,     708,     709,     705,     387,     389,     707,     704
       6,      72,      73,     150,     149,      86,      87,     220,     219,     370,     536,     527,     535,     392,     711,     712,     708,     389,     391,     710,     707
       7,      73,      74,     151,     150,      87,      88,     221,     220,     371,     537,     529,     536,     394,     714,     715,     711,     391,     393,     713,     710
       8,      74,      41,      51,     151,      88,      49,      67,     221,     372,     329,     530,     537,     395,     363,     716,     714,     393,     328,     364,     713
       9,      22,     145,     138,      12,      38,     215,     201,      20,     517,     516,     508,     282,     697,     717,     652,     316,     317,     695,     666,     281
      10,     145,     146,     139,     138,     215,     216,     202,     201,     519,     518,     509,     516,     700,     718,     654,     717,     695,     698,     667,     666
      11,     146,     147,     140,     139,     216,     217,     203,     202,     521,     520,     510,     518,     703,     719,     656,     718,     698,     701,     668,     667
      12,     147,     148,     141,     140,     217,     218,     204,     203,     523,     522,     511,     520,     706,     720,     658,     719,     701,     704,     669,     668
      13,     148,     149,     142,     141,     218,     219,     205,     204,     525,     524,     512,     522,     709,     721,     660,     720,     704,     707,     670,     669
      14,     149,     150,     143,     142,     219,     220,     206,     205,     527,     526,     513,     524,     712,     722,     662,     721,     707,     710,     671,     670
      15,     150,     151,     144,     143,     220,     221,     207,     206,     529,     528,     514,     526,     715,     723,     664,     722,     710,     713,     672,     671
      16,     151,      51,      50,     144,     221,      67,      52,     207,     530,     330,     515,     528,     716,     362,     665,     723,     713,     364,     331,     672
      17,      23,      82,     215,      38,      24,      89,     222,      37,     382,     696,     697,     315,     397,     725,     726,     312,     285,     396,     724,     314
      18,      82,      83,     216,     215,      89,      90,     223,     222,     384,     699,     700,     696,     399,     728,     729,     725,     396,     398,     727,     724
      19,      83,      84,     217,     216,      90,      91,     224,     223,     386,     702,     703,     699,     401,     731,     732,     728,     398,     400,     730,     727
      20,      84,      85,     218,     217,      91,      92,     225,     224,     388,     705,     706,     702,     403,     734,     735,     731,     400,     402,     733,     730
      21,      85,      86,     219,     218,      92,      93,     226,     225,     390,     708,     709,     705,     405,     737,     738,     734,     402,     404,     736,     733
      22,      86,      87,     220,     219,      93,      94,     227,     226,     392,     711,     712,     708,     407,     740,     741,     737,     404,     406,     739,     736
      23,      87,      88,     221,     220,      94,      95,     228,     227,     394,     714,     715,     711,     409,     743,     744,     740,     406,     408,     742,     739
      24,      88,      49,      67,     221,      95,      48,      66,     228,     395,     363,     716,     714,     410,     360,     745,     743,     408,     327,     361,     742
      25,      38,     215,     201,      20,      37,     222,     194,      19,     697,     717,     652,     316,     726,     746,     637,     313,     314,     724,     651,     280
      26,     215,     216,     202,     201,     222,     223,     195,     194,     700,     718,     654,     717,     729,     747,     639,     746,     724,     727,     653,     651
      27,     216,     217,     203,     202,     223,     224,     196,     195,     703,     719,     656,     718,     732,     748,     641,     747,     727,     730,     655,     653
      28,     217,     218,     204,     203,     224,     225,     197,     196,     706,     720,     658,     719,     735,     749,     643,     748,     730,     733,     657,     655
      29,     218,     219,     205,     204,     225,     226,     198,     197,     709,     721,     660,     720,     738,     750,     645,     749,     733,     736,     659,     657
      30,     219,     220,     206,     205,     226,     227,     199,     198,     712,     722,     662,     721,     741,     751,     647,     750,     736,     739,     661,     659
      31,     220,     221,     207,     206,     227,     228,     200,     199,     715,     723,     664,     722,     744,     752,     649,     751,     739,     742,     663,     661
      32,     221,      67,      52,     207,     228,      66,      53,     200,     716,     362,     665,     723,     745,     359,     650,     752,     742,     361,     332,     663
      33,      24,      89,     222,      37,      25,      96,     229,      36,     397,     725,     726,     312,     412,     754,     755,     309,     286,     411,     753,     311
      34,      89,      90,     223,     222,      96,      97,     230,     229,     399,     728,     729,     725,     414,     757,     758,     754,     411,     413,     756,     753
      35,      90,      91,     224,     223,      97,      98,     231,     230,     401,     731,     732,     728,     416,     760,     761,     757,     413,     415,     759,     756
      36,      91,      92,     225,     224,      98,      99,     232,     231,     403,     734,     735,     731,     418,     763,     764,     760,     415,     417,     762,     759
      37,      92,      93,     226,     225,      99,     100,     233,     232,     405,     737,     738,     734,     420,     766,     767,     763,     417,     419,     765,     762
      38,      93,      94,     227,     226,     100,     101,     234,     233,     407,     740,     741,     737,     422,     769,     770,     766,     419,     421,     768,     765
      39,      94,      95,     228,     227,     101,     102,     235,     234,     409,     743,     744,     740,     424,     772,     773,     769,     421,     423,     771,     768
      40,      95,      48,      66,     228,     102,      47,      65,     235,     410,     360,     745,     743,     425,     357,     774,     772,     423,     326,     358,     771
      41,      37,     222,     194,      19,      36,     229,     187,      18,     726,     746,     637,     313,     755,     775,     622,     310,     311,     753,     636,     279
      42,     222,     223,     195,     194,     229,     230,     188,     187,     729,     747,     639,     746,     758,     776,     624,     775,     753,     756,     638,     636
      43,     223,     224,     196,     195,     230,     231,     189,     188,     732,     748,     641,     747,     761,     777,     626,     776,     756,     759,     640,     638
      44,     224,     225,     197,     196,     231,     232,     190,     189,     735,     749,     643,     748,     764,     778,     628,     777,     759,     762,     642,     640
      45,     225,     226,     198,     197,     232,     233,     191,     190,     738,     750,     645,     749,     767,     779,     630,     778,     762,     765,     644,     642
      46,     226,     227,     199,     198,     233,     234,     192,     191,     741,     751,     647,     750,     770,     780,     632,     779,     765,     768,     646,     644
      47,     227,     228,     200,     199,     234,     235,     193,     192,     744,     752,     649,     751,     773,     781,     634,     780,     768,     771,     648,     646
      48,     228,      66,      53,     200,     235,      65,      54,     193,     745,     359,     650,     752,     774,     356,     635,     781,     771,     358,     333,     648
      49,      25,      96,     229,      36,      26,     103,     236,      35,     412,     754,     755,     309,     427,     783,     784,     306,     287,     426,     782,     308
      50,      96,      97,     230,     229,     103,     104,     237,     236,     414,     757,     758,     754,     429,     786,     787,     783,     426,     428,     785,     782
      51,      97,      98,     231,     230,     104,     105,     238,     237,     416,     760,     761,     757,     431,     789,     790,     786,     428,     430,     788,     785
      52,      98,      99,     232,     231,     105,     106,     239,     238,     418,     763,     764,     760,     433,     792,     793,     789,     430,     432,     791,     788
      53,      99,     100,     233,     232,     106,     107,     240,     239,     420,     766,     767,     763,     435,     795,     796,     792,     432,     434,     794,     791
      54,     100,     101,     234,     233,     107,     108,     241,     240,     422,     769,     770,     766,     437,     798,     799,     795,     434,     436,     797,     794
      55,     101,     102,     235,     234,     108,     109,     242,     241,     424,     772,     773,     769,     439,     801,     802,     798,     436,     438,     800,     797
      56,     102,      47,      65,     235,     109,      46,      64,     242,     425,     357,     774,     772,     440,     354,     803,     801,     438,     325,     355,     800
      57,      36,     229,     187,      18,      35,     236,     180,      17,     755,     775,     622,     310,     784,     804,     607,     307,     308,     782,     621,     278
      58,     229,     230,     188,     187,     236,     237,     181,     180,     758,     776,     624,     775,     787,     805,     609,     804,     782,     785,     623,     621
      59,     230,     231,     189,     188,     237,     238,     182,     181,     761,     777,     626,     776,     790,     806,     611,     805,     785,     788,     625,     623
      60,     231,     232,     190,     189,     238,     239,     183,     182,     764,     778,     628,     777,     793,     807,     613,     806,     788,     791,     627,     625
      61,     232,     233,     191,     190,     239,     240,     184,     183,     767,     779,     630,     778,     796,     808,     615,     807,     791,     794,     629,     627
      62,     233,     234,     192,     191,     240,     241,     185,     184,     770,     780,     632,     779,     799,     809,     617,     808,     794,     797,     631,     629
      63,     234,     235,     193,     192,     241,     242,     186,     185,     773,     781,     634,     780,     802,     810,     619,     809,     797,     800,     633,     631
      64,     235,      65,      54,     193,     242,      64,      55,     186,     774,     356,     635,     781,     803,     353,     620,     810,     800,     355,     334,     633
      65,      26,     103,     236,      35,      27,     110,     243,      34,     427,     783,     784,     306,     442,     812,     813,     303,     288,     441,     811,     305
      66,     103,     104,     237,     236,     110,     111,     244,     243,     429,     786,     787,     783,     444,     815,     816,     812,     441,     443,     814,     811
      67,     104,     105,     238,     237,     111,     112,     245,     244,     431,     789,     790,     786,     446,     818,     819,     815,     443,     445,     817,     814
      68,     105,     106,     239,     238,     112,     113,     246,     245,     433,     792,     793,     789,     448,     821,     822,     818,     445,     447,     820,     817
      69,     106,     107,     240,     239,     113,     114,     247,     246,     435,     795,     796,     792,     450,     824,     825,     821,     447,     449,     823,     820
      70,     107,     108,     241,     240,     114,     115,     248,     247,     437,     798,     799,     795,     452,     827,     828,     824,     449,     451,     826,     823
      71,     108,     109,     242,     241,     115,     116,     249,     248,     439,     801,     802,     798,     454,     830,     831,     827,     451,     453,     829,     826
      72,     109,      46,      64,     242,     116,      45,      63,     249,     440,     354,     803,     801,     455,     351,     832,     830,     453,     324,     352,     829
      73,      35,     236,     180,      17,      34,     243,     173,      16,     784,     804,     607,     307,     813,     833,     592,     304,     305,     811,     606,     277
      74,     236,     237,     181,     180,     243,     244,     174,     173,     787,     805,     609,     804,     816,     834,     594,     833,     811,     814,     608,     606
      75,     237,     238,     182,     181,     244,     245,     175,     174,     790,     806,     611,     805,     819,     835,     596,     834,     814,     817,     610,     608
      76,     238,     239,     183,     182,     245,     246,     176,     175,     793,     807,     613,     806,     822,     836,     598,     835,     817,     820,     612,     610
      77,     239,     240,     184,     183,     246,     247,     177,     176,     796,     808,     615,     807,     825,     837,     600,     836,     820,     823,     614,     612
      78,     240,     241,     185,     184,     247,     248,     178,     177,     799,     809,     617,     808,     828,     838,     602,     837,     823,     826,     616,     614
      79,     241,     242,     186,     185,     248,     249,     179,     178,     802,     810,     619,     809,     831,     839,     604,     838,     826,     829,     618,     616
      80,     242,      64,      55,     186,     249,      63,      56,     179,     803,     353,     620,     810,     832,     350,     605,     839,     829,     352,     335,     618
      81,      27,     110,     243,      34,      28,     117,     250,      33,     442,     812,     813,     303,     457,     841,     842,     300,     289,     456,     840,     302
      82,     110,     111,     244,     243,     117,     118,     251,     250,     444,     815,     816,     812,     459,     844,     845,     841,     456,     458,     843,     840
      83,     111,     112,     245,     244,     118,     119,     252,     251,     446,     818,     819,     815,     461,     847,     848,     844,     458,     460,     846,     843
      84,     112,     113,     246,     245,     119,     120,     253,     252,     448,     821,     822,     818,     463,     850,     851,     847,     460,     462,     849,     846
      85,     113,     114,     247,     246,     120,     121,     254,     253,     450,     824,     825,     821,     465,     853,     854,     850,     462,     464,     852,     849
      86,     114,     115,     248,     247,     121,     122,     255,     254,     452,     827,     828,     824,     467,     856,     857,     853,     464,     466,     855,     852
      87,     115,     116,     249,     248,     122,     123,     256,     255,     454,     830,     831,     827,     469,     859,     860,     856,     466,     468,     858,     855
      88,     116,      45,      63,     249,     123,      44,      62,     256,     455,     351,     832,     830,     470,     348,     861,     859,     468,     323,     349,     858
      89,      34,     243,     173,      16,      33,     250,     166,      15,     813,     833,     592,     304,     842,     862,     577,     301,     302,     840,     591,     276
      90,     243,     244,     174,     173,     250,     251,     167,     166,     816,     834,     594,     833,     845,     863,     579,     862,     840,     843,     593,     591
      91,     244,     245,     175,     174,     251,     252,     168,     167,     819,     835,     596,     834,     848,     864,     581,     863,     843,     846,     595,     593
      92,     245,     246,     176,     175,     252,     253,     169,     168,     822,     836,     598,     835,     851,     865,     583,     864,     846,     849,     597,     595
      93,     246,     247,     177,     176,     253,     254,     170,     169,     825,     837,     600,     836,     854,     866,     585,     865,     849,     852,     599,     597
      94,     247,     248,     178,     177,     254,     255,     171,     170,     828,     838,     602,     837,     857,     867,     587,     866,     852,     855,     601,     599
      95,     248,     249,     179,     178,     255,     256,     172,     171,     831,     839,     604,     838,     860,     868,     589,     867,     855,     858,     603,     601
      96,     249,      63,      56,     179,     256,      62,      57,     172,     832,     350,     605,     839,     861,     347,     590,     868,     858,     349,     336,     603
      97,      28,     117,     250,      33,      29,     124,     257,      32,     457,     841,     842,     300,     472,     870,     871,     297,     290,     471,     869,     299
      98,     117,     118,     251,     250,     124,     125,     258,     257,     459,     844,     845,     841,     474,     873,     874,     870,     471,     473,     872,     869
      99,     118,     119,     252,     251,     125,     126,     259,     258,     461,     847,     848,     844,     476,     876,     877,     873,     473,     475,     875,     872
     100,     119,     120,     253,     252,     126,     127,     260,     259,     463,     850,     851,     847,     478,     879,     880,     876,     475,     477,     878,     875
     101,     120,     121,     254,     253,     127,     128,     261,     260,     465,     853,     854,     850,     480,     882,     883,     879,     477,     479,     881,     878
     102,     121,     122,     255,     254,     128,     129,     262,     261,     467,     856,     857,     853,     482,     885,     886,     882,     479,     481,     884,     881
     103,     122,     123,     256,     255,     129,     130,     263,     262,     469,     859,     860,     856,     484,     888,     889,     885,     481,     483,     887,     884
     104,     123,      44,      62,     256,     130,      43,      61,     263,     470,     348,     861,     859,     485,     345,     890,     888,     483,     322,     346,     887
     105,      33,     250,     166,      15,      32,     257,     159,      14,     842,     862,     577,     301,     871,     891,     562,     298,     299,     869,     576,     275
     106,     250,     251,     167,     166,     257,     258,     160,     159,     845,     863,     579,     862,     874,     892,     564,     891,     869,     872,     578,     576
     107,     251,     252,     168,     167,     258,     259,     161,     160,     848,     864,     581,     863,     877,     893,     566,     892,     872,     875,     580,     578
     108,     252,     253,     169,     168,     259,     260,     162,     161,     851,     865,     583,     864,     880,     894,     568,     893,     875,     878,     582,     580
     109,     253,     254,     170,     169,     260,     261,     163,     162,     854,     866,     585,     865,     883,     895,     570,     894,     878,     881,     584,     582
     110,     254,     255,     171,     170,     261,     262,     164,     163,     857,     867,     587,     866,     886,     896,     572,     895,     881,     884,     586,     584
     111,     255,     256,     172,     171,     262,     263,     165,     164,     860,     868,     589,     867,     889,     897,     574,     896,     884,     887,     588,     586
     112,     256,      62,      57,     172,     263,      61,      58,     165,     861,     347,     590,     868,     890,     344,     575,     897,     887,     346,     337,     588
     113,      29,     124,     257,      32,      30,     131,     264,      31,     472,     870,     871,     297,     487,     899,     900,     294,     291,     486,     898,     296
     114,     124,     125,     258,     257,     131,     132,     265,     264,     474,     873,     874,     870,     489,     902,     903,     899,     486,     488,     901,     898
     115,     125,     126,     259,     258,     132,     133,     266,     265,     476,     876,     877,     873,     491,     905,     906,     902,     488,     490,     904,     901
     116,     126,     127,     260,     259,     133,     134,     267,     266,     478,     879,     880,     876,     493,     908,     909,     905,     490,     492,     907,     904
     117,     127,     128,     261,     260,     134,     135,     268,     267,     480,     882,     883,     879,     495,     911,     912,     908,     492,     494,     910,     907
     118,     128,     129,     262,     261,     135,     136,     269,     268,     482,     885,     886,     882,     497,     914,     915,     911,     494,     496,     913,     910
     119,     129,     130,     263,     262,     136,     137,     270,     269,     484,     888,     889,     885,     499,     917,     918,     914,     496,     498,     916,     913
     120,     130,      43,      61,     263,     137,      42,      60,     270,     485,     345,     890,     888,     500,     342,     919,     917,     498,     321,     343,     916
     121,      32,     257,     159,      14,      31,     264,     152,      13,     871,     891,     562,     298,     900,     920,     547,     295,     296,     898,     561,     274
     122,     257,     258,     160,     159,     264,     265,     153,     152,     874,     892,     564,     891,     903,     921,     549,     920,     898,     901,     563,     561
     123,     258,     259,     161,     160,     265,     266,     154,     153,     877,     893,     566,     892,     906,     922,     551,     921,     901,     904,     565,     563
     124,     259,     260,     162,     161,     266,     267,     155,     154,     880,     894,     568,     893,     909,     923,     553,     922,     904,     907,     567,     565
     125,     260,     261,     163,     162,     267,     268,     156,     155,     883,     895,     570,     894,     912,     924,     555,     923,     907,     910,     569,     567
     126,     261,     262,     164,     163,     268,     269,     157,     156,     886,     896,     572,     895,     915,     925,     557,     924,     910,     913,     571,     569
     127,     262,     263,     165,     164,     269,     270,     158,     157,     889,     897,     574,     896,     918,     926,     559,     925,     913,     916,     573,     571
     128,     263,      61,      58,     165,     270,      60,      59,     158,     890,     344,     575,     897,     919,     341,     560,     926,     916,     343,     338,     573
     129,      30,     131,     264,      31,       1,      75,     208,       3,     487,     899,     900,     294,     373,     673,     674,     271,     292,     501,     927,     293
     130,     131,     132,     265,     264,      75,      76,     209,     208,     489,     902,     903,     899,     374,     675,     676,     673,     501,     502,     928,     927
     131,     132,     133,     266,     265,      76,      77,     210,     209,     491,     905,     906,     902,     375,     677,     678,     675,     502,     503,     929,     928
     132,     133,     134,     267,     266,      77,      78,     211,     210,     493,     908,     909,     905,     376,     679,     680,     677,     503,     504,     930,     929
     133,     134,     135,     268,     267,      78,      79,     212,     211,     495,     911,     912,     908,     377,     681,     682,     679,     504,     505,     931,     930
     134,     135,     136,     269,     268,      79,      80,     213,     212,     497,     914,     915,     911,     378,     683,     684,     681,     505,     506,     932,     931
     135,     136,     137,     270,     269,      80,      81,     214,     213,     499,     917,     918,     914,     379,     685,     686,     683,     506,     507,     933,     932
     136,     137,      42,      60,     270,      81,      39,      40,     214,     500,     342,     919,     917,     380,     319,     687,     685,     507,     320,     340,     933
     137,      31,     264,     152,      13,       3,     208,       5,       2,     900,     920,     547,     295,     674,     688,     538,     272,     293,     927,     546,     273
     138,     264,     265,     153,     152,     208,     209,       6,       5,     903,     921,     549,     920,     676,     689,     539,     688,     927,     928,     548,     546
     139,     265,     266,     154,     153,     209,     210,       7,       6,     906,     922,     551,     921,     678,     690,     540,     689,     928,     929,     550,     548
     140,     266,     267,     155,     154,     210,     211,       8,       7,     909,     923,     553,     922,     680,     691,     541,     690,     929,     930,     552,     550
     141,     267,     268,     156,     155,     211,     212,       9,       8,     912,     924,     555,     923,     682,     692,     542,     691,     930,     931,     554,     552
     142,     268,     269,     157,     156,     212,     213,      10,       9,     915,     925,     557,     924,     684,     693,     543,     692,     931,     932,     556,     554
     143,     269,     270,     158,     157,     213,     214,      11,      10,     918,     926,     559,     925,     686,     694,     544,     693,     932,     933,     558,     556
     144,     270,      60,      59,     158,     214,      40,       4,      11,     919,     341,     560,     926,     687,     318,     545,     694,     933,     340,     339,     558
********************************** N O D E S E T S **********************************
*NSET, NSET=BC_fix_xy
       1,       2,       3,       4,       5,       6,
       7,       8,       9,      10,      11,      12,
      21,      22,      39,      40,      41,      50,
      51,      68,      69,      70,      71,      72,
      73,      74,      75,      76,      77,      78,
      79,      80,      81,     138,     139,     140,
     141,     142,     143,     144,     145,     146,
     147,     148,     149,     150,     151,     208,
     209,     210,     211,     212,     213,     214,
     271,     272,     282,     283,     318,     319,
     329,     330,     365,     366,     367,     368,
     369,     370,     371,     372,     373,     374,
     375,     376,     377,     378,     379,     380,
     508,     509,     510,     511,     512,     513,
     514,     515,     516,     517,     518,     519,
     520,     521,     522,     523,     524,     525,
     526,     527,     528,     529,     530,     531,
     532,     533,     534,     535,     536,     537,
     538,     539,     540,     541,     542,     543,
     544,     545,     673,     674,     675,     676,
     677,     678,     679,     680,     681,     682,
     683,     684,     685,     686,     687,     688,
     689,     690,     691,     692,     693,     694,
*NSET, NSET=BC_fix_yz
       1,       2,       3,       4,      12,      13,
      14,      15,      16,      17,      18,      19,
      20,      21,      22,      23,      24,      25,
      26,      27,      28,      29,      30,      31,
      32,      33,      34,      35,      36,      37,
      38,      39,      40,      41,      42,      43,
      44,      45,      46,      47,      48,      49,
      50,      51,      52,      53,      54,      55,
      56,      57,      58,      59,      60,      61,
      62,      63,      64,      65,      66,      67,
     271,     272,     273,     274,     275,     276,
     277,     278,     279,     280,     281,     282,
     283,     284,     285,     286,     287,     288,
     289,     290,     291,     292,     293,     294,
     295,     296,     297,     298,     299,     300,
     301,     302,     303,     304,     305,     306,
     307,     308,     309,     310,     311,     312,
     313,     314,     315,     316,     317,     318,
     319,     320,     321,     322,     323,     324,
     325,     326,     327,     328,     329,     330,
     331,     332,     333,     334,     335,     336,
     337,     338,     339,     340,     341,     342,
     343,     344,     345,     346,     347,     348,
     349,     350,     351,     352,     353,     354,
     355,     356,     357,     358,     359,     360,
     361,     362,     363,     364,
*NSET, NSET=BC_fix_xy_left
      12,      21,      22,      41,      50,      51,
      68,      69,      70,      71,      72,      73,
      74,     138,     139,     140,     141,     142,
     143,     144,     145,     146,     147,     148,
     149,     150,     151,     282,     283,     329,
     330,     365,     366,     367,     368,     369,
     370,     371,     372,     508,     509,     510,
     511,     512,     513,     514,     515,     516,
     517,     518,     519,     520,     521,     522,
     523,     524,     525,     526,     527,     528,
     529,     530,     531,     532,     533,     534,
     535,     536,     537,
*NSET, NSET=reference_Load_x
       1,       2,       3,       4,       5,       6,
       7,       8,       9,      10,      11,      39,
      40,      75,      76,      77,      78,      79,
      80,      81,     208,     209,     210,     211,
     212,     213,     214,     271,     272,     318,
     319,     373,     374,     375,     376,     377,
     378,     379,     380,     538,     539,     540,
     541,     542,     543,     544,     545,     673,
     674,     675,     676,     677,     678,     679,
     680,     681,     682,     683,     684,     685,
     686,     687,     688,     689,     690,     691,
     692,     693,     694,
