$MeshFormat
2.2 0 8
$EndMeshFormat
$PhysicalNames
27
0 1 "NOB"
0 2 "NWB"
0 3 "SOB"
0 4 "SWB"
0 5 "NOT"
0 6 "NWT"
0 7 "SOT"
0 8 "SWT"
1 9 "NW"
1 10 "SW"
1 11 "SE"
1 12 "NO"
1 13 "NB"
1 14 "OB"
1 15 "SB"
1 16 "WB"
1 17 "NT"
1 18 "OT"
1 19 "ST"
1 20 "WT"
2 21 "N"
2 22 "O"
2 23 "S"
2 24 "W"
2 25 "B"
2 26 "T"
3 27 "SOLID"
$EndPhysicalNames
$Nodes
27
1 -1 -1 -1
2 1 -1 -1
3 1 1 -1
4 -1 1 -1
5 -1 -1 1
6 1 -1 1
7 1 1 1
8 -1 1 1
9 -2.625677453238495e-12 -1 -1
10 1 -2.625677453238495e-12 -1
11 2.625677453238495e-12 1 -1
12 -1 2.625677453238495e-12 -1
13 -2.625677453238495e-12 -1 1
14 1 -2.625677453238495e-12 1
15 2.625677453238495e-12 1 1
16 -1 2.625677453238495e-12 1
17 -1 -1 -2.625677453238495e-12
18 1 -1 -2.625677453238495e-12
19 1 1 -2.625677453238495e-12
20 -1 1 -2.625677453238495e-12
21 0 0 -1
22 -2.625677453238495e-12 -1 -2.625677453238495e-12
23 1 -2.625677453238495e-12 -2.625677453238495e-12
24 2.625677453238495e-12 1 -2.625677453238495e-12
25 -1 2.625677453238495e-12 -2.625677453238495e-12
26 0 0 1
27 5.551115123125783e-17 0 -2.62545540863357e-12
$EndNodes
$Elements
25
1 15 2 4 1 1
2 15 2 3 2 2
3 15 2 1 3 3
4 15 2 2 4 4
5 15 2 8 5 5
6 15 2 7 6 6
7 8 2 15 1 1 2 9
8 8 2 14 2 2 3 10
9 8 2 13 3 3 4 11
10 8 2 16 4 4 1 12
11 8 2 19 6 5 6 13
12 8 2 18 7 6 7 14
13 8 2 17 8 7 8 15
14 8 2 20 9 8 5 16
15 8 2 10 11 1 5 17
16 8 2 11 12 2 6 18
17 8 2 12 16 3 7 19
18 8 2 9 20 4 8 20
19 10 2 25 1 1 2 3 4 9 10 11 12 21
20 10 2 23 13 1 2 6 5 9 18 13 17 22
21 10 2 22 17 2 3 7 6 10 19 14 18 23
22 10 2 21 21 3 4 8 7 11 20 15 19 24
23 10 2 24 25 4 1 5 8 12 17 16 20 25
24 10 2 26 26 5 6 7 8 13 14 15 16 26
25 12 2 27 1 1 2 3 4 5 6 7 8 9 12 17 10 18 11 19 20 13 16 14 15 21 22 25 23 24 26 27
$EndElements
