$MeshFormat
2.2 0 8
$EndMeshFormat
$PhysicalNames
10
1 7 "FluxParallel_V"
1 8 "FluxParallel_h"
1 9 "FluxParallel_h1"
1 10 "Force"
2 1 "joch"
2 2 "anker"
2 3 "spule1_in"
2 4 "spule2_out"
2 5 "air"
2 6 "OptimierungY"
$EndPhysicalNames
$Nodes
96
1 0 0 0
2 0 0.02 0
3 0 0.035 0
4 0 0.036 0
5 0 0.041 0
6 0 0.051 0
7 0 0.07100000000000001 0
8 0 0.081 0
9 0 0.101 0
10 0.025 0 0
11 0.025 0.02 0
12 0.025 0.035 0
13 0.025 0.036 0
14 0.025 0.041 0
15 0.025 0.051 0
16 0.025 0.07100000000000001 0
17 0.025 0.081 0
18 0.025 0.101 0
19 0.045 0 0
20 0.045 0.02 0
21 0.045 0.035 0
22 0.045 0.036 0
23 0.045 0.041 0
24 0.045 0.051 0
25 0.045 0.07100000000000001 0
26 0.045 0.081 0
27 0.045 0.101 0
28 0.07000000000000001 0 0
29 0.07000000000000001 0.02 0
30 0.07000000000000001 0.035 0
31 0.07000000000000001 0.036 0
32 0.07000000000000001 0.041 0
33 0.07000000000000001 0.051 0
34 0.07000000000000001 0.07100000000000001 0
35 0.07000000000000001 0.081 0
36 0.07000000000000001 0.101 0
37 0 0.009999999999973934 0
38 0 0.02749999999998102 0
39 0 0.03549999999998917 0
40 0 0.0459999999999878 0
41 0 0.0609999999999729 0
42 0 0.07599999999998375 0
43 0 0.0909999999999756 0
44 0.025 0.009999999999973934 0
45 0.025 0.02749999999998102 0
46 0.025 0.03549999999998917 0
47 0.025 0.0459999999999878 0
48 0.025 0.0609999999999729 0
49 0.025 0.07599999999998375 0
50 0.025 0.0909999999999756 0
51 0.045 0.009999999999973934 0
52 0.045 0.02749999999998102 0
53 0.045 0.03549999999998917 0
54 0.045 0.0459999999999878 0
55 0.045 0.0609999999999729 0
56 0.045 0.07599999999998375 0
57 0.045 0.0909999999999756 0
58 0.07000000000000001 0.009999999999973934 0
59 0.07000000000000001 0.02749999999998102 0
60 0.07000000000000001 0.03549999999998917 0
61 0.07000000000000001 0.0459999999999878 0
62 0.07000000000000001 0.0609999999999729 0
63 0.07000000000000001 0.07599999999998375 0
64 0.07000000000000001 0.0909999999999756 0
65 0.01249999999996711 0 0
66 0.05749999999996611 0 0
67 0.01249999999996711 0.02 0
68 0.05749999999996611 0.02 0
69 0.01249999999996711 0.035 0
70 0.05749999999996611 0.035 0
71 0.01249999999996711 0.036 0
72 0.05749999999996611 0.036 0
73 0.01249999999996711 0.041 0
74 0.05749999999996611 0.041 0
75 0.01249999999996711 0.051 0
76 0.05749999999996611 0.051 0
77 0.01249999999996711 0.07100000000000001 0
78 0.05749999999996611 0.07100000000000001 0
79 0.01249999999996711 0.081 0
80 0.05749999999996611 0.081 0
81 0.01249999999996711 0.101 0
82 0.05749999999996611 0.101 0
83 0.01249999999996711 0.009999999999973931 0
84 0.01249999999996711 0.02749999999998102 0
85 0.01249999999996711 0.03549999999998917 0
86 0.0124999999999671 0.0459999999999878 0
87 0.0124999999999671 0.0609999999999729 0
88 0.01249999999996711 0.07599999999998375 0
89 0.0124999999999671 0.09099999999997561 0
90 0.05749999999996611 0.009999999999973931 0
91 0.05749999999996611 0.02749999999998102 0
92 0.05749999999996611 0.03549999999998917 0
93 0.05749999999996609 0.0459999999999878 0
94 0.05749999999996613 0.0609999999999729 0
95 0.05749999999996611 0.07599999999998375 0
96 0.05749999999996609 0.0909999999999756 0
$EndNodes
$Elements
123
1 1 2 8 1 1 37
2 1 2 8 1 37 2
3 1 2 8 2 2 38
4 1 2 8 2 38 3
5 1 2 8 3 3 39
6 1 2 8 3 39 4
7 1 2 8 4 4 5
8 1 2 8 5 5 40
9 1 2 8 5 40 6
10 1 2 8 6 6 41
11 1 2 8 6 41 7
12 1 2 8 7 7 42
13 1 2 8 7 42 8
14 1 2 8 8 8 43
15 1 2 8 8 43 9
16 1 2 10 10 11 45
17 1 2 10 10 45 12
18 1 2 9 25 28 58
19 1 2 9 25 58 29
20 1 2 9 26 29 59
21 1 2 9 26 59 30
22 1 2 9 27 30 60
23 1 2 9 27 60 31
24 1 2 9 28 31 32
25 1 2 9 29 32 61
26 1 2 9 29 61 33
27 1 2 9 30 33 62
28 1 2 9 30 62 34
29 1 2 9 31 34 63
30 1 2 9 31 63 35
31 1 2 9 32 35 64
32 1 2 9 32 64 36
33 1 2 7 33 1 65
34 1 2 7 33 65 10
35 1 2 7 34 10 19
36 1 2 7 35 19 66
37 1 2 7 35 66 28
38 1 2 10 37 11 20
39 1 2 10 38 20 68
40 1 2 10 38 68 29
41 1 2 10 40 12 21
42 1 2 10 41 21 70
43 1 2 10 41 70 30
44 1 2 7 57 9 81
45 1 2 7 57 81 18
46 1 2 7 58 18 27
47 1 2 7 59 27 82
48 1 2 7 59 82 36
49 3 2 5 60 1 65 83 37
50 3 2 5 60 37 83 67 2
51 3 2 5 60 65 10 44 83
52 3 2 5 60 83 44 11 67
53 3 2 5 61 2 67 84 38
54 3 2 5 61 38 84 69 3
55 3 2 5 61 67 11 45 84
56 3 2 5 61 84 45 12 69
57 3 2 5 62 3 69 85 39
58 3 2 5 62 39 85 71 4
59 3 2 5 62 69 12 46 85
60 3 2 5 62 85 46 13 71
61 3 2 5 63 4 71 73 5
62 3 2 5 63 71 13 14 73
63 3 2 5 64 5 73 86 40
64 3 2 5 64 40 86 75 6
65 3 2 5 64 73 14 47 86
66 3 2 5 64 86 47 15 75
67 3 2 5 65 6 75 87 41
68 3 2 5 65 41 87 77 7
69 3 2 5 65 75 15 48 87
70 3 2 5 65 87 48 16 77
71 3 2 5 66 7 77 88 42
72 3 2 5 66 42 88 79 8
73 3 2 5 66 77 16 49 88
74 3 2 5 66 88 49 17 79
75 3 2 5 67 8 79 89 43
76 3 2 5 67 43 89 81 9
77 3 2 5 67 79 17 50 89
78 3 2 5 67 89 50 18 81
79 3 2 5 68 10 19 51 44
80 3 2 5 68 44 51 20 11
81 3 2 2 69 11 20 52 45
82 3 2 2 69 45 52 21 12
83 3 2 5 70 12 21 53 46
84 3 2 5 70 46 53 22 13
85 3 2 6 71 13 22 23 14
86 3 2 1 72 14 23 54 47
87 3 2 1 72 47 54 24 15
88 3 2 1 73 15 24 55 48
89 3 2 1 73 48 55 25 16
90 3 2 5 74 16 25 56 49
91 3 2 5 74 49 56 26 17
92 3 2 5 75 17 26 57 50
93 3 2 5 75 50 57 27 18
94 3 2 5 76 19 66 90 51
95 3 2 5 76 51 90 68 20
96 3 2 5 76 66 28 58 90
97 3 2 5 76 90 58 29 68
98 3 2 2 77 20 68 91 52
99 3 2 2 77 52 91 70 21
100 3 2 2 77 68 29 59 91
101 3 2 2 77 91 59 30 70
102 3 2 5 78 21 70 92 53
103 3 2 5 78 53 92 72 22
104 3 2 5 78 70 30 60 92
105 3 2 5 78 92 60 31 72
106 3 2 5 79 22 72 74 23
107 3 2 5 79 72 31 32 74
108 3 2 4 80 23 74 93 54
109 3 2 4 80 54 93 76 24
110 3 2 4 80 74 32 61 93
111 3 2 4 80 93 61 33 76
112 3 2 1 81 24 76 94 55
113 3 2 1 81 55 94 78 25
114 3 2 1 81 76 33 62 94
115 3 2 1 81 94 62 34 78
116 3 2 3 82 25 78 95 56
117 3 2 3 82 56 95 80 26
118 3 2 3 82 78 34 63 95
119 3 2 3 82 95 63 35 80
120 3 2 5 83 26 80 96 57
121 3 2 5 83 57 96 82 27
122 3 2 5 83 80 35 64 96
123 3 2 5 83 96 64 36 82
$EndElements
